0 /media/data/graph_extraction_rhys_thesis_query/graphs/ma3map/ma3map-client_android/1b0a8258ab8e4a8248fec157badf4b8afa13a9b1/ke.co.ma3map.android.helpers.Database_runSelectQuery.acdfg.bin 0.47321554859179366
1 /media/data/graph_extraction_rhys_thesis_query/graphs/splitbrain/giraffe/f69a9bed3801cc923982a92257ac0b5cbaeb211f/org.splitbrain.giraffe.DBAdapter_getEvent.acdfg.bin 0.8635460063565825
2 /media/data/graph_extraction_rhys_thesis_query/graphs/splitbrain/giraffe/f69a9bed3801cc923982a92257ac0b5cbaeb211f/org.splitbrain.giraffe.DBAdapter_getEventsCursor.acdfg.bin 0.8814487894151946
3 /media/data/graph_extraction_rhys_thesis_query/graphs/splitbrain/giraffe/f69a9bed3801cc923982a92257ac0b5cbaeb211f/org.splitbrain.giraffe.DBAdapter_toggleFavorite.acdfg.bin 0.8993788237050532
4 /media/data/graph_extraction_rhys_thesis_query/graphs/SeanPONeil/MGoBlog/4e558bd966b69880ca8e9521ec030db375edab46/com.activeandroid.content.ContentProvider_query.acdfg.bin 0.16564988932589048
5 /media/data/graph_extraction_rhys_thesis_query/graphs/sh0/kotoba-android/b82a2e5c67a3b321639d5bab71b94d0146ade530/ee.yutani.kotoba.DataDatabase_VersionGet.acdfg.bin 0.7313467437305721
6 /media/data/graph_extraction_rhys_thesis_query/graphs/sh0/kotoba-android/b82a2e5c67a3b321639d5bab71b94d0146ade530/ee.yutani.kotoba.DataDatabase_VersionSet.acdfg.bin 0.7432620427621429
7 /media/data/graph_extraction_rhys_thesis_query/graphs/google/google-authenticator-android/a2861e27d9bf63f25785144b1063d9ec01a0c287/com.google.android.apps.authenticator.AccountDb_getAccount.acdfg.bin 0.3607609160216895
8 /media/data/graph_extraction_rhys_thesis_query/graphs/gustavomondron/twik/79417079fa8c51ec816a3a374850772ed77f0969/com.reddyetwo.hashmypass.app.data.TagSettings_siteHasTags.acdfg.bin 0.38323831808335307
9 /media/data/graph_extraction_rhys_thesis_query/graphs/gustavomondron/twik/79417079fa8c51ec816a3a374850772ed77f0969/com.reddyetwo.hashmypass.app.data.ProfileSettings_getProfileId.acdfg.bin 0.37367459206658465
10 /media/data/graph_extraction_rhys_thesis_query/graphs/gustavomondron/twik/79417079fa8c51ec816a3a374850772ed77f0969/com.reddyetwo.hashmypass.app.data.TagSettings_getTag.acdfg.bin 0.3749723552352427
11 /media/data/graph_extraction_rhys_thesis_query/graphs/gustavomondron/twik/79417079fa8c51ec816a3a374850772ed77f0969/com.reddyetwo.hashmypass.app.data.TagSettings_getSiteTag.acdfg.bin 0.3765314994095163
12 /media/data/graph_extraction_rhys_thesis_query/graphs/gustavomondron/twik/79417079fa8c51ec816a3a374850772ed77f0969/com.reddyetwo.hashmypass.app.data.FaviconSettings_getFavicon.acdfg.bin 0.368009027083605
13 /media/data/graph_extraction_rhys_thesis_query/graphs/gustavomondron/twik/79417079fa8c51ec816a3a374850772ed77f0969/com.reddyetwo.hashmypass.app.data.ProfileSettings_getProfile.acdfg.bin 0.3692107386678913
14 /media/data/graph_extraction_rhys_thesis_query/graphs/yandex-money/yandex-money-sdk-android/61d911285524dcfdb4243ef9cde6ab4dca6c2927/ru.yandex.money.android.sample.storage.DatabaseHelper_getValues.acdfg.bin 3.209258700245798
15 /media/data/graph_extraction_rhys_thesis_query/graphs/spacecowboy/AndroidTutorialContentProvider/3c0674586ebb807d060968ca6566af0d16baa88d/com.example.providerexample.database.PersonProvider_query.acdfg.bin 0.8456499136326981
16 /media/data/graph_extraction_rhys_thesis_query/graphs/spacecowboy/AndroidTutorialContentProvider/3c0674586ebb807d060968ca6566af0d16baa88d/com.example.providerexample.database.DatabaseHandler_getPerson.acdfg.bin 0.8300584137803357
17 /media/data/graph_extraction_rhys_thesis_query/graphs/nguillaumin/osmtracker-android/f1f88426a3883efd0eb9ce5ae41389646eedd10f/me.guillaumin.android.osmtracker.db.DatabaseHelper_manageNewStoragePath.acdfg.bin 0.6107133086401263
18 /media/data/graph_extraction_rhys_thesis_query/graphs/DevelopFreedom/logmein-android/418b37ffbafac3502b661d0918d1bc190e3c2dd1/org.developfreedom.logmein.DatabaseEngine_getUsernamePassword.acdfg.bin 0.15657187058208483
19 /media/data/graph_extraction_rhys_thesis_query/graphs/DevelopFreedom/logmein-android/418b37ffbafac3502b661d0918d1bc190e3c2dd1/org.developfreedom.logmein.DatabaseEngine_userList.acdfg.bin 0.15700084540361658
20 /media/data/graph_extraction_rhys_thesis_query/graphs/blunden/haveibeenpwned/d930bb4d37124681dab164d24821aa2131defb3f/se.blunden.haveibeenpwned.DBAdapter_getHistory.acdfg.bin 0.19181962878732858
21 /media/data/graph_extraction_rhys_thesis_query/graphs/QuantumBadger/RedReader/716b4a5ec2d9c8495cfbcebbe24d7fe3dfb41a2f/org.quantumbadger.redreader.cache.CacheDbManager_select.acdfg.bin 0.16421713905496704
22 /media/data/graph_extraction_rhys_thesis_query/graphs/QuantumBadger/RedReader/716b4a5ec2d9c8495cfbcebbe24d7fe3dfb41a2f/org.quantumbadger.redreader.account.RedditAccountManager_reloadAccounts.acdfg.bin 0.1628371111044868
23 /media/data/graph_extraction_rhys_thesis_query/graphs/QuantumBadger/RedReader/716b4a5ec2d9c8495cfbcebbe24d7fe3dfb41a2f/org.quantumbadger.redreader.io.RawObjectDB_getAll.acdfg.bin 0.16469182206047756
24 /media/data/graph_extraction_rhys_thesis_query/graphs/QuantumBadger/RedReader/716b4a5ec2d9c8495cfbcebbe24d7fe3dfb41a2f/org.quantumbadger.redreader.cache.CacheDbManager_getFilesToPrune.acdfg.bin 0.16374532443535614
25 /media/data/graph_extraction_rhys_thesis_query/graphs/QuantumBadger/RedReader/716b4a5ec2d9c8495cfbcebbe24d7fe3dfb41a2f/org.quantumbadger.redreader.io.RawObjectDB_getByField.acdfg.bin 0.16516939740691822
26 /media/data/graph_extraction_rhys_thesis_query/graphs/c-base/c-beam-droid/73ba169d4cf6e76a34e3e0e95739811e70514664/org.c_base.c_beam.util.NotificationsDataSource_createNotification.acdfg.bin 0.19399416330770297
27 /media/data/graph_extraction_rhys_thesis_query/graphs/c-base/c-beam-droid/73ba169d4cf6e76a34e3e0e95739811e70514664/org.c_base.c_beam.util.NotificationsDataSource_getAllNotifications.acdfg.bin 0.19467712326134373
28 /media/data/graph_extraction_rhys_thesis_query/graphs/c-base/c-beam-droid/73ba169d4cf6e76a34e3e0e95739811e70514664/org.c_base.c_beam.mqtt.Persistence_restoreConnections.acdfg.bin 0.18832809309443427
29 /media/data/graph_extraction_rhys_thesis_query/graphs/scorelab/Tracker/24ac594af10e9597ab6035eecab314cb351bb524/ogr.scorelab.ucsc.mobility_track.DBAccess_get.acdfg.bin 0.7086324135284364
30 /media/data/graph_extraction_rhys_thesis_query/graphs/codeskraps/sBrowser/70090f0c8b531fc1c8de7a2dc3c017ff368721b8/com.codeskraps.sbrowser.misc.DataBaseData_query.acdfg.bin 0.1953624319922483
31 /media/data/graph_extraction_rhys_thesis_query/graphs/mopub/mopub-android-sdk/8bb31a5d2b0dd1489792aa3ca17c505395319624/com.mopub.simpleadsdemo.AdUnitDataSource_createSampleAdUnit.acdfg.bin 0.5871616229956719
32 /media/data/graph_extraction_rhys_thesis_query/graphs/mopub/mopub-android-sdk/8bb31a5d2b0dd1489792aa3ca17c505395319624/com.mopub.simpleadsdemo.AdUnitDataSource_getAllAdUnits.acdfg.bin 0.5949598633010831
33 /media/data/graph_extraction_rhys_thesis_query/graphs/danieloeh/AntennaPodSP/b0c74b0fa7df908a56a4096ac75f78ab17f57233/de.danoeh.antennapodsp.storage.PodDBAdapter_getAllItemsOfFeedCursor.acdfg.bin 0.23374246409336757
34 /media/data/graph_extraction_rhys_thesis_query/graphs/danieloeh/AntennaPodSP/b0c74b0fa7df908a56a4096ac75f78ab17f57233/de.danoeh.antennapodsp.storage.PodDBAdapter_searchItemTitles.acdfg.bin 0.2529874546596212
35 /media/data/graph_extraction_rhys_thesis_query/graphs/danieloeh/AntennaPodSP/b0c74b0fa7df908a56a4096ac75f78ab17f57233/de.danoeh.antennapodsp.storage.PodDBAdapter_getSimpleChaptersOfFeedItemCursor.acdfg.bin 0.24670293031937832
36 /media/data/graph_extraction_rhys_thesis_query/graphs/danieloeh/AntennaPodSP/b0c74b0fa7df908a56a4096ac75f78ab17f57233/de.danoeh.antennapodsp.storage.PodDBAdapter_getFeedMediaCursorByItemID.acdfg.bin 0.24221264075567114
37 /media/data/graph_extraction_rhys_thesis_query/graphs/danieloeh/AntennaPodSP/b0c74b0fa7df908a56a4096ac75f78ab17f57233/de.danoeh.antennapodsp.storage.PodDBAdapter_getFeedCursorDownloadUrls.acdfg.bin 0.24003320065709974
38 /media/data/graph_extraction_rhys_thesis_query/graphs/danieloeh/AntennaPodSP/b0c74b0fa7df908a56a4096ac75f78ab17f57233/de.danoeh.antennapodsp.storage.PodDBAdapter_getQueueIDCursor.acdfg.bin 0.2455635125888051
39 /media/data/graph_extraction_rhys_thesis_query/graphs/danieloeh/AntennaPodSP/b0c74b0fa7df908a56a4096ac75f78ab17f57233/de.danoeh.antennapodsp.storage.PodDBAdapter_searchItemDescriptions.acdfg.bin 0.2525764575822912
40 /media/data/graph_extraction_rhys_thesis_query/graphs/danieloeh/AntennaPodSP/b0c74b0fa7df908a56a4096ac75f78ab17f57233/de.danoeh.antennapodsp.storage.PodDBAdapter_getFeedCursor.acdfg.bin 0.23895933749454193
41 /media/data/graph_extraction_rhys_thesis_query/graphs/danieloeh/AntennaPodSP/b0c74b0fa7df908a56a4096ac75f78ab17f57233/de.danoeh.antennapodsp.storage.PodDBAdapter_getExpiredFeedsCursor.acdfg.bin 0.23684254780090033
42 /media/data/graph_extraction_rhys_thesis_query/graphs/danieloeh/AntennaPodSP/b0c74b0fa7df908a56a4096ac75f78ab17f57233/de.danoeh.antennapodsp.storage.PodDBAdapter_getUnreadItemsCursor.acdfg.bin 0.2501910230784066
43 /media/data/graph_extraction_rhys_thesis_query/graphs/danieloeh/AntennaPodSP/b0c74b0fa7df908a56a4096ac75f78ab17f57233/de.danoeh.antennapodsp.storage.PodDBAdapter_getCompletedMediaCursor.acdfg.bin 0.2347660061973895
44 /media/data/graph_extraction_rhys_thesis_query/graphs/danieloeh/AntennaPodSP/b0c74b0fa7df908a56a4096ac75f78ab17f57233/de.danoeh.antennapodsp.storage.PodDBAdapter_getUnreadItemIdsCursor.acdfg.bin 0.24901650447720453
45 /media/data/graph_extraction_rhys_thesis_query/graphs/danieloeh/AntennaPodSP/b0c74b0fa7df908a56a4096ac75f78ab17f57233/de.danoeh.antennapodsp.storage.PodDBAdapter_getAllFeedsCursor.acdfg.bin 0.23272855244795548
46 /media/data/graph_extraction_rhys_thesis_query/graphs/danieloeh/AntennaPodSP/b0c74b0fa7df908a56a4096ac75f78ab17f57233/de.danoeh.antennapodsp.storage.PodDBAdapter_getImageOfFeedCursor.acdfg.bin 0.24443543914908897
47 /media/data/graph_extraction_rhys_thesis_query/graphs/danieloeh/AntennaPodSP/b0c74b0fa7df908a56a4096ac75f78ab17f57233/de.danoeh.antennapodsp.storage.PodDBAdapter_getFeedItemCursor.acdfg.bin 0.24111758222480897
48 /media/data/graph_extraction_rhys_thesis_query/graphs/danieloeh/AntennaPodSP/b0c74b0fa7df908a56a4096ac75f78ab17f57233/de.danoeh.antennapodsp.storage.PodDBAdapter_getExtraInformationOfItem.acdfg.bin 0.23789583732432057
49 /media/data/graph_extraction_rhys_thesis_query/graphs/danieloeh/AntennaPodSP/b0c74b0fa7df908a56a4096ac75f78ab17f57233/de.danoeh.antennapodsp.storage.PodDBAdapter_getDownloadLogCursor.acdfg.bin 0.2357993195704317
50 /media/data/graph_extraction_rhys_thesis_query/graphs/danieloeh/AntennaPodSP/b0c74b0fa7df908a56a4096ac75f78ab17f57233/de.danoeh.antennapodsp.storage.PodDBAdapter_getSingleFeedMediaCursor.acdfg.bin 0.2478538678803094
51 /media/data/graph_extraction_rhys_thesis_query/graphs/danieloeh/AntennaPodSP/b0c74b0fa7df908a56a4096ac75f78ab17f57233/de.danoeh.antennapodsp.storage.PodDBAdapter_getFeedMediaOfItemCursor.acdfg.bin 0.24331853803317638
52 /media/data/graph_extraction_rhys_thesis_query/graphs/danieloeh/AntennaPodSP/b0c74b0fa7df908a56a4096ac75f78ab17f57233/de.danoeh.antennapodsp.storage.PodDBAdapter_searchItemContentEncoded.acdfg.bin 0.2513776105147126
53 /media/data/graph_extraction_rhys_thesis_query/graphs/Nutomic/movecerts/c0d0186395f1483b79d8dbbaac8ac98c67cc0d25/com.nutomic.zertman.MovedCertificatesStorage_list.acdfg.bin 0.16281145545997994
54 /media/data/graph_extraction_rhys_thesis_query/graphs/KTachibanaM/cloudemoji/eb01195fcb5883fc42c9f0ef2e88615acca645fa/org.ktachibana.cloudemoji.activities.MainActivity_upgradeFavoriteDatabaseIfExists.acdfg.bin 0.16234810497332133
55 /media/data/graph_extraction_rhys_thesis_query/graphs/sheimi/SGit/13fe731f0043e3f3febd79e3a3b62b61bb2b6864/me.sheimi.sgit.database.RepoDbManager__queryAllRepo.acdfg.bin 0.7708500568246147
56 /media/data/graph_extraction_rhys_thesis_query/graphs/sheimi/SGit/13fe731f0043e3f3febd79e3a3b62b61bb2b6864/me.sheimi.sgit.database.RepoDbManager__getRepoById.acdfg.bin 0.756659078984583
57 /media/data/graph_extraction_rhys_thesis_query/graphs/sheimi/SGit/13fe731f0043e3f3febd79e3a3b62b61bb2b6864/me.sheimi.sgit.database.RepoDbManager__searchRepo.acdfg.bin 0.7847812510741682
58 /media/data/graph_extraction_rhys_thesis_query/graphs/macdidi5/AndroidTutorial/c43e16f5026b5bd637978c053411b7233e30cb7c/net.macdidi.myandroidtutorial.ItemDAO_get.acdfg.bin 0.4834290068880549
59 /media/data/graph_extraction_rhys_thesis_query/graphs/macdidi5/AndroidTutorial/c43e16f5026b5bd637978c053411b7233e30cb7c/net.macdidi.myandroidtutorial.ItemDAO_getAll.acdfg.bin 0.48472704429478264
60 /media/data/graph_extraction_rhys_thesis_query/graphs/AndlyticsProject/andlytics/b70ff47a1d01ce01d4d5eb27ea7c42e29be83f9b/com.github.andlyticsproject.DeveloperAccountManager_getAllDeveloperAccounts.acdfg.bin 0.15117453106987777
61 /media/data/graph_extraction_rhys_thesis_query/graphs/AndlyticsProject/andlytics/b70ff47a1d01ce01d4d5eb27ea7c42e29be83f9b/com.github.andlyticsproject.db.AndlyticsDb_insertOrUpdateAppDetails.acdfg.bin 0.15529850199234743
62 /media/data/graph_extraction_rhys_thesis_query/graphs/AndlyticsProject/andlytics/b70ff47a1d01ce01d4d5eb27ea7c42e29be83f9b/com.github.andlyticsproject.DeveloperAccountManager_getDeveloperAccountsByState.acdfg.bin 0.15157113091990676
63 /media/data/graph_extraction_rhys_thesis_query/graphs/AndlyticsProject/andlytics/b70ff47a1d01ce01d4d5eb27ea7c42e29be83f9b/com.github.andlyticsproject.db.AndlyticsDb_fetchRevenueSummary.acdfg.bin 0.1527796711333686
64 /media/data/graph_extraction_rhys_thesis_query/graphs/AndlyticsProject/andlytics/b70ff47a1d01ce01d4d5eb27ea7c42e29be83f9b/com.github.andlyticsproject.db.AndlyticsDb_findAppByPackageName.acdfg.bin 0.15237113820974427
65 /media/data/graph_extraction_rhys_thesis_query/graphs/AndlyticsProject/andlytics/b70ff47a1d01ce01d4d5eb27ea7c42e29be83f9b/com.github.andlyticsproject.db.AndlyticsDb_getAdmobDetails.acdfg.bin 0.15360638368913454
66 /media/data/graph_extraction_rhys_thesis_query/graphs/AndlyticsProject/andlytics/b70ff47a1d01ce01d4d5eb27ea7c42e29be83f9b/com.github.andlyticsproject.db.AndlyticsDb_getLinksForApp.acdfg.bin 0.15443876259579217
67 /media/data/graph_extraction_rhys_thesis_query/graphs/AndlyticsProject/andlytics/b70ff47a1d01ce01d4d5eb27ea7c42e29be83f9b/com.github.andlyticsproject.db.AndlyticsDb_findPackageId.acdfg.bin 0.15363501016599684
68 /media/data/graph_extraction_rhys_thesis_query/graphs/AndlyticsProject/andlytics/b70ff47a1d01ce01d4d5eb27ea7c42e29be83f9b/com.github.andlyticsproject.DeveloperAccountManager_findDeveloperAccountByName.acdfg.bin 0.15038990825688073
69 /media/data/graph_extraction_rhys_thesis_query/graphs/AndlyticsProject/andlytics/b70ff47a1d01ce01d4d5eb27ea7c42e29be83f9b/com.github.andlyticsproject.DeveloperAccountManager_findDeveloperAccountById.acdfg.bin 0.15
70 /media/data/graph_extraction_rhys_thesis_query/graphs/AndlyticsProject/andlytics/b70ff47a1d01ce01d4d5eb27ea7c42e29be83f9b/com.github.andlyticsproject.db.AndlyticsDb_fetchAppDetails.acdfg.bin 0.15237113820974427
71 /media/data/graph_extraction_rhys_thesis_query/graphs/AndlyticsProject/andlytics/b70ff47a1d01ce01d4d5eb27ea7c42e29be83f9b/com.github.andlyticsproject.db.AndlyticsDb_migrateAppInfoPrefs.acdfg.bin 0.15572003233140508
72 /media/data/graph_extraction_rhys_thesis_query/graphs/AndlyticsProject/andlytics/b70ff47a1d01ce01d4d5eb27ea7c42e29be83f9b/com.github.andlyticsproject.db.AndlyticsDb_getLastCommentsRemoteUpdateTime.acdfg.bin 0.1544625930304496
73 /media/data/graph_extraction_rhys_thesis_query/graphs/AndlyticsProject/andlytics/b70ff47a1d01ce01d4d5eb27ea7c42e29be83f9b/com.github.andlyticsproject.db.AndlyticsContentProvider_getAppStatsIdByDate.acdfg.bin 0.1519699942082973
74 /media/data/graph_extraction_rhys_thesis_query/graphs/AndlyticsProject/andlytics/b70ff47a1d01ce01d4d5eb27ea7c42e29be83f9b/com.github.andlyticsproject.DeveloperAccountManager_getActiveDeveloperAccounts.acdfg.bin 0.15078101255135926
75 /media/data/graph_extraction_rhys_thesis_query/graphs/Securecom/Securecom-Text/c253500783a8cdfdb0bb9fa1700b5c0c45a43a3e/com.securecomcode.text.database.MmsDatabase_getNotificationsWithDownloadState.acdfg.bin 0.17462901417189566
76 /media/data/graph_extraction_rhys_thesis_query/graphs/Securecom/Securecom-Text/c253500783a8cdfdb0bb9fa1700b5c0c45a43a3e/com.securecomcode.text.database.IdentityDatabase_isValidIdentity.acdfg.bin 0.1711795718828851
77 /media/data/graph_extraction_rhys_thesis_query/graphs/Securecom/Securecom-Text/c253500783a8cdfdb0bb9fa1700b5c0c45a43a3e/com.securecomcode.text.database.ThreadDatabase_getFilteredConversationList.acdfg.bin 0.18375584962743402
78 /media/data/graph_extraction_rhys_thesis_query/graphs/Securecom/Securecom-Text/c253500783a8cdfdb0bb9fa1700b5c0c45a43a3e/com.securecomcode.text.database.DatabaseFactory_onApplicationLevelUpgrade.acdfg.bin 0.15560335754768423
79 /media/data/graph_extraction_rhys_thesis_query/graphs/Securecom/Securecom-Text/c253500783a8cdfdb0bb9fa1700b5c0c45a43a3e/com.securecomcode.text.database.ThreadDatabase_getThreadIdIfExistsFor.acdfg.bin 0.18477796035819216
80 /media/data/graph_extraction_rhys_thesis_query/graphs/Securecom/Securecom-Text/c253500783a8cdfdb0bb9fa1700b5c0c45a43a3e/com.securecomcode.text.database.ThreadDatabase_getThreadIdFor.acdfg.bin 0.1841670303273717
81 /media/data/graph_extraction_rhys_thesis_query/graphs/Securecom/Securecom-Text/c253500783a8cdfdb0bb9fa1700b5c0c45a43a3e/com.securecomcode.text.database.ThreadDatabase_getConversationList.acdfg.bin 0.183150561213048
82 /media/data/graph_extraction_rhys_thesis_query/graphs/Securecom/Securecom-Text/c253500783a8cdfdb0bb9fa1700b5c0c45a43a3e/com.securecomcode.text.database.DatabaseFactory$DatabaseHelper_onUpgrade.acdfg.bin 0.16816378762240938
83 /media/data/graph_extraction_rhys_thesis_query/graphs/Securecom/Securecom-Text/c253500783a8cdfdb0bb9fa1700b5c0c45a43a3e/com.securecomcode.text.database.MmsAddressDatabase_getAddressesForId.acdfg.bin 0.17250322453052475
84 /media/data/graph_extraction_rhys_thesis_query/graphs/Securecom/Securecom-Text/c253500783a8cdfdb0bb9fa1700b5c0c45a43a3e/com.securecomcode.text.database.MmsDatabase_deleteMessagesInThreadBeforeDate.acdfg.bin 0.1722303033362956
85 /media/data/graph_extraction_rhys_thesis_query/graphs/Securecom/Securecom-Text/c253500783a8cdfdb0bb9fa1700b5c0c45a43a3e/com.securecomcode.text.database.ApnDatabase_getMmsConnectionParameters.acdfg.bin 0.16661637826782533
86 /media/data/graph_extraction_rhys_thesis_query/graphs/Securecom/Securecom-Text/c253500783a8cdfdb0bb9fa1700b5c0c45a43a3e/com.securecomcode.text.database.PartDatabase_getPartStream.acdfg.bin 0.1760142656885832
87 /media/data/graph_extraction_rhys_thesis_query/graphs/Securecom/Securecom-Text/c253500783a8cdfdb0bb9fa1700b5c0c45a43a3e/com.securecomcode.text.database.MmsDatabase_getOutgoingMessages.acdfg.bin 0.17437033108550803
88 /media/data/graph_extraction_rhys_thesis_query/graphs/Securecom/Securecom-Text/c253500783a8cdfdb0bb9fa1700b5c0c45a43a3e/com.securecomcode.text.database.GroupDatabase_getCurrentMembers.acdfg.bin 0.16962516046835965
89 /media/data/graph_extraction_rhys_thesis_query/graphs/Securecom/Securecom-Text/c253500783a8cdfdb0bb9fa1700b5c0c45a43a3e/com.securecomcode.text.database.CanonicalAddressDatabase_fillCache.acdfg.bin 0.16711091055090715
90 /media/data/graph_extraction_rhys_thesis_query/graphs/Securecom/Securecom-Text/c253500783a8cdfdb0bb9fa1700b5c0c45a43a3e/com.securecomcode.text.database.PushDatabase_getPending.acdfg.bin 0.17848779710627272
91 /media/data/graph_extraction_rhys_thesis_query/graphs/Securecom/Securecom-Text/c253500783a8cdfdb0bb9fa1700b5c0c45a43a3e/com.securecomcode.text.database.SmsDatabase_getMessage.acdfg.bin 0.1802100504906611
92 /media/data/graph_extraction_rhys_thesis_query/graphs/Securecom/Securecom-Text/c253500783a8cdfdb0bb9fa1700b5c0c45a43a3e/com.securecomcode.text.database.PartDatabase_deleteParts.acdfg.bin 0.17491511075765964
93 /media/data/graph_extraction_rhys_thesis_query/graphs/Securecom/Securecom-Text/c253500783a8cdfdb0bb9fa1700b5c0c45a43a3e/com.securecomcode.text.database.MmsDatabase_deleteThreads.acdfg.bin 0.17275874018329626
94 /media/data/graph_extraction_rhys_thesis_query/graphs/Securecom/Securecom-Text/c253500783a8cdfdb0bb9fa1700b5c0c45a43a3e/com.securecomcode.text.database.DraftDatabase_getDrafts.acdfg.bin 0.16911541542187528
95 /media/data/graph_extraction_rhys_thesis_query/graphs/Securecom/Securecom-Text/c253500783a8cdfdb0bb9fa1700b5c0c45a43a3e/com.securecomcode.text.database.SmsDatabase_getMessages.acdfg.bin 0.1819619775909128
96 /media/data/graph_extraction_rhys_thesis_query/graphs/Securecom/Securecom-Text/c253500783a8cdfdb0bb9fa1700b5c0c45a43a3e/com.securecomcode.text.database.IdentityDatabase_getIdentities.acdfg.bin 0.17145378565447325
97 /media/data/graph_extraction_rhys_thesis_query/graphs/Securecom/Securecom-Text/c253500783a8cdfdb0bb9fa1700b5c0c45a43a3e/com.securecomcode.text.database.SmsDatabase_getMessageCount.acdfg.bin 0.18078995778046428
98 /media/data/graph_extraction_rhys_thesis_query/graphs/Securecom/Securecom-Text/c253500783a8cdfdb0bb9fa1700b5c0c45a43a3e/com.securecomcode.text.database.PartDatabase_getPart.acdfg.bin 0.17626188095637596
99 /media/data/graph_extraction_rhys_thesis_query/graphs/Securecom/Securecom-Text/c253500783a8cdfdb0bb9fa1700b5c0c45a43a3e/com.securecomcode.text.database.SmsDatabase_getOutgoingMessages.acdfg.bin 0.1825541768558273
100 /media/data/graph_extraction_rhys_thesis_query/graphs/Securecom/Securecom-Text/c253500783a8cdfdb0bb9fa1700b5c0c45a43a3e/com.securecomcode.text.database.CanonicalAddressDatabase_getAddressFromId.acdfg.bin 0.1676085230996262
101 /media/data/graph_extraction_rhys_thesis_query/graphs/Securecom/Securecom-Text/c253500783a8cdfdb0bb9fa1700b5c0c45a43a3e/com.securecomcode.text.database.ThreadDatabase_getRecipientsForThreadId.acdfg.bin 0.18356045024605297
102 /media/data/graph_extraction_rhys_thesis_query/graphs/Securecom/Securecom-Text/c253500783a8cdfdb0bb9fa1700b5c0c45a43a3e/com.securecomcode.text.database.CanonicalAddressDatabase_getCanonicalAddressIdFromDatabase.acdfg.bin 0.16810399011343347
103 /media/data/graph_extraction_rhys_thesis_query/graphs/Securecom/Securecom-Text/c253500783a8cdfdb0bb9fa1700b5c0c45a43a3e/com.securecomcode.text.database.MmsDatabase_getMessageCountForThread.acdfg.bin 0.17409101026035279
104 /media/data/graph_extraction_rhys_thesis_query/graphs/Securecom/Securecom-Text/c253500783a8cdfdb0bb9fa1700b5c0c45a43a3e/com.securecomcode.text.contacts.ContactsDatabase_queryLocalDb.acdfg.bin 0.16613166104788823
105 /media/data/graph_extraction_rhys_thesis_query/graphs/Securecom/Securecom-Text/c253500783a8cdfdb0bb9fa1700b5c0c45a43a3e/com.securecomcode.text.database.SmsDatabase_getDecryptInProgressMessages.acdfg.bin 0.1790622287730259
106 /media/data/graph_extraction_rhys_thesis_query/graphs/Securecom/Securecom-Text/c253500783a8cdfdb0bb9fa1700b5c0c45a43a3e/com.securecomcode.text.database.SmsDatabase_getEncryptedRogueMessages.acdfg.bin 0.17963415478327552
107 /media/data/graph_extraction_rhys_thesis_query/graphs/Securecom/Securecom-Text/c253500783a8cdfdb0bb9fa1700b5c0c45a43a3e/com.securecomcode.text.database.PartDatabase_getParts.acdfg.bin 0.17656820411140395
108 /media/data/graph_extraction_rhys_thesis_query/graphs/Securecom/Securecom-Text/c253500783a8cdfdb0bb9fa1700b5c0c45a43a3e/com.securecomcode.text.database.GroupDatabase_getGroup.acdfg.bin 0.17093673691236008
109 /media/data/graph_extraction_rhys_thesis_query/graphs/Securecom/Securecom-Text/c253500783a8cdfdb0bb9fa1700b5c0c45a43a3e/com.securecomcode.text.database.PartDatabase_getPushPendingParts.acdfg.bin 0.17712593326009998
110 /media/data/graph_extraction_rhys_thesis_query/graphs/Securecom/Securecom-Text/c253500783a8cdfdb0bb9fa1700b5c0c45a43a3e/com.securecomcode.text.database.SmsDatabase_getMessageCountForThread.acdfg.bin 0.18137391912439113
111 /media/data/graph_extraction_rhys_thesis_query/graphs/dreeves/TagTime/f991d3ee3fe9bc758c54044a398ef8b7c2613d95/bsoule.tagtime.BeeminderDbAdapter_fetchTagString.acdfg.bin 0.26396207315935294
112 /media/data/graph_extraction_rhys_thesis_query/graphs/dreeves/TagTime/f991d3ee3fe9bc758c54044a398ef8b7c2613d95/bsoule.tagtime.BeeminderDbAdapter_fetchGoalTags.acdfg.bin 0.26004876949422373
113 /media/data/graph_extraction_rhys_thesis_query/graphs/dreeves/TagTime/f991d3ee3fe9bc758c54044a398ef8b7c2613d95/bsoule.tagtime.BeeminderDbAdapter_getGoalID.acdfg.bin 0.2652950164178911
114 /media/data/graph_extraction_rhys_thesis_query/graphs/dreeves/TagTime/f991d3ee3fe9bc758c54044a398ef8b7c2613d95/bsoule.tagtime.PingsDbAdapter_fetchTagString.acdfg.bin 0.2802037544549009
115 /media/data/graph_extraction_rhys_thesis_query/graphs/dreeves/TagTime/f991d3ee3fe9bc758c54044a398ef8b7c2613d95/bsoule.tagtime.PingsDbAdapter_getTagName.acdfg.bin 0.28721553722433246
116 /media/data/graph_extraction_rhys_thesis_query/graphs/dreeves/TagTime/f991d3ee3fe9bc758c54044a398ef8b7c2613d95/bsoule.tagtime.BeeminderDbAdapter_fetchGoal.acdfg.bin 0.25877207110982026
117 /media/data/graph_extraction_rhys_thesis_query/graphs/dreeves/TagTime/f991d3ee3fe9bc758c54044a398ef8b7c2613d95/bsoule.tagtime.BeeminderDbAdapter_fetchPointPings.acdfg.bin 0.26264354133075246
118 /media/data/graph_extraction_rhys_thesis_query/graphs/dreeves/TagTime/f991d3ee3fe9bc758c54044a398ef8b7c2613d95/bsoule.tagtime.BeeminderDbAdapter_getGoalUpdatedAt.acdfg.bin 0.2666426133714004
119 /media/data/graph_extraction_rhys_thesis_query/graphs/dreeves/TagTime/f991d3ee3fe9bc758c54044a398ef8b7c2613d95/bsoule.tagtime.PingsDbAdapter_fetchAllTags.acdfg.bin 0.27800373375645965
120 /media/data/graph_extraction_rhys_thesis_query/graphs/dreeves/TagTime/f991d3ee3fe9bc758c54044a398ef8b7c2613d95/bsoule.tagtime.BeeminderDbAdapter_getPointID.acdfg.bin 0.26800511178508746
121 /media/data/graph_extraction_rhys_thesis_query/graphs/dreeves/TagTime/f991d3ee3fe9bc758c54044a398ef8b7c2613d95/bsoule.tagtime.BeeminderDbAdapter_fetchAllGoals.acdfg.bin 0.256258940577629
122 /media/data/graph_extraction_rhys_thesis_query/graphs/dreeves/TagTime/f991d3ee3fe9bc758c54044a398ef8b7c2613d95/bsoule.tagtime.PingsDbAdapter_getAllTagIds.acdfg.bin 0.2840708893081481
123 /media/data/graph_extraction_rhys_thesis_query/graphs/dreeves/TagTime/f991d3ee3fe9bc758c54044a398ef8b7c2613d95/bsoule.tagtime.BeeminderDbAdapter_removeGoalPoints.acdfg.bin 0.27218457929352197
124 /media/data/graph_extraction_rhys_thesis_query/graphs/dreeves/TagTime/f991d3ee3fe9bc758c54044a398ef8b7c2613d95/bsoule.tagtime.BeeminderDbAdapter_fetchPoint.acdfg.bin 0.26133918401473966
125 /media/data/graph_extraction_rhys_thesis_query/graphs/dreeves/TagTime/f991d3ee3fe9bc758c54044a398ef8b7c2613d95/bsoule.tagtime.PingsDbAdapter_fetchPing.acdfg.bin 0.2794951923081613
126 /media/data/graph_extraction_rhys_thesis_query/graphs/dreeves/TagTime/f991d3ee3fe9bc758c54044a398ef8b7c2613d95/bsoule.tagtime.BeeminderDbAdapter_isGoalTag.acdfg.bin 0.2693827650820948
127 /media/data/graph_extraction_rhys_thesis_query/graphs/dreeves/TagTime/f991d3ee3fe9bc758c54044a398ef8b7c2613d95/bsoule.tagtime.PingsDbAdapter_getTID.acdfg.bin 0.2856338612588391
128 /media/data/graph_extraction_rhys_thesis_query/graphs/dreeves/TagTime/f991d3ee3fe9bc758c54044a398ef8b7c2613d95/bsoule.tagtime.BeeminderDbAdapter_fetchAllPoints.acdfg.bin 0.2575088671219812
129 /media/data/graph_extraction_rhys_thesis_query/graphs/dreeves/TagTime/f991d3ee3fe9bc758c54044a398ef8b7c2613d95/bsoule.tagtime.BeeminderDbAdapter_isPointPing.acdfg.bin 0.27077583250674925
130 /media/data/graph_extraction_rhys_thesis_query/graphs/dreeves/TagTime/f991d3ee3fe9bc758c54044a398ef8b7c2613d95/bsoule.tagtime.PingsDbAdapter_isTagPing.acdfg.bin 0.2888162613964378
131 /media/data/graph_extraction_rhys_thesis_query/graphs/dreeves/TagTime/f991d3ee3fe9bc758c54044a398ef8b7c2613d95/bsoule.tagtime.PingsDbAdapter_fetchAllPings.acdfg.bin 0.2765106957426297
132 /media/data/graph_extraction_rhys_thesis_query/graphs/dreeves/TagTime/f991d3ee3fe9bc758c54044a398ef8b7c2613d95/bsoule.tagtime.PingsDbAdapter_fetchTaggings.acdfg.bin 0.2825262854828164
133 /media/data/graph_extraction_rhys_thesis_query/graphs/dreeves/TagTime/f991d3ee3fe9bc758c54044a398ef8b7c2613d95/bsoule.tagtime.PingsDbAdapter$DatabaseHelper_onUpgrade.acdfg.bin 0.2715784593149402
134 /media/data/graph_extraction_rhys_thesis_query/graphs/dreeves/TagTime/f991d3ee3fe9bc758c54044a398ef8b7c2613d95/bsoule.tagtime.PingsDbAdapter_cleanupUnusedTags.acdfg.bin 0.27425716669272515
135 /media/data/graph_extraction_rhys_thesis_query/graphs/sandsmark/QuasselDroid/45bc289860b663688af327d8bd1afcb26e655091/com.iskrembilen.quasseldroid.io.QuasselDbHelper_getCore.acdfg.bin 0.6656639151459237
136 /media/data/graph_extraction_rhys_thesis_query/graphs/sandsmark/QuasselDroid/45bc289860b663688af327d8bd1afcb26e655091/com.iskrembilen.quasseldroid.io.QuasselDbHelper_getHiddenEvents.acdfg.bin 0.6762056922395691
137 /media/data/graph_extraction_rhys_thesis_query/graphs/sandsmark/QuasselDroid/45bc289860b663688af327d8bd1afcb26e655091/com.iskrembilen.quasseldroid.io.QuasselDbHelper_getCertificate.acdfg.bin 0.6563193030526481
138 /media/data/graph_extraction_rhys_thesis_query/graphs/sandsmark/QuasselDroid/45bc289860b663688af327d8bd1afcb26e655091/com.iskrembilen.quasseldroid.io.QuasselDbHelper_getUser.acdfg.bin 0.6862126255617415
139 /media/data/graph_extraction_rhys_thesis_query/graphs/sandsmark/QuasselDroid/45bc289860b663688af327d8bd1afcb26e655091/com.iskrembilen.quasseldroid.io.QuasselDbHelper_hasCores.acdfg.bin 0.6974510482554401
140 /media/data/graph_extraction_rhys_thesis_query/graphs/sandsmark/QuasselDroid/45bc289860b663688af327d8bd1afcb26e655091/com.iskrembilen.quasseldroid.io.QuasselDbHelper_getAllCores.acdfg.bin 0.6468414579703501
141 /media/data/graph_extraction_rhys_thesis_query/graphs/tomahawk-player/tomahawk-android/54093fdbd0e74e5e406f522b9fed11d34e94201b/org.tomahawk.libtomahawk.database.DatabaseHelper_getLoggedOps.acdfg.bin 1.0325773100358515
142 /media/data/graph_extraction_rhys_thesis_query/graphs/tomahawk-player/tomahawk-android/54093fdbd0e74e5e406f522b9fed11d34e94201b/org.tomahawk.libtomahawk.database.DatabaseHelper_isMediaDirWhiteListed.acdfg.bin 1.404875739631666
143 /media/data/graph_extraction_rhys_thesis_query/graphs/tomahawk-player/tomahawk-android/54093fdbd0e74e5e406f522b9fed11d34e94201b/org.tomahawk.libtomahawk.database.DatabaseHelper_getPlaylist.acdfg.bin 1.0372165550325805
144 /media/data/graph_extraction_rhys_thesis_query/graphs/tomahawk-player/tomahawk-android/54093fdbd0e74e5e406f522b9fed11d34e94201b/org.tomahawk.libtomahawk.database.UserCollectionDb_isLoved.acdfg.bin 1.5551899991562093
145 /media/data/graph_extraction_rhys_thesis_query/graphs/tomahawk-player/tomahawk-android/54093fdbd0e74e5e406f522b9fed11d34e94201b/org.tomahawk.libtomahawk.database.CollectionDb_storeNewRevision.acdfg.bin 0.9637913844030495
146 /media/data/graph_extraction_rhys_thesis_query/graphs/tomahawk-player/tomahawk-android/54093fdbd0e74e5e406f522b9fed11d34e94201b/org.tomahawk.libtomahawk.database.DatabaseHelper_getPlaylistTrackCount.acdfg.bin 1.1984762280323369
147 /media/data/graph_extraction_rhys_thesis_query/graphs/tomahawk-player/tomahawk-android/54093fdbd0e74e5e406f522b9fed11d34e94201b/org.tomahawk.libtomahawk.database.DatabaseHelper_getPlaylistLocalId.acdfg.bin 1.1490650712093446
148 /media/data/graph_extraction_rhys_thesis_query/graphs/tomahawk-player/tomahawk-android/54093fdbd0e74e5e406f522b9fed11d34e94201b/org.tomahawk.libtomahawk.database.UserCollectionDb_getArtistId.acdfg.bin 1.4946983617761416
149 /media/data/graph_extraction_rhys_thesis_query/graphs/tomahawk-player/tomahawk-android/54093fdbd0e74e5e406f522b9fed11d34e94201b/org.tomahawk.libtomahawk.database.DatabaseHelper_isItemLoved.acdfg.bin 1.341550819104434
150 /media/data/graph_extraction_rhys_thesis_query/graphs/tomahawk-player/tomahawk-android/54093fdbd0e74e5e406f522b9fed11d34e94201b/org.tomahawk.libtomahawk.database.DatabaseHelper_getEmptyPlaylist.acdfg.bin 1.0069139261789457
151 /media/data/graph_extraction_rhys_thesis_query/graphs/tomahawk-player/tomahawk-android/54093fdbd0e74e5e406f522b9fed11d34e94201b/org.tomahawk.libtomahawk.database.DatabaseHelper_getLoggedOpsCount.acdfg.bin 1.059874121070488
152 /media/data/graph_extraction_rhys_thesis_query/graphs/tomahawk-player/tomahawk-android/54093fdbd0e74e5e406f522b9fed11d34e94201b/org.tomahawk.libtomahawk.database.DatabaseHelper_getSearchHistoryCursor.acdfg.bin 1.2982119183691843
153 /media/data/graph_extraction_rhys_thesis_query/graphs/tomahawk-player/tomahawk-android/54093fdbd0e74e5e406f522b9fed11d34e94201b/org.tomahawk.libtomahawk.database.CollectionDb_addTracks.acdfg.bin 0.853891631407054
154 /media/data/graph_extraction_rhys_thesis_query/graphs/tomahawk-player/tomahawk-android/54093fdbd0e74e5e406f522b9fed11d34e94201b/org.tomahawk.libtomahawk.database.CollectionDb_getLastUpdated.acdfg.bin 0.9404560719158537
155 /media/data/graph_extraction_rhys_thesis_query/graphs/tomahawk-player/tomahawk-android/54093fdbd0e74e5e406f522b9fed11d34e94201b/org.tomahawk.libtomahawk.database.DatabaseHelper_isMediaDirComplete.acdfg.bin 1.3898630907234104
156 /media/data/graph_extraction_rhys_thesis_query/graphs/tomahawk-player/tomahawk-android/54093fdbd0e74e5e406f522b9fed11d34e94201b/org.tomahawk.libtomahawk.database.DatabaseHelper_getPlaylistHatchetId.acdfg.bin 1.1181965345934002
157 /media/data/graph_extraction_rhys_thesis_query/graphs/tomahawk-player/tomahawk-android/54093fdbd0e74e5e406f522b9fed11d34e94201b/org.tomahawk.libtomahawk.database.DatabaseHelper_getPlaylists.acdfg.bin 1.2571428990190938
158 /media/data/graph_extraction_rhys_thesis_query/graphs/tomahawk-player/tomahawk-android/54093fdbd0e74e5e406f522b9fed11d34e94201b/org.tomahawk.libtomahawk.database.DatabaseHelper_getPlaylistName.acdfg.bin 1.183528409994763
159 /media/data/graph_extraction_rhys_thesis_query/graphs/tomahawk-player/tomahawk-android/54093fdbd0e74e5e406f522b9fed11d34e94201b/org.tomahawk.libtomahawk.database.CollectionDb_getRevision.acdfg.bin 0.9612585013338102
160 /media/data/graph_extraction_rhys_thesis_query/graphs/blint/SSLDroid/c5d1fa69fb061abfd216818ebf6a126406433972/hu.blint.ssldroid.db.SSLDroidDbAdapter_fetchAllLocalPorts.acdfg.bin 0.18998971090444314
161 /media/data/graph_extraction_rhys_thesis_query/graphs/blint/SSLDroid/c5d1fa69fb061abfd216818ebf6a126406433972/hu.blint.ssldroid.db.SSLDroidDbAdapter_fetchTunnel.acdfg.bin 0.1919550349153205
162 /media/data/graph_extraction_rhys_thesis_query/graphs/blint/SSLDroid/c5d1fa69fb061abfd216818ebf6a126406433972/hu.blint.ssldroid.db.SSLDroidDbAdapter_fetchStatus.acdfg.bin 0.19129506828655737
163 /media/data/graph_extraction_rhys_thesis_query/graphs/blint/SSLDroid/c5d1fa69fb061abfd216818ebf6a126406433972/hu.blint.ssldroid.db.SSLDroidDbAdapter_fetchAllTunnels.acdfg.bin 0.1906399783569181
164 /media/data/graph_extraction_rhys_thesis_query/graphs/mcxiaoke/fanfouapp-opensource/e15446207f36e44faa5e519ebe004a00c785cace/com.fanfou.app.opensource.db.Database_queryStatus.acdfg.bin 0.5273716919385956
165 /media/data/graph_extraction_rhys_thesis_query/graphs/mcxiaoke/fanfouapp-opensource/e15446207f36e44faa5e519ebe004a00c785cace/com.fanfou.app.opensource.db.Database_queryUsers.acdfg.bin 0.5459816666414722
166 /media/data/graph_extraction_rhys_thesis_query/graphs/mcxiaoke/fanfouapp-opensource/e15446207f36e44faa5e519ebe004a00c785cace/com.fanfou.app.opensource.db.Database_queryStatuses.acdfg.bin 0.5326229653429292
167 /media/data/graph_extraction_rhys_thesis_query/graphs/mcxiaoke/fanfouapp-opensource/e15446207f36e44faa5e519ebe004a00c785cace/com.fanfou.app.opensource.db.Database_queryUser.acdfg.bin 0.5396184120203968
168 /media/data/graph_extraction_rhys_thesis_query/graphs/mcxiaoke/fanfouapp-opensource/e15446207f36e44faa5e519ebe004a00c785cace/com.fanfou.app.opensource.db.Database_queryDirectMessages.acdfg.bin 0.5214672797842511
169 /media/data/graph_extraction_rhys_thesis_query/graphs/mcxiaoke/fanfouapp-opensource/e15446207f36e44faa5e519ebe004a00c785cace/com.fanfou.app.opensource.db.Database_queryDirectMessage.acdfg.bin 0.5157046009128504
170 /media/data/graph_extraction_rhys_thesis_query/graphs/mcxiaoke/fanfouapp-opensource/e15446207f36e44faa5e519ebe004a00c785cace/com.fanfou.app.opensource.db.Database_query.acdfg.bin 0.5100784899614446
171 /media/data/graph_extraction_rhys_thesis_query/graphs/inguin/moneybalance/5b13d7542d5e901cf944f16a81e70be994d8e146/ivl.android.moneybalance.dao.CurrencyDataSource_listByCalculation.acdfg.bin 0.3924272522672259
172 /media/data/graph_extraction_rhys_thesis_query/graphs/inguin/moneybalance/5b13d7542d5e901cf944f16a81e70be994d8e146/ivl.android.moneybalance.dao.PersonDataSource_listByCalculation.acdfg.bin 0.40212235208589264
173 /media/data/graph_extraction_rhys_thesis_query/graphs/inguin/moneybalance/5b13d7542d5e901cf944f16a81e70be994d8e146/ivl.android.moneybalance.dao.DataBaseHelper_upgradeV2.acdfg.bin 0.3935666734959978
174 /media/data/graph_extraction_rhys_thesis_query/graphs/inguin/moneybalance/5b13d7542d5e901cf944f16a81e70be994d8e146/ivl.android.moneybalance.dao.AbstractDataSource_get.acdfg.bin 0.3862490696628735
175 /media/data/graph_extraction_rhys_thesis_query/graphs/inguin/moneybalance/5b13d7542d5e901cf944f16a81e70be994d8e146/ivl.android.moneybalance.dao.ExpenseDataSource_listByPerson.acdfg.bin 0.3988383495175533
176 /media/data/graph_extraction_rhys_thesis_query/graphs/inguin/moneybalance/5b13d7542d5e901cf944f16a81e70be994d8e146/ivl.android.moneybalance.dao.AbstractDataSource_listAll.acdfg.bin 0.3893115880935498
177 /media/data/graph_extraction_rhys_thesis_query/graphs/guiguito/Cardeto/e6398d32b1dba82b8e3785bfcd115bbef6e3127b/com.ggt.cardetosample.database.CardetoSampleDatabaseDataSource_getAllLogs.acdfg.bin 0.3660835444526982
178 /media/data/graph_extraction_rhys_thesis_query/graphs/guiguito/Cardeto/e6398d32b1dba82b8e3785bfcd115bbef6e3127b/com.ggt.cardetosample.database.CardetoSampleDatabaseDataSource_createLog.acdfg.bin 0.3634010888258224
179 /media/data/graph_extraction_rhys_thesis_query/graphs/microg/AppleWifiNlpBackend/0e8094839ad918004844539021a60263255a045e/org.microg.nlp.backend.apple.WifiLocationDatabase_getNear.acdfg.bin 0.559210606397546
180 /media/data/graph_extraction_rhys_thesis_query/graphs/microg/AppleWifiNlpBackend/0e8094839ad918004844539021a60263255a045e/org.microg.nlp.backend.apple.WifiLocationDatabase_get.acdfg.bin 0.5525101674977902
181 /media/data/graph_extraction_rhys_thesis_query/graphs/xargsgrep/PortKnocker/204cc365b758dca2f741c839c0d607a23dd3c351/com.xargsgrep.portknocker.db.DatabaseManager_getAllHosts.acdfg.bin 2.342883681295096
182 /media/data/graph_extraction_rhys_thesis_query/graphs/xargsgrep/PortKnocker/204cc365b758dca2f741c839c0d607a23dd3c351/com.xargsgrep.portknocker.db.DatabaseManager_getHost.acdfg.bin 2.508819069578269
183 /media/data/graph_extraction_rhys_thesis_query/graphs/xargsgrep/PortKnocker/204cc365b758dca2f741c839c0d607a23dd3c351/com.xargsgrep.portknocker.db.DatabaseManager_hostExists.acdfg.bin 2.9323175941332167
184 /media/data/graph_extraction_rhys_thesis_query/graphs/xargsgrep/PortKnocker/204cc365b758dca2f741c839c0d607a23dd3c351/com.xargsgrep.portknocker.db.DatabaseManager_getPortsForHost.acdfg.bin 2.7026489941426575
185 /media/data/graph_extraction_rhys_thesis_query/graphs/dmfs/opentasks/8aabf546bf88a064885dc38bee873c813e96d9b1/org.dmfs.tasks.utils.SearchHistoryHelper_getSearchHistory.acdfg.bin 0.2550078491567828
186 /media/data/graph_extraction_rhys_thesis_query/graphs/dsolonenko/financisto/375039de0f13ae0b8f8ffc57f86970d5731c91f1/ru.orangesoftware.financisto2.db.TransactionsTotalCalculator_getTransactionsBalance.acdfg.bin 0.31864201503387973
187 /media/data/graph_extraction_rhys_thesis_query/graphs/dsolonenko/financisto/375039de0f13ae0b8f8ffc57f86970d5731c91f1/ru.orangesoftware.financisto2.db.DatabaseAdapter_getBlotter.acdfg.bin 0.30418813709170023
188 /media/data/graph_extraction_rhys_thesis_query/graphs/dsolonenko/financisto/375039de0f13ae0b8f8ffc57f86970d5731c91f1/ru.orangesoftware.financisto2.db.DatabaseAdapter_getCustomClosingDay.acdfg.bin 0.3078529288889242
189 /media/data/graph_extraction_rhys_thesis_query/graphs/dsolonenko/financisto/375039de0f13ae0b8f8ffc57f86970d5731c91f1/ru.orangesoftware.financisto2.db.DatabaseAdapter_getAttributesMapping.acdfg.bin 0.3015954481270675
190 /media/data/graph_extraction_rhys_thesis_query/graphs/dsolonenko/financisto/375039de0f13ae0b8f8ffc57f86970d5731c91f1/ru.orangesoftware.financisto2.db.DatabaseAdapter_findRate.acdfg.bin 0.29374949592665456
191 /media/data/graph_extraction_rhys_thesis_query/graphs/dsolonenko/financisto/375039de0f13ae0b8f8ffc57f86970d5731c91f1/ru.orangesoftware.financisto2.db.DatabaseAdapter_getAllAttributesForCategory.acdfg.bin 0.2954364686981835
192 /media/data/graph_extraction_rhys_thesis_query/graphs/dsolonenko/financisto/375039de0f13ae0b8f8ffc57f86970d5731c91f1/ru.orangesoftware.financisto2.model.ReportDataByPeriod_getAccountsByCurrency.acdfg.bin 0.32146266990570255
193 /media/data/graph_extraction_rhys_thesis_query/graphs/dsolonenko/financisto/375039de0f13ae0b8f8ffc57f86970d5731c91f1/ru.orangesoftware.financisto2.db.DatabaseSchemaEvolution_alreadyRun.acdfg.bin 0.3154734289689457
194 /media/data/graph_extraction_rhys_thesis_query/graphs/dsolonenko/financisto/375039de0f13ae0b8f8ffc57f86970d5731c91f1/ru.orangesoftware.financisto2.db.TransactionsTotalCalculator_getBalanceInHomeCurrency.acdfg.bin 0.3174444036823549
195 /media/data/graph_extraction_rhys_thesis_query/graphs/dsolonenko/financisto/375039de0f13ae0b8f8ffc57f86970d5731c91f1/ru.orangesoftware.financisto2.db.DatabaseAdapter_getHistoryRates.acdfg.bin 0.30972156033910575
196 /media/data/graph_extraction_rhys_thesis_query/graphs/dsolonenko/financisto/375039de0f13ae0b8f8ffc57f86970d5731c91f1/ru.orangesoftware.financisto2.db.DatabaseAdapter_fetchAccountBalance.acdfg.bin 0.29044204829833836
197 /media/data/graph_extraction_rhys_thesis_query/graphs/dsolonenko/financisto/375039de0f13ae0b8f8ffc57f86970d5731c91f1/ru.orangesoftware.financisto2.db.DatabaseAdapter_getAllTemplates.acdfg.bin 0.29886974663274996
198 /media/data/graph_extraction_rhys_thesis_query/graphs/dsolonenko/financisto/375039de0f13ae0b8f8ffc57f86970d5731c91f1/ru.orangesoftware.financisto2.db.DatabaseAdapter_getAttributesForCategory.acdfg.bin 0.30062151868304005
199 /media/data/graph_extraction_rhys_thesis_query/graphs/dsolonenko/financisto/375039de0f13ae0b8f8ffc57f86970d5731c91f1/ru.orangesoftware.financisto2.report.PeriodReport_getReport.acdfg.bin 0.3276994877477954
200 /media/data/graph_extraction_rhys_thesis_query/graphs/dsolonenko/financisto/375039de0f13ae0b8f8ffc57f86970d5731c91f1/ru.orangesoftware.financisto2.report.SubCategoryReport_getReport.acdfg.bin 0.33201291675020417
201 /media/data/graph_extraction_rhys_thesis_query/graphs/dsolonenko/financisto/375039de0f13ae0b8f8ffc57f86970d5731c91f1/ru.orangesoftware.financisto2.report.CategoryByPeriodReport_build.acdfg.bin 0.32479289610860024
202 /media/data/graph_extraction_rhys_thesis_query/graphs/dsolonenko/financisto/375039de0f13ae0b8f8ffc57f86970d5731c91f1/ru.orangesoftware.financisto2.db.DatabaseAdapter_getBlotterWithSplits.acdfg.bin 0.3060086154582123
203 /media/data/graph_extraction_rhys_thesis_query/graphs/dsolonenko/financisto/375039de0f13ae0b8f8ffc57f86970d5731c91f1/ru.orangesoftware.orb.EntityManager_delete.acdfg.bin 0.3334159304167556
204 /media/data/graph_extraction_rhys_thesis_query/graphs/dsolonenko/financisto/375039de0f13ae0b8f8ffc57f86970d5731c91f1/ru.orangesoftware.financisto2.model.ReportDataByPeriod_init.acdfg.bin 0.32271585735439007
205 /media/data/graph_extraction_rhys_thesis_query/graphs/dsolonenko/financisto/375039de0f13ae0b8f8ffc57f86970d5731c91f1/ru.orangesoftware.financisto2.db.DatabaseAdapter_getAllAttributesForTransaction.acdfg.bin 0.296344330209008
206 /media/data/graph_extraction_rhys_thesis_query/graphs/dsolonenko/financisto/375039de0f13ae0b8f8ffc57f86970d5731c91f1/ru.orangesoftware.financisto2.db.DatabaseAdapter_fetchBudgetBalance.acdfg.bin 0.2912875499993665
207 /media/data/graph_extraction_rhys_thesis_query/graphs/dsolonenko/financisto/375039de0f13ae0b8f8ffc57f86970d5731c91f1/ru.orangesoftware.financisto2.report.Report_queryReport.acdfg.bin 0.3298408935748916
208 /media/data/graph_extraction_rhys_thesis_query/graphs/dsolonenko/financisto/375039de0f13ae0b8f8ffc57f86970d5731c91f1/ru.orangesoftware.financisto2.db.DatabaseAdapter_getSystemAttributesForTransaction.acdfg.bin 0.31273347149485575
209 /media/data/graph_extraction_rhys_thesis_query/graphs/dsolonenko/financisto/375039de0f13ae0b8f8ffc57f86970d5731c91f1/ru.orangesoftware.financisto2.db.DatabaseAdapter_getLatestRates.acdfg.bin 0.3116150060445704
210 /media/data/graph_extraction_rhys_thesis_query/graphs/vanilla-music/vanilla/c81bcaa08f86a9a93f0334fd83c6b2e819950f04/ch.blinkenlights.android.vanilla.CoverCache$BitmapDiskCache_trim.acdfg.bin 1.8624416027036776
211 /media/data/graph_extraction_rhys_thesis_query/graphs/vanilla-music/vanilla/c81bcaa08f86a9a93f0334fd83c6b2e819950f04/ch.blinkenlights.android.vanilla.CoverCache$BitmapDiskCache_getUsedSpace.acdfg.bin 1.7737853288584335
212 /media/data/graph_extraction_rhys_thesis_query/graphs/vanilla-music/vanilla/c81bcaa08f86a9a93f0334fd83c6b2e819950f04/ch.blinkenlights.android.vanilla.CoverCache$BitmapDiskCache_get.acdfg.bin 1.6938230881418728
213 /media/data/graph_extraction_rhys_thesis_query/graphs/mudar/SnooZy/03ecf9af6a0b2146c6551712106fef5526e4fa1d/ca.mudar.snoozy.util.SelectionBuilder_query.acdfg.bin 0.5853670430357819
214 /media/data/graph_extraction_rhys_thesis_query/graphs/Divendo/math-dragon/b44473e133a051fc2bb53ea681da4969bcb6c5e6/org.teaminfty.math_dragon.model.Database_getSubstitution.acdfg.bin 0.15918250245138008
215 /media/data/graph_extraction_rhys_thesis_query/graphs/Divendo/math-dragon/b44473e133a051fc2bb53ea681da4969bcb6c5e6/org.teaminfty.math_dragon.model.Database_substitutionExists.acdfg.bin 0.16052219010084884
216 /media/data/graph_extraction_rhys_thesis_query/graphs/Divendo/math-dragon/b44473e133a051fc2bb53ea681da4969bcb6c5e6/org.teaminfty.math_dragon.model.Database_getAllFormulas.acdfg.bin 0.15786496938760827
217 /media/data/graph_extraction_rhys_thesis_query/graphs/Divendo/math-dragon/b44473e133a051fc2bb53ea681da4969bcb6c5e6/org.teaminfty.math_dragon.model.Database_getAllSubstitutions.acdfg.bin 0.1583015597711904
218 /media/data/graph_extraction_rhys_thesis_query/graphs/Divendo/math-dragon/b44473e133a051fc2bb53ea681da4969bcb6c5e6/org.teaminfty.math_dragon.model.Database_deleteFormula.acdfg.bin 0.15743233987432548
219 /media/data/graph_extraction_rhys_thesis_query/graphs/Divendo/math-dragon/b44473e133a051fc2bb53ea681da4969bcb6c5e6/org.teaminfty.math_dragon.model.Database_getTutorialState.acdfg.bin 0.15962543935408352
220 /media/data/graph_extraction_rhys_thesis_query/graphs/Divendo/math-dragon/b44473e133a051fc2bb53ea681da4969bcb6c5e6/org.teaminfty.math_dragon.model.Database_saveTutorialState.acdfg.bin 0.16007100212774605
221 /media/data/graph_extraction_rhys_thesis_query/graphs/Divendo/math-dragon/b44473e133a051fc2bb53ea681da4969bcb6c5e6/org.teaminfty.math_dragon.model.Database_getFormulaByID.acdfg.bin 0.1587407305580827
222 /media/data/graph_extraction_rhys_thesis_query/graphs/codinguser/gnucash-android/d1c31033366ae7044e4b115b9ac021060660ef18/org.gnucash.android.db.adapter.AccountsDbAdapter_fetchAllRecords.acdfg.bin 0.2017558551562679
223 /media/data/graph_extraction_rhys_thesis_query/graphs/codinguser/gnucash-android/d1c31033366ae7044e4b115b9ac021060660ef18/org.gnucash.android.db.adapter.AccountsDbAdapter_getAccountFullName.acdfg.bin 0.20625725353914134
224 /media/data/graph_extraction_rhys_thesis_query/graphs/codinguser/gnucash-android/d1c31033366ae7044e4b115b9ac021060660ef18/org.gnucash.android.db.adapter.AccountsDbAdapter_findAccountUidByFullName.acdfg.bin 0.20471638509079662
225 /media/data/graph_extraction_rhys_thesis_query/graphs/codinguser/gnucash-android/d1c31033366ae7044e4b115b9ac021060660ef18/org.gnucash.android.db.MigrationHelper_upgradeDbToVersion10.acdfg.bin 0.1959343073377986
226 /media/data/graph_extraction_rhys_thesis_query/graphs/codinguser/gnucash-android/d1c31033366ae7044e4b115b9ac021060660ef18/org.gnucash.android.db.adapter.AccountsDbAdapter_fetchAllRecordsOrderedByFullName.acdfg.bin 0.20249614612520606
227 /media/data/graph_extraction_rhys_thesis_query/graphs/codinguser/gnucash-android/d1c31033366ae7044e4b115b9ac021060660ef18/org.gnucash.android.db.adapter.DatabaseAdapter_getAccountCurrencyCode.acdfg.bin 0.2143688802060505
228 /media/data/graph_extraction_rhys_thesis_query/graphs/codinguser/gnucash-android/d1c31033366ae7044e4b115b9ac021060660ef18/org.gnucash.android.db.MigrationHelper_upgradeDbToVersion6.acdfg.bin 0.19806746100884215
229 /media/data/graph_extraction_rhys_thesis_query/graphs/codinguser/gnucash-android/d1c31033366ae7044e4b115b9ac021060660ef18/org.gnucash.android.db.adapter.AccountsDbAdapter_getAccountColorCode.acdfg.bin 0.2054837162935115
230 /media/data/graph_extraction_rhys_thesis_query/graphs/codinguser/gnucash-android/d1c31033366ae7044e4b115b9ac021060660ef18/org.gnucash.android.db.adapter.TransactionsDbAdapter_fetchTransactionsWithSplits.acdfg.bin 0.22780550058732063
231 /media/data/graph_extraction_rhys_thesis_query/graphs/codinguser/gnucash-android/d1c31033366ae7044e4b115b9ac021060660ef18/org.gnucash.android.db.adapter.SplitsDbAdapter_calculateSplitBalance.acdfg.bin 0.2213929543199536
232 /media/data/graph_extraction_rhys_thesis_query/graphs/codinguser/gnucash-android/d1c31033366ae7044e4b115b9ac021060660ef18/org.gnucash.android.db.adapter.AccountsDbAdapter_getParentAccountUID.acdfg.bin 0.20782325131891483
233 /media/data/graph_extraction_rhys_thesis_query/graphs/codinguser/gnucash-android/d1c31033366ae7044e4b115b9ac021060660ef18/org.gnucash.android.db.adapter.AccountsDbAdapter_fetchFavoriteAccounts.acdfg.bin 0.20324230410970148
234 /media/data/graph_extraction_rhys_thesis_query/graphs/codinguser/gnucash-android/d1c31033366ae7044e4b115b9ac021060660ef18/org.gnucash.android.db.adapter.AccountsDbAdapter_fetchRecentAccounts.acdfg.bin 0.2039943994862917
235 /media/data/graph_extraction_rhys_thesis_query/graphs/codinguser/gnucash-android/d1c31033366ae7044e4b115b9ac021060660ef18/org.gnucash.android.db.adapter.AccountsDbAdapter_fetchAccounts.acdfg.bin 0.20029259826123313
236 /media/data/graph_extraction_rhys_thesis_query/graphs/codinguser/gnucash-android/d1c31033366ae7044e4b115b9ac021060660ef18/org.gnucash.android.db.adapter.DatabaseAdapter_getCommodityUID.acdfg.bin 0.21694541169688017
237 /media/data/graph_extraction_rhys_thesis_query/graphs/codinguser/gnucash-android/d1c31033366ae7044e4b115b9ac021060660ef18/org.gnucash.android.db.adapter.TransactionsDbAdapter_getRecordsCount.acdfg.bin 0.2299356454143329
238 /media/data/graph_extraction_rhys_thesis_query/graphs/codinguser/gnucash-android/d1c31033366ae7044e4b115b9ac021060660ef18/org.gnucash.android.db.adapter.AccountsDbAdapter_fetchAccountsOrderedByFullName.acdfg.bin 0.20102136193116055
239 /media/data/graph_extraction_rhys_thesis_query/graphs/codinguser/gnucash-android/d1c31033366ae7044e4b115b9ac021060660ef18/org.gnucash.android.db.adapter.TransactionsDbAdapter_getNumCurrencies.acdfg.bin 0.22975008214249645
240 /media/data/graph_extraction_rhys_thesis_query/graphs/codinguser/gnucash-android/d1c31033366ae7044e4b115b9ac021060660ef18/org.gnucash.android.db.adapter.SplitsDbAdapter_getTransactionID.acdfg.bin 0.22510268867358835
241 /media/data/graph_extraction_rhys_thesis_query/graphs/codinguser/gnucash-android/d1c31033366ae7044e4b115b9ac021060660ef18/org.gnucash.android.db.adapter.ScheduledActionDbAdapter_getAllEnabledScheduledActions.acdfg.bin 0.2212847735212656
242 /media/data/graph_extraction_rhys_thesis_query/graphs/codinguser/gnucash-android/d1c31033366ae7044e4b115b9ac021060660ef18/org.gnucash.android.db.MigrationHelper_getGnuCashRootAccountUID.acdfg.bin 0.19594316229677597
243 /media/data/graph_extraction_rhys_thesis_query/graphs/codinguser/gnucash-android/d1c31033366ae7044e4b115b9ac021060660ef18/org.gnucash.android.db.adapter.SplitsDbAdapter_fetchSplitsForTransaction.acdfg.bin 0.22403143227807812
244 /media/data/graph_extraction_rhys_thesis_query/graphs/codinguser/gnucash-android/d1c31033366ae7044e4b115b9ac021060660ef18/org.gnucash.android.db.adapter.CommoditiesDbAdapter_fetchAllRecords.acdfg.bin 0.21183345169890203
245 /media/data/graph_extraction_rhys_thesis_query/graphs/codinguser/gnucash-android/d1c31033366ae7044e4b115b9ac021060660ef18/org.gnucash.android.db.adapter.DatabaseAdapter_getAccountType.acdfg.bin 0.21522031325586044
246 /media/data/graph_extraction_rhys_thesis_query/graphs/codinguser/gnucash-android/d1c31033366ae7044e4b115b9ac021060660ef18/org.gnucash.android.db.adapter.TransactionsDbAdapter_getTimestampOfLastModification.acdfg.bin 0.23092728439205248
247 /media/data/graph_extraction_rhys_thesis_query/graphs/codinguser/gnucash-android/d1c31033366ae7044e4b115b9ac021060660ef18/org.gnucash.android.db.adapter.AccountsDbAdapter_fetchSubAccounts.acdfg.bin 0.2047525037585907
248 /media/data/graph_extraction_rhys_thesis_query/graphs/codinguser/gnucash-android/d1c31033366ae7044e4b115b9ac021060660ef18/org.gnucash.android.db.MigrationHelper_getFullyQualifiedAccountName.acdfg.bin 0.19454552483625576
249 /media/data/graph_extraction_rhys_thesis_query/graphs/codinguser/gnucash-android/d1c31033366ae7044e4b115b9ac021060660ef18/org.gnucash.android.db.adapter.SplitsDbAdapter_getTransactionUID.acdfg.bin 0.22604959904080746
250 /media/data/graph_extraction_rhys_thesis_query/graphs/codinguser/gnucash-android/d1c31033366ae7044e4b115b9ac021060660ef18/org.gnucash.android.db.adapter.DatabaseAdapter_getAttribute.acdfg.bin 0.21607912425440193
251 /media/data/graph_extraction_rhys_thesis_query/graphs/codinguser/gnucash-android/d1c31033366ae7044e4b115b9ac021060660ef18/org.gnucash.android.db.adapter.AccountsDbAdapter_getTransactionMaxSplitNum.acdfg.bin 0.20861586756583647
252 /media/data/graph_extraction_rhys_thesis_query/graphs/codinguser/gnucash-android/d1c31033366ae7044e4b115b9ac021060660ef18/org.gnucash.android.db.adapter.DatabaseAdapter_fetchRecord.acdfg.bin 0.21432188130047056
253 /media/data/graph_extraction_rhys_thesis_query/graphs/codinguser/gnucash-android/d1c31033366ae7044e4b115b9ac021060660ef18/org.gnucash.android.db.adapter.SplitsDbAdapter_fetchSplitsForTransactionAndAccount.acdfg.bin 0.22416434457446807
254 /media/data/graph_extraction_rhys_thesis_query/graphs/codinguser/gnucash-android/d1c31033366ae7044e4b115b9ac021060660ef18/org.gnucash.android.db.adapter.BooksDbAdapter_getActiveBookUID.acdfg.bin 0.21022073372880504
255 /media/data/graph_extraction_rhys_thesis_query/graphs/codinguser/gnucash-android/d1c31033366ae7044e4b115b9ac021060660ef18/org.gnucash.android.db.adapter.SplitsDbAdapter_fetchSplits.acdfg.bin 0.22310657740540277
256 /media/data/graph_extraction_rhys_thesis_query/graphs/codinguser/gnucash-android/d1c31033366ae7044e4b115b9ac021060660ef18/org.gnucash.android.db.adapter.CommoditiesDbAdapter_getCurrencyCode.acdfg.bin 0.21185544606419462
257 /media/data/graph_extraction_rhys_thesis_query/graphs/codinguser/gnucash-android/d1c31033366ae7044e4b115b9ac021060660ef18/org.gnucash.android.db.adapter.BooksDbAdapter_getActiveBookDisplayName.acdfg.bin 0.2094150013332825
258 /media/data/graph_extraction_rhys_thesis_query/graphs/codinguser/gnucash-android/d1c31033366ae7044e4b115b9ac021060660ef18/org.gnucash.android.db.adapter.DatabaseAdapter_getID.acdfg.bin 0.2178192758525191
259 /media/data/graph_extraction_rhys_thesis_query/graphs/codinguser/gnucash-android/d1c31033366ae7044e4b115b9ac021060660ef18/org.gnucash.android.db.MigrationHelper_upgradeDbToVersion11.acdfg.bin 0.1966384583711979
260 /media/data/graph_extraction_rhys_thesis_query/graphs/codinguser/gnucash-android/d1c31033366ae7044e4b115b9ac021060660ef18/org.gnucash.android.db.adapter.DatabaseAdapter_fetchAllRecords.acdfg.bin 0.21348179091953723
261 /media/data/graph_extraction_rhys_thesis_query/graphs/codinguser/gnucash-android/d1c31033366ae7044e4b115b9ac021060660ef18/org.gnucash.android.db.adapter.DatabaseAdapter_getUID.acdfg.bin 0.21870081880482234
262 /media/data/graph_extraction_rhys_thesis_query/graphs/codinguser/gnucash-android/d1c31033366ae7044e4b115b9ac021060660ef18/org.gnucash.android.db.adapter.PricesDbAdapter_getPrice.acdfg.bin 0.21888301246996641
263 /media/data/graph_extraction_rhys_thesis_query/graphs/codinguser/gnucash-android/d1c31033366ae7044e4b115b9ac021060660ef18/org.gnucash.android.db.adapter.TransactionsDbAdapter_fetchTransactionsWithSplitsWithTransactionAccount.acdfg.bin 0.22877330833456785
264 /media/data/graph_extraction_rhys_thesis_query/graphs/codinguser/gnucash-android/d1c31033366ae7044e4b115b9ac021060660ef18/org.gnucash.android.db.MigrationHelper_upgradeDbToVersion13.acdfg.bin 0.19596972840135285
265 /media/data/graph_extraction_rhys_thesis_query/graphs/codinguser/gnucash-android/d1c31033366ae7044e4b115b9ac021060660ef18/org.gnucash.android.db.adapter.AccountsDbAdapter_getDefaultTransferAccountID.acdfg.bin 0.20703707280690936
266 /media/data/graph_extraction_rhys_thesis_query/graphs/solkin/mandarin-android/371ab9c8eb6ee8bf6c969d3a125e7b1e78babd30/com.tomclaw.mandarin.core.GlobalProvider_query.acdfg.bin 0.7984712615863049
267 /media/data/graph_extraction_rhys_thesis_query/graphs/solkin/mandarin-android/371ab9c8eb6ee8bf6c969d3a125e7b1e78babd30/com.tomclaw.mandarin.core.SQLiteDatabaseLayer_query.acdfg.bin 0.8143411820669457
268 /media/data/graph_extraction_rhys_thesis_query/graphs/Appdynamics/ECommerce-Android/47d3ad75ef25da3e3cc7c9b6dc7d9f490e8ebac6/com.appdynamics.demo.android.database.ItemsDataSource_getItems.acdfg.bin 0.1561467589189258
269 /media/data/graph_extraction_rhys_thesis_query/graphs/warmshowers/wsandroid/788283cfcc241e0eb95abe233feb9b570140df57/fi.bitrite.android.ws.persistence.impl.StarredHostDaoImpl_getFeedback.acdfg.bin 2.072526312911048
270 /media/data/graph_extraction_rhys_thesis_query/graphs/warmshowers/wsandroid/788283cfcc241e0eb95abe233feb9b570140df57/fi.bitrite.android.ws.persistence.impl.StarredHostDaoImpl_getHost.acdfg.bin 2.198354486894005
271 /media/data/graph_extraction_rhys_thesis_query/graphs/warmshowers/wsandroid/788283cfcc241e0eb95abe233feb9b570140df57/fi.bitrite.android.ws.persistence.impl.StarredHostDaoImpl_getAllBrief.acdfg.bin 1.9621387546375546
272 /media/data/graph_extraction_rhys_thesis_query/graphs/klob/Diandi1.20/428ac19f3e712459da914c25b28fce1a80f3946b/com.diandi.demo.db.DBHelperC_query.acdfg.bin 0.41032071728658215
273 /media/data/graph_extraction_rhys_thesis_query/graphs/yxl/DownloadProvider/31a94058543a337975801b112d586bfd8b35e06c/com.mozillaonline.providers.downloads.DownloadProvider_queryRequestHeaders.acdfg.bin 21.875278062623877
274 /media/data/graph_extraction_rhys_thesis_query/graphs/yxl/DownloadProvider/31a94058543a337975801b112d586bfd8b35e06c/com.mozillaonline.providers.downloads.DownloadProvider_query.acdfg.bin 11.82473738373159
275 /media/data/graph_extraction_rhys_thesis_query/graphs/yxl/DownloadProvider/31a94058543a337975801b112d586bfd8b35e06c/com.mozillaonline.providers.downloads.DownloadProvider_deleteRequestHeaders.acdfg.bin 8.29749970473143
276 /media/data/graph_extraction_rhys_thesis_query/graphs/rsi2m/RazborPoletov/e2fdd55088ce52dadc11e27426c0866fb38ee404/com.shonenfactory.razborpoletov.adapters.RssItemAdapter_<init>.acdfg.bin 0.6120034544371263
277 /media/data/graph_extraction_rhys_thesis_query/graphs/se-bastiaan/ButterRemote-Android/3f1b1d864616b4d43e6f47aca396b55a67d41736/eu.se_bastiaan.popcorntimeremote.database.InstanceDbHelper_isEmpty.acdfg.bin 0.7165007128297763
278 /media/data/graph_extraction_rhys_thesis_query/graphs/lordi/tickmate/4519a66b12fcf9e52fe05e0c8eb7ab0831ec1855/de.smasi.tickmate.database.DataSource_getActiveTracks.acdfg.bin 0.41889972806431963
279 /media/data/graph_extraction_rhys_thesis_query/graphs/lordi/tickmate/4519a66b12fcf9e52fe05e0c8eb7ab0831ec1855/de.smasi.tickmate.database.DataSource_getGroup.acdfg.bin 0.4233705520196067
280 /media/data/graph_extraction_rhys_thesis_query/graphs/lordi/tickmate/4519a66b12fcf9e52fe05e0c8eb7ab0831ec1855/de.smasi.tickmate.database.DataSource_linkOneTrackOneGroup.acdfg.bin 0.4554819526361273
281 /media/data/graph_extraction_rhys_thesis_query/graphs/lordi/tickmate/4519a66b12fcf9e52fe05e0c8eb7ab0831ec1855/de.smasi.tickmate.database.DataSource_orderTracks.acdfg.bin 0.464414717098371
282 /media/data/graph_extraction_rhys_thesis_query/graphs/lordi/tickmate/4519a66b12fcf9e52fe05e0c8eb7ab0831ec1855/de.smasi.tickmate.database.DataSource_retrieveTicksByMonths.acdfg.bin 0.4728826731953953
283 /media/data/graph_extraction_rhys_thesis_query/graphs/lordi/tickmate/4519a66b12fcf9e52fe05e0c8eb7ab0831ec1855/de.smasi.tickmate.database.DataSource_getTrack.acdfg.bin 0.4469616277843045
284 /media/data/graph_extraction_rhys_thesis_query/graphs/lordi/tickmate/4519a66b12fcf9e52fe05e0c8eb7ab0831ec1855/de.smasi.tickmate.database.DataSource_getTicks.acdfg.bin 0.43798758357126655
285 /media/data/graph_extraction_rhys_thesis_query/graphs/lordi/tickmate/4519a66b12fcf9e52fe05e0c8eb7ab0831ec1855/de.smasi.tickmate.database.DataSource_getTicksForDay.acdfg.bin 0.4420333942838017
286 /media/data/graph_extraction_rhys_thesis_query/graphs/lordi/tickmate/4519a66b12fcf9e52fe05e0c8eb7ab0831ec1855/de.smasi.tickmate.database.DataSource_getGroupIdsForTrack.acdfg.bin 0.4263184937234072
287 /media/data/graph_extraction_rhys_thesis_query/graphs/lordi/tickmate/4519a66b12fcf9e52fe05e0c8eb7ab0831ec1855/de.smasi.tickmate.database.DataSource_getTickCount.acdfg.bin 0.43402140465242856
288 /media/data/graph_extraction_rhys_thesis_query/graphs/lordi/tickmate/4519a66b12fcf9e52fe05e0c8eb7ab0831ec1855/de.smasi.tickmate.database.DataSource_orderGroups.acdfg.bin 0.459130296011736
289 /media/data/graph_extraction_rhys_thesis_query/graphs/lordi/tickmate/4519a66b12fcf9e52fe05e0c8eb7ab0831ec1855/de.smasi.tickmate.database.DataSource_retrieveTicks.acdfg.bin 0.46820271309767425
290 /media/data/graph_extraction_rhys_thesis_query/graphs/lordi/tickmate/4519a66b12fcf9e52fe05e0c8eb7ab0831ec1855/de.smasi.tickmate.database.DataSource_getGroups.acdfg.bin 0.4301324715441696
291 /media/data/graph_extraction_rhys_thesis_query/graphs/lordi/tickmate/4519a66b12fcf9e52fe05e0c8eb7ab0831ec1855/de.smasi.tickmate.database.DataSource_getTracks.acdfg.bin 0.45038152145190935
292 /media/data/graph_extraction_rhys_thesis_query/graphs/maclyn/auto-tag-images-android/e92ea53e8ac43b4b38c327c96f2fff501f1bdf74/hacknyyo.org.autotagimages.DatabaseEditor_addTags.acdfg.bin 0.4916894265675413
293 /media/data/graph_extraction_rhys_thesis_query/graphs/maclyn/auto-tag-images-android/e92ea53e8ac43b4b38c327c96f2fff501f1bdf74/hacknyyo.org.autotagimages.ImageViewer_onCreate.acdfg.bin 0.49698847940324
294 /media/data/graph_extraction_rhys_thesis_query/graphs/maclyn/auto-tag-images-android/e92ea53e8ac43b4b38c327c96f2fff501f1bdf74/hacknyyo.org.autotagimages.MainActivity_getHolders.acdfg.bin 0.48571668392863737
295 /media/data/graph_extraction_rhys_thesis_query/graphs/EthACKdotOrg/orWall/37b361e24d1f090e824ad025f7eba128ea6ce1e4/org.ethack.orwall.lib.NatRules_getRuleCount.acdfg.bin 0.1618859831027904
296 /media/data/graph_extraction_rhys_thesis_query/graphs/EthACKdotOrg/orWall/37b361e24d1f090e824ad025f7eba128ea6ce1e4/org.ethack.orwall.lib.NatRules_getAppRule.acdfg.bin 0.16142816458321274
297 /media/data/graph_extraction_rhys_thesis_query/graphs/EthACKdotOrg/orWall/37b361e24d1f090e824ad025f7eba128ea6ce1e4/org.ethack.orwall.lib.NatRules_getAllRules.acdfg.bin 0.1609730762920337
298 /media/data/graph_extraction_rhys_thesis_query/graphs/kousen/HelloWorldAS/0f1cd76f3c104e25331a289b51ad9741de755ea7/com.nfjs.helloworldas.DatabaseAdapter_getAllEntries.acdfg.bin 0.416091240514398
299 /media/data/graph_extraction_rhys_thesis_query/graphs/gnobal/Dindy/27a952ea9769d47bd49232a8c7ba57dd81a8a500/net.gnobal.dindy.IncomingCalls_rebuild.acdfg.bin 0.342569027254181
300 /media/data/graph_extraction_rhys_thesis_query/graphs/gnobal/Dindy/27a952ea9769d47bd49232a8c7ba57dd81a8a500/net.gnobal.dindy.WhitelistHelper_updateIdsToLookupKeys.acdfg.bin 0.35734528556686723
301 /media/data/graph_extraction_rhys_thesis_query/graphs/gnobal/Dindy/27a952ea9769d47bd49232a8c7ba57dd81a8a500/net.gnobal.dindy.ProfilePreferencesHelper_getProfileIdFromName.acdfg.bin 0.34735479020863
302 /media/data/graph_extraction_rhys_thesis_query/graphs/gnobal/Dindy/27a952ea9769d47bd49232a8c7ba57dd81a8a500/net.gnobal.dindy.WhitelistHelper_getAllContactLookupKeys.acdfg.bin 0.35306791741471627
303 /media/data/graph_extraction_rhys_thesis_query/graphs/gnobal/Dindy/27a952ea9769d47bd49232a8c7ba57dd81a8a500/net.gnobal.dindy.ProfilePreferencesHelper_loadCache.acdfg.bin 0.34979248427835224
304 /media/data/graph_extraction_rhys_thesis_query/graphs/gnobal/Dindy/27a952ea9769d47bd49232a8c7ba57dd81a8a500/net.gnobal.dindy.WhitelistHelper_isInWhitelist.acdfg.bin 0.35558708717993026
305 /media/data/graph_extraction_rhys_thesis_query/graphs/gnobal/Dindy/27a952ea9769d47bd49232a8c7ba57dd81a8a500/net.gnobal.dindy.ProfilePreferencesHelper_getProfielNameFromId.acdfg.bin 0.34495366826456153
306 /media/data/graph_extraction_rhys_thesis_query/graphs/tsangiotis/JekyllForAndroid/016ed2fb9f89b2db1a4918bd410e6c8eef9f87b6/gr.tsagi.jekyllforandroid.app.data.PostsProvider_sPostsByStatus.acdfg.bin 1.6220739600851881
307 /media/data/graph_extraction_rhys_thesis_query/graphs/arminha/worldclockwidget/d73d3d7403847a69b113e9f3d34bf48bf585a609/ch.corten.aha.worldclock.provider.WorldClockContentProvider_query.acdfg.bin 0.1893442125036579
308 /media/data/graph_extraction_rhys_thesis_query/graphs/niftynei/HSFacesAndroid/4b668fb6d90931500bf353afc3fffad111a722e1/knaps.hacker.school.data.HSDatabaseHelper_getExistingBatches.acdfg.bin 0.6203261932940566
309 /media/data/graph_extraction_rhys_thesis_query/graphs/mikeyy109/polyphasicsleep/f536e1563141e649ac5526824d3c3e0dd5c32f0c/com.liquications.polyphasicsleep.database.Database_getCursor.acdfg.bin 0.5732366945932051
310 /media/data/graph_extraction_rhys_thesis_query/graphs/mikeyy109/polyphasicsleep/f536e1563141e649ac5526824d3c3e0dd5c32f0c/com.liquications.polyphasicsleep.database.SleepNowDatabase_getSleep.acdfg.bin 0.5804979533454423
311 /media/data/graph_extraction_rhys_thesis_query/graphs/mikeyy109/polyphasicsleep/f536e1563141e649ac5526824d3c3e0dd5c32f0c/com.liquications.polyphasicsleep.database.Database_getAlarm.acdfg.bin 0.5641421164814371
312 /media/data/graph_extraction_rhys_thesis_query/graphs/adamantoise/wordswithcrosses/a3b4a03ccfd1f1586e8bbd195e6123b6a3083da1/com.adamrosenfield.wordswithcrosses.PuzzleDatabaseHelper_getPuzzleSolveState.acdfg.bin 0.18663732733483243
313 /media/data/graph_extraction_rhys_thesis_query/graphs/adamantoise/wordswithcrosses/a3b4a03ccfd1f1586e8bbd195e6123b6a3083da1/com.adamrosenfield.wordswithcrosses.PuzzleDatabaseHelper_queryPuzzles.acdfg.bin 0.1868256448465955
314 /media/data/graph_extraction_rhys_thesis_query/graphs/adamantoise/wordswithcrosses/a3b4a03ccfd1f1586e8bbd195e6123b6a3083da1/com.adamrosenfield.wordswithcrosses.PuzzleDatabaseHelper_getFilenamesToCleanup.acdfg.bin 0.18601306045265403
315 /media/data/graph_extraction_rhys_thesis_query/graphs/adamantoise/wordswithcrosses/a3b4a03ccfd1f1586e8bbd195e6123b6a3083da1/com.adamrosenfield.wordswithcrosses.PuzzleDatabaseHelper_getFilenameList.acdfg.bin 0.18539328771320576
316 /media/data/graph_extraction_rhys_thesis_query/graphs/adamantoise/wordswithcrosses/a3b4a03ccfd1f1586e8bbd195e6123b6a3083da1/com.adamrosenfield.wordswithcrosses.PuzzleDatabaseHelper_querySources.acdfg.bin 0.18870343051092622
317 /media/data/graph_extraction_rhys_thesis_query/graphs/yankovskiy/PhotoTools/6c873470bb2e1cb0601550327cdfc40f3a4443b3/ru.neverdark.phototools.db.LocationsTable_fetchAllLocations.acdfg.bin 3.550232392564335
318 /media/data/graph_extraction_rhys_thesis_query/graphs/yankovskiy/PhotoTools/6c873470bb2e1cb0601550327cdfc40f3a4443b3/ru.neverdark.phototools.db.UserCamerasTable_fetchAllCameras.acdfg.bin 4.510076588137816
319 /media/data/graph_extraction_rhys_thesis_query/graphs/yankovskiy/PhotoTools/6c873470bb2e1cb0601550327cdfc40f3a4443b3/ru.neverdark.phototools.db.LocationsTable_isLocationExists.acdfg.bin 3.980500995030642
320 /media/data/graph_extraction_rhys_thesis_query/graphs/yankovskiy/PhotoTools/6c873470bb2e1cb0601550327cdfc40f3a4443b3/ru.neverdark.phototools.db.UserCamerasTable_isCameraExist.acdfg.bin 6.466302031517719
321 /media/data/graph_extraction_rhys_thesis_query/graphs/yankovskiy/PhotoTools/6c873470bb2e1cb0601550327cdfc40f3a4443b3/ru.neverdark.phototools.db.UserCamerasTable_getCameraByName.acdfg.bin 4.530726759859398
322 /media/data/graph_extraction_rhys_thesis_query/graphs/raphaelm/lendlist/71020019037889219d9c0413de77b7450d9e55e5/de.raphaelmichel.lendlist.storage.LendlistContentProvider_queryDatabase.acdfg.bin 0.618026884278788
323 /media/data/graph_extraction_rhys_thesis_query/graphs/khalid-hussain/HisnulMuslim/1980870cbd3877f2cfa281a6efef8b6ea2ee3ce6/com.khalid.hisnulmuslim.loader.BookmarkDetailsLoader_loadInBackground.acdfg.bin 0.4035176115727584
324 /media/data/graph_extraction_rhys_thesis_query/graphs/khalid-hussain/HisnulMuslim/1980870cbd3877f2cfa281a6efef8b6ea2ee3ce6/com.khalid.hisnulmuslim.loader.DuaDetailsLoader_loadInBackground.acdfg.bin 0.40693912283404265
325 /media/data/graph_extraction_rhys_thesis_query/graphs/eskimoapps/Goot/c8f7a6d80714817412ae2c8b61f1ca303adfca96/com.project.gutenberg.catalog.database.CatalogByAuthorDB_getAuthorCursor.acdfg.bin 0.3364638877238884
326 /media/data/graph_extraction_rhys_thesis_query/graphs/eskimoapps/Goot/c8f7a6d80714817412ae2c8b61f1ca303adfca96/com.project.gutenberg.catalog.database.CatalogByTitleDB_get_title_cursor.acdfg.bin 0.3410335534056647
327 /media/data/graph_extraction_rhys_thesis_query/graphs/eskimoapps/Goot/c8f7a6d80714817412ae2c8b61f1ca303adfca96/com.project.gutenberg.catalog.database.CatalogByTitleDB_getTitleCursor.acdfg.bin 0.33873199337040494
