vertexId	correct	proof-url	rank	notes
0	0	https://github.com/ma3map/ma3map-client_android/blob/1b0a8258ab8e4a8248fec157badf4b8afa13a9b1/app/src/main/java/ke/co/ma3map/android/helpers/Database.java		Only calls cursor.close() in one dominated branch condition--cursor.close() does not postdominate cursor=db.query()
1	1	https://github.com/splitbrain/giraffe/blob/f69a9bed3801cc923982a92257ac0b5cbaeb211f/app/src/main/java/org/splitbrain/giraffe/DBAdapter.java		Correctly follows cursor=db.query() with cursor.close() in every case
2	-1	https://github.com/splitbrain/giraffe/blob/f69a9bed3801cc923982a92257ac0b5cbaeb211f/app/src/main/java/org/splitbrain/giraffe/DBAdapter.java		Cursor is passed in as argument to helper function but is neither created with cursor=db.query() nor destroyed with cursor.close()
3	1	https://github.com/splitbrain/giraffe/blob/f69a9bed3801cc923982a92257ac0b5cbaeb211f/app/src/main/java/org/splitbrain/giraffe/DBAdapter.java		Correctly follows cursor=db.query() with cursor.close() in every case
4	0	https://github.com/SeanPONeil/MGoBlog/blob/4e558bd966b69880ca8e9521ec030db375edab46/app/src/main/java/com/activeandroid/content/ContentProvider.java		Only calls db.query()---a helper method that might be correct in broader context
5	1	https://github.com/sh0/kotoba-android/blob/b82a2e5c67a3b321639d5bab71b94d0146ade530/app/src/main/java/ee/yutani/kotoba/DataDatabase.java		Correctly follows cursor=db.query() with cursor.close() in every case
6	1	https://github.com/sh0/kotoba-android/blob/b82a2e5c67a3b321639d5bab71b94d0146ade530/app/src/main/java/ee/yutani/kotoba/DataDatabase.java		Correctly follows cursor=db.query() with cursor.close() in every case
7	0	https://github.com/google/google-authenticator-android/blob/a2861e27d9bf63f25785144b1063d9ec01a0c287/AuthenticatorApp/src/main/java/com/google/android/apps/authenticator/AccountDb.java		Only calls db.query()---a helper method that is correct in broader context
8	1	https://github.com/gustavomondron/twik/blob/79417079fa8c51ec816a3a374850772ed77f0969/app/src/main/java/com/reddyetwo/hashmypass/app/data/TagSettings.java		Correctly follows cursor=db.query() with cursor.close() in every case
9	1	https://github.com/gustavomondron/twik/blob/79417079fa8c51ec816a3a374850772ed77f0969/app/src/main/java/com/reddyetwo/hashmypass/app/data/ProfileSettings.java		Correctly follows cursor=db.query() with cursor.close() in every case
10	1	https://github.com/gustavomondron/twik/blob/79417079fa8c51ec816a3a374850772ed77f0969/app/src/main/java/com/reddyetwo/hashmypass/app/data/TagSettings.java		Correctly follows cursor=db.query() with cursor.close() in every case
11	1	https://github.com/gustavomondron/twik/blob/79417079fa8c51ec816a3a374850772ed77f0969/app/src/main/java/com/reddyetwo/hashmypass/app/data/TagSettings.java		Correctly follows cursor=db.query() with cursor.close() in every case
12	1	https://github.com/gustavomondron/twik/blob/79417079fa8c51ec816a3a374850772ed77f0969/app/src/main/java/com/reddyetwo/hashmypass/app/data/FaviconSettings.java		Correctly follows cursor=db.query() with cursor.close() in every case
13	1	https://github.com/gustavomondron/twik/blob/79417079fa8c51ec816a3a374850772ed77f0969/app/src/main/java/com/reddyetwo/hashmypass/app/data/ProfileSettings.java		Correctly follows cursor=db.query() with cursor.close() in every case
14	1	https://github.com/yandex-money/yandex-money-sdk-android/blob/61d911285524dcfdb4243ef9cde6ab4dca6c2927/sample/src/main/java/ru/yandex/money/android/sample/storage/DatabaseHelper.java		Correctly follows cursor=db.query() with cursor.close() in every case
15	0	https://github.com/spacecowboy/AndroidTutorialContentProvider/blob/3c0674586ebb807d060968ca6566af0d16baa88d/app/src/main/java/com/example/providerexample/database/PersonProvider.java		Only calls db.query()---a helper method that might be correct in broader context
16	1	https://github.com/spacecowboy/AndroidTutorialContentProvider/blob/3c0674586ebb807d060968ca6566af0d16baa88d/app/src/main/java/com/example/providerexample/database/DatabaseHandler.java		Correctly follows cursor=db.query() with cursor.close() in every case
17	0	https://github.com/nguillaumin/osmtracker-android/blob/f1f88426a3883efd0eb9ce5ae41389646eedd10f/app/src/main/java/me/guillaumin/android/osmtracker/db/DatabaseHelper.java		Follows cursor=db.query() with cursor.close() in every (actual) case (in the sense of witnessable traces, though contains checks that are redundant)
18	1	https://github.com/DevelopFreedom/logmein-android/blob/418b37ffbafac3502b661d0918d1bc190e3c2dd1/app/src/main/java/org/developfreedom/logmein/DatabaseEngine.java		Correctly follows cursor=db.query() with cursor.close() in every case
19	1	https://github.com/DevelopFreedom/logmein-android/blob/418b37ffbafac3502b661d0918d1bc190e3c2dd1/app/src/main/java/org/developfreedom/logmein/DatabaseEngine.java		Correctly follows cursor=db.query() with cursor.close() in every case
20	0	https://github.com/blunden/haveibeenpwned/blob/d930bb4d37124681dab164d24821aa2131defb3f/app/src/main/java/se/blunden/haveibeenpwned/DBAdapter.java		Only calls cursor=db.query() without cursor.close()
21	1	https://github.com/QuantumBadger/RedReader/blob/716b4a5ec2d9c8495cfbcebbe24d7fe3dfb41a2f/src/main/java/org/quantumbadger/redreader/cache/CacheDbManager.java		Correctly follows cursor=db.query() with cursor.close() in every case
22	0	https://github.com/QuantumBadger/RedReader/blob/716b4a5ec2d9c8495cfbcebbe24d7fe3dfb41a2f/src/main/java/org/quantumbadger/redreader/account/RedditAccountManager.java		Follows cursor=db.query() with cursor.close() in every (actual) case (in the sense of witnessable traces, though contains checks that are redundant)
23	1	https://github.com/QuantumBadger/RedReader/blob/716b4a5ec2d9c8495cfbcebbe24d7fe3dfb41a2f/src/main/java/org/quantumbadger/redreader/io/RawObjectDB.java		Correctly follows cursor=db.query() with cursor.close() in every case
24	1	https://github.com/QuantumBadger/RedReader/blob/716b4a5ec2d9c8495cfbcebbe24d7fe3dfb41a2f/src/main/java/org/quantumbadger/redreader/cache/CacheDbManager.java		Correctly follows cursor=db.query() with cursor.close() in every case
25	1	https://github.com/QuantumBadger/RedReader/blob/716b4a5ec2d9c8495cfbcebbe24d7fe3dfb41a2f/src/main/java/org/quantumbadger/redreader/io/RawObjectDB.java		Correctly follows cursor=db.query() with cursor.close() in every case
26	1	https://github.com/c-base/c-beam-droid/blob/73ba169d4cf6e76a34e3e0e95739811e70514664/src/main/java/org/c_base/c_beam/util/NotificationsDataSource.java		Correctly follows cursor=db.query() with cursor.close() in every case
27	1	https://github.com/c-base/c-beam-droid/blob/73ba169d4cf6e76a34e3e0e95739811e70514664/src/main/java/org/c_base/c_beam/util/NotificationsDataSource.java		Correctly follows cursor=db.query() with cursor.close() in every case
28	1	https://github.com/c-base/c-beam-droid/blob/73ba169d4cf6e76a34e3e0e95739811e70514664/src/main/java/org/c_base/c_beam/mqtt/Persistence.java		Correctly follows cursor=db.query() with cursor.close() in every case
29	1	https://github.com/scorelab/Tracker/blob/24ac594af10e9597ab6035eecab314cb351bb524/mobility-track-android/app/src/main/java/ogr/scorelab/ucsc/mobility_track/DBAccess.java		Correctly follows cursor=db.query() with cursor.close() in every case
30	0	https://github.com/codeskraps/sBrowser/blob/70090f0c8b531fc1c8de7a2dc3c017ff368721b8/app/src/main/java/com/codeskraps/sbrowser/misc/DataBaseData.java		Only calls db.query()---a helper method that might be correct in broader context
31	1	https://github.com/mopub/mopub-android-sdk/blob/8bb31a5d2b0dd1489792aa3ca17c505395319624/mopub-sample/src/main/java/com/mopub/simpleadsdemo/AdUnitDataSource.java		Correctly follows cursor=db.query() with cursor.close() in every case
32	1	https://github.com/mopub/mopub-android-sdk/blob/8bb31a5d2b0dd1489792aa3ca17c505395319624/mopub-sample/src/main/java/com/mopub/simpleadsdemo/AdUnitDataSource.java		Correctly follows cursor=db.query() with cursor.close() in every case
33	0	https://github.com/danieloeh/AntennaPodSP/blob/b0c74b0fa7df908a56a4096ac75f78ab17f57233/src/de/danoeh/antennapodsp/storage/PodDBAdapter.java		Only calls db.query()---a helper method that is correct in broader context: https://github.com/danieloeh/AntennaPodSP/blob/b0c74b0fa7df908a56a4096ac75f78ab17f57233/src/de/danoeh/antennapodsp/storage/DBWriter.java
34	0	https://github.com/danieloeh/AntennaPodSP/blob/b0c74b0fa7df908a56a4096ac75f78ab17f57233/src/de/danoeh/antennapodsp/storage/PodDBAdapter.java		Only calls db.query()---a helper method that may be correct in broader context: https://github.com/danieloeh/AntennaPodSP/blob/b0c74b0fa7df908a56a4096ac75f78ab17f57233/src/de/danoeh/antennapodsp/storage/DBTasks.java
35	0	https://github.com/danieloeh/AntennaPodSP/blob/b0c74b0fa7df908a56a4096ac75f78ab17f57233/src/de/danoeh/antennapodsp/storage/PodDBAdapter.java		Only calls db.query()---a helper method that may be correct in broader context
36	0	https://github.com/danieloeh/AntennaPodSP/blob/b0c74b0fa7df908a56a4096ac75f78ab17f57233/src/de/danoeh/antennapodsp/storage/PodDBAdapter.java		Only calls db.query()---a helper method that may be correct in broader context
37	0	https://github.com/danieloeh/AntennaPodSP/blob/b0c74b0fa7df908a56a4096ac75f78ab17f57233/src/de/danoeh/antennapodsp/storage/PodDBAdapter.java		Only calls db.query()---a helper method that may be correct in broader context
38	0	https://github.com/danieloeh/AntennaPodSP/blob/b0c74b0fa7df908a56a4096ac75f78ab17f57233/src/de/danoeh/antennapodsp/storage/PodDBAdapter.java		Only calls db.query()---a helper method that may be correct in broader context
39	0	https://github.com/danieloeh/AntennaPodSP/blob/b0c74b0fa7df908a56a4096ac75f78ab17f57233/src/de/danoeh/antennapodsp/storage/PodDBAdapter.java		Only calls db.query()---a helper method that may be correct in broader context
40	0	https://github.com/danieloeh/AntennaPodSP/blob/b0c74b0fa7df908a56a4096ac75f78ab17f57233/src/de/danoeh/antennapodsp/storage/PodDBAdapter.java		Only calls db.query()---a helper method that may be correct in broader context
41	0	https://github.com/danieloeh/AntennaPodSP/blob/b0c74b0fa7df908a56a4096ac75f78ab17f57233/src/de/danoeh/antennapodsp/storage/PodDBAdapter.java		Only calls db.query()---a helper method that may be correct in broader context
42	0	https://github.com/danieloeh/AntennaPodSP/blob/b0c74b0fa7df908a56a4096ac75f78ab17f57233/src/de/danoeh/antennapodsp/storage/PodDBAdapter.java		Only calls db.query()---a helper method that may be correct in broader context
43	0	https://github.com/danieloeh/AntennaPodSP/blob/b0c74b0fa7df908a56a4096ac75f78ab17f57233/src/de/danoeh/antennapodsp/storage/PodDBAdapter.java		Only calls db.query()---a helper method that may be correct in broader context
44	0	https://github.com/danieloeh/AntennaPodSP/blob/b0c74b0fa7df908a56a4096ac75f78ab17f57233/src/de/danoeh/antennapodsp/storage/PodDBAdapter.java		Only calls db.query()---a helper method that may be correct in broader context
45	0	https://github.com/danieloeh/AntennaPodSP/blob/b0c74b0fa7df908a56a4096ac75f78ab17f57233/src/de/danoeh/antennapodsp/storage/PodDBAdapter.java		Only calls db.query()---a helper method that may be correct in broader context
46	0	https://github.com/danieloeh/AntennaPodSP/blob/b0c74b0fa7df908a56a4096ac75f78ab17f57233/src/de/danoeh/antennapodsp/storage/PodDBAdapter.java		Only calls db.query()---a helper method that may be correct in broader context
47	0	https://github.com/danieloeh/AntennaPodSP/blob/b0c74b0fa7df908a56a4096ac75f78ab17f57233/src/de/danoeh/antennapodsp/storage/PodDBAdapter.java		Only calls db.query()---a helper method that may be correct in broader context
48	0	https://github.com/danieloeh/AntennaPodSP/blob/b0c74b0fa7df908a56a4096ac75f78ab17f57233/src/de/danoeh/antennapodsp/storage/PodDBAdapter.java		Only calls db.query()---a helper method that may be correct in broader context
49	0	https://github.com/danieloeh/AntennaPodSP/blob/b0c74b0fa7df908a56a4096ac75f78ab17f57233/src/de/danoeh/antennapodsp/storage/PodDBAdapter.java		Only calls db.query()---a helper method that may be correct in broader context
50	0	https://github.com/danieloeh/AntennaPodSP/blob/b0c74b0fa7df908a56a4096ac75f78ab17f57233/src/de/danoeh/antennapodsp/storage/PodDBAdapter.java		Only calls db.query()---a helper method that may be correct in broader context
51	0	https://github.com/danieloeh/AntennaPodSP/blob/b0c74b0fa7df908a56a4096ac75f78ab17f57233/src/de/danoeh/antennapodsp/storage/PodDBAdapter.java		Only calls db.query()---a helper method that may be correct in broader context
52	0	https://github.com/danieloeh/AntennaPodSP/blob/b0c74b0fa7df908a56a4096ac75f78ab17f57233/src/de/danoeh/antennapodsp/storage/PodDBAdapter.java		Only calls db.query()---a helper method that may be correct in broader context
53	1	https://github.com/Nutomic/movecerts/blob/c0d0186395f1483b79d8dbbaac8ac98c67cc0d25/app/src/main/java/com/nutomic/zertman/MovedCertificatesStorage.java		Correctly follows cursor=db.query() with cursor.close() in every case
54	1	https://github.com/cloud-emoticon/cloudemoji/blob/eb01195fcb5883fc42c9f0ef2e88615acca645fa/app/src/main/java/org/ktachibana/cloudemoji/activities/MainActivity.java		Correctly follows cursor=db.query() with cursor.close() in every case
55	0	https://github.com/sheimi/SGit/blob/13fe731f0043e3f3febd79e3a3b62b61bb2b6864/src/main/java/me/sheimi/sgit/database/RepoDbManager.java		Only calls db.query()---a helper method that may be correct in broader context
56	1	https://github.com/sheimi/SGit/blob/13fe731f0043e3f3febd79e3a3b62b61bb2b6864/src/main/java/me/sheimi/sgit/database/RepoDbManager.java		Follows cursor=db.query() with cursor.close() in every (actual) case (in the sense of witnessable traces, though contains checks that are redundant)
57	1	https://github.com/sheimi/SGit/blob/13fe731f0043e3f3febd79e3a3b62b61bb2b6864/src/main/java/me/sheimi/sgit/database/RepoDbManager.java		Follows cursor=db.query() with cursor.close() in every (actual) case (in the sense of witnessable traces, though contains checks that are redundant)
58	1	https://github.com/macdidi5/AndroidTutorial/blob/c43e16f5026b5bd637978c053411b7233e30cb7c/examples/0501/MyAndroidTutorial/app/src/main/java/net/macdidi/myandroidtutorial/ItemDAO.java		Correctly follows cursor=db.query() with cursor.close() in every case
59	1	https://github.com/macdidi5/AndroidTutorial/blob/c43e16f5026b5bd637978c053411b7233e30cb7c/examples/0501/MyAndroidTutorial/app/src/main/java/net/macdidi/myandroidtutorial/ItemDAO.java		Correctly follows cursor=db.query() with cursor.close() in every case
60	1	https://github.com/AndlyticsProject/andlytics/blob/b70ff47a1d01ce01d4d5eb27ea7c42e29be83f9b/src/com/github/andlyticsproject/DeveloperAccountManager.java		Follows cursor=db.query() with cursor.close() in every (actual) case (in the sense of witnessable traces, though contains checks that are redundant)
61	1	https://github.com/AndlyticsProject/andlytics/blob/b70ff47a1d01ce01d4d5eb27ea7c42e29be83f9b/src/com/github/andlyticsproject/db/AndlyticsDb.java		Follows cursor=db.query() with cursor.close() in every (actual) case (in the sense of witnessable traces, though contains checks that are redundant)
62	1	https://github.com/AndlyticsProject/andlytics/blob/b70ff47a1d01ce01d4d5eb27ea7c42e29be83f9b/src/com/github/andlyticsproject/DeveloperAccountManager.java		Follows cursor=db.query() with cursor.close() in every (actual) case (in the sense of witnessable traces, though contains checks that are redundant)
63	1	https://github.com/AndlyticsProject/andlytics/blob/b70ff47a1d01ce01d4d5eb27ea7c42e29be83f9b/src/com/github/andlyticsproject/db/AndlyticsDb.java		Follows cursor=db.query() with cursor.close() in every (actual) case (in the sense of witnessable traces, though contains checks that are redundant)
64	1	https://github.com/AndlyticsProject/andlytics/blob/b70ff47a1d01ce01d4d5eb27ea7c42e29be83f9b/src/com/github/andlyticsproject/db/AndlyticsDb.java		Follows cursor=db.query() with cursor.close() in every (actual) case (in the sense of witnessable traces, though contains checks that are redundant)
65	1	https://github.com/AndlyticsProject/andlytics/blob/b70ff47a1d01ce01d4d5eb27ea7c42e29be83f9b/src/com/github/andlyticsproject/db/AndlyticsDb.java		Follows cursor=db.query() with cursor.close() in every (actual) case (in the sense of witnessable traces, though contains checks that are redundant)
66	1	https://github.com/AndlyticsProject/andlytics/blob/b70ff47a1d01ce01d4d5eb27ea7c42e29be83f9b/src/com/github/andlyticsproject/db/AndlyticsDb.java		Follows cursor=db.query() with cursor.close() in every (actual) case (in the sense of witnessable traces, though contains checks that are redundant)
67	1	https://github.com/AndlyticsProject/andlytics/blob/b70ff47a1d01ce01d4d5eb27ea7c42e29be83f9b/src/com/github/andlyticsproject/db/AndlyticsDb.java		Follows cursor=db.query() with cursor.close() in every (actual) case (in the sense of witnessable traces, though contains checks that are redundant)
68	1	https://github.com/AndlyticsProject/andlytics/blob/b70ff47a1d01ce01d4d5eb27ea7c42e29be83f9b/src/com/github/andlyticsproject/DeveloperAccountManager.java		Follows cursor=db.query() with cursor.close() in every (actual) case (in the sense of witnessable traces, though contains checks that are redundant)
69	1	https://github.com/AndlyticsProject/andlytics/blob/b70ff47a1d01ce01d4d5eb27ea7c42e29be83f9b/src/com/github/andlyticsproject/DeveloperAccountManager.java		Follows cursor=db.query() with cursor.close() in every (actual) case (in the sense of witnessable traces, though contains checks that are redundant)
70	1	https://github.com/AndlyticsProject/andlytics/blob/b70ff47a1d01ce01d4d5eb27ea7c42e29be83f9b/src/com/github/andlyticsproject/db/AndlyticsDb.java		Follows cursor=db.query() with cursor.close() in every (actual) case (in the sense of witnessable traces, though contains checks that are redundant)
71	1	https://github.com/AndlyticsProject/andlytics/blob/b70ff47a1d01ce01d4d5eb27ea7c42e29be83f9b/src/com/github/andlyticsproject/db/AndlyticsDb.java		Follows cursor=db.query() with cursor.close() in every (actual) case (in the sense of witnessable traces, though contains checks that are redundant)
72	1	https://github.com/AndlyticsProject/andlytics/blob/b70ff47a1d01ce01d4d5eb27ea7c42e29be83f9b/src/com/github/andlyticsproject/db/AndlyticsDb.java		Follows cursor=db.query() with cursor.close() in every (actual) case (in the sense of witnessable traces, though contains checks that are redundant)
73	1	https://github.com/AndlyticsProject/andlytics/blob/b70ff47a1d01ce01d4d5eb27ea7c42e29be83f9b/src/com/github/andlyticsproject/db/AndlyticsContentProvider.java		Follows cursor=db.query() with cursor.close() in every (actual) case (in the sense of witnessable traces, though contains checks that are redundant)
74	1	https://github.com/AndlyticsProject/andlytics/blob/b70ff47a1d01ce01d4d5eb27ea7c42e29be83f9b/src/com/github/andlyticsproject/DeveloperAccountManager.java		Follows cursor=db.query() with cursor.close() in every (actual) case (in the sense of witnessable traces, though contains checks that are redundant)
75	0	https://github.com/Securecom/Securecom-Text/blob/c253500783a8cdfdb0bb9fa1700b5c0c45a43a3e/src/com/securecomcode/text/database/MmsDatabase.java		Only calls db.query()---a helper method that may be correct in broader context
76	1	https://github.com/Securecom/Securecom-Text/blob/c253500783a8cdfdb0bb9fa1700b5c0c45a43a3e/src/com/securecomcode/text/database/IdentityDatabase.java		Follows cursor=db.query() with cursor.close() in every (actual) case (in the sense of witnessable traces, though contains checks that are redundant)
77	0	https://github.com/Securecom/Securecom-Text/blob/c253500783a8cdfdb0bb9fa1700b5c0c45a43a3e/src/com/securecomcode/text/database/ThreadDatabase.java		Only calls db.query()---a helper method that may be correct in broader context
78	-1	https://github.com/Securecom/Securecom-Text/blob/c253500783a8cdfdb0bb9fa1700b5c0c45a43a3e/src/com/securecomcode/text/database/DatabaseFactory.java		Very complicated usage of db.query() containing elaborate control flow and numerous null checks---too dissimilar to common pattern to be comparable
79	1	https://github.com/Securecom/Securecom-Text/blob/c253500783a8cdfdb0bb9fa1700b5c0c45a43a3e/src/com/securecomcode/text/database/ThreadDatabase.java		Follows cursor=db.query() with cursor.close() in every (actual) case (in the sense of witnessable traces, though contains checks that are redundant)
80	1	https://github.com/Securecom/Securecom-Text/blob/c253500783a8cdfdb0bb9fa1700b5c0c45a43a3e/src/com/securecomcode/text/database/ThreadDatabase.java		Follows cursor=db.query() with cursor.close() in every (actual) case (in the sense of witnessable traces, though contains checks that are redundant)
81	0	https://github.com/Securecom/Securecom-Text/blob/c253500783a8cdfdb0bb9fa1700b5c0c45a43a3e/src/com/securecomcode/text/database/MmsDatabase.java		Only calls db.query()---a helper method that may be correct in broader context
82	1	https://github.com/Securecom/Securecom-Text/blob/c253500783a8cdfdb0bb9fa1700b5c0c45a43a3e/src/com/securecomcode/text/database/DatabaseFactory.java		Follows cursor=db.query() with cursor.close() in every (actual) case (in the sense of witnessable traces, though contains checks that are redundant)
83	1	https://github.com/Securecom/Securecom-Text/blob/c253500783a8cdfdb0bb9fa1700b5c0c45a43a3e/src/com/securecomcode/text/database/MmsAddressDatabase.java		Follows cursor=db.query() with cursor.close() in every (actual) case (in the sense of witnessable traces, though contains checks that are redundant)
84	1	https://github.com/Securecom/Securecom-Text/blob/c253500783a8cdfdb0bb9fa1700b5c0c45a43a3e/src/com/securecomcode/text/database/MmsDatabase.java		Follows cursor=db.query() with cursor.close() in every (actual) case (in the sense of witnessable traces, though contains checks that are redundant)
85	-1	https://github.com/Securecom/Securecom-Text/blob/c253500783a8cdfdb0bb9fa1700b5c0c45a43a3e/src/com/securecomcode/text/database/ApnDatabase.java		Very complicated usage of db.query() containing elaborate control flow and numerous null checks---too dissimilar to common pattern to be comparable
86	1	https://github.com/Securecom/Securecom-Text/blob/c253500783a8cdfdb0bb9fa1700b5c0c45a43a3e/src/com/securecomcode/text/database/PartDatabase.java		Follows cursor=db.query() with cursor.close() in every (actual) case (in the sense of witnessable traces, though contains checks that are redundant)
87	1	https://github.com/Securecom/Securecom-Text/blob/c253500783a8cdfdb0bb9fa1700b5c0c45a43a3e/src/com/securecomcode/text/database/MmsDatabase.java		Follows cursor=db.query() with cursor.close() in every (actual) case (in the sense of witnessable traces, though contains checks that are redundant)
88	1	https://github.com/Securecom/Securecom-Text/blob/c253500783a8cdfdb0bb9fa1700b5c0c45a43a3e/src/com/securecomcode/text/database/GroupDatabase.java		Follows cursor=db.query() with cursor.close() in every (actual) case (in the sense of witnessable traces, though contains checks that are redundant)
89	1	https://github.com/Securecom/Securecom-Text/blob/c253500783a8cdfdb0bb9fa1700b5c0c45a43a3e/src/com/securecomcode/text/database/CanonicalAddressDatabase.java		Follows cursor=db.query() with cursor.close() in every (actual) case (in the sense of witnessable traces, though contains checks that are redundant)
90	0	https://github.com/Securecom/Securecom-Text/blob/c253500783a8cdfdb0bb9fa1700b5c0c45a43a3e/src/com/securecomcode/text/database/PushDatabase.java		Only calls db.query()---a helper method that may be correct in broader context
91	0	https://github.com/Securecom/Securecom-Text/blob/c253500783a8cdfdb0bb9fa1700b5c0c45a43a3e/src/com/securecomcode/text/database/SmsDatabase.java		Only calls db.query()---a helper method that may be correct in broader context
92	1	https://github.com/Securecom/Securecom-Text/blob/c253500783a8cdfdb0bb9fa1700b5c0c45a43a3e/src/com/securecomcode/text/database/PartDatabase.java		Follows cursor=db.query() with cursor.close() in every (actual) case (in the sense of witnessable traces, though contains checks that are redundant)
93	1	https://github.com/Securecom/Securecom-Text/blob/c253500783a8cdfdb0bb9fa1700b5c0c45a43a3e/src/com/securecomcode/text/database/MmsDatabase.java		Follows cursor=db.query() with cursor.close() in every (actual) case (in the sense of witnessable traces, though contains checks that are redundant)
94	1	https://github.com/Securecom/Securecom-Text/blob/c253500783a8cdfdb0bb9fa1700b5c0c45a43a3e/src/com/securecomcode/text/database/DraftDatabase.java		Follows cursor=db.query() with cursor.close() in every (actual) case (in the sense of witnessable traces, though contains checks that are redundant)
95	1	https://github.com/Securecom/Securecom-Text/blob/c253500783a8cdfdb0bb9fa1700b5c0c45a43a3e/src/com/securecomcode/text/database/SmsDatabase.java		Follows cursor=db.query() with cursor.close() in every (actual) case (in the sense of witnessable traces, though contains checks that are redundant)
96	0	https://github.com/Securecom/Securecom-Text/blob/c253500783a8cdfdb0bb9fa1700b5c0c45a43a3e/src/com/securecomcode/text/database/IdentityDatabase.java		Only calls db.query()---a helper method that may be correct in broader context
97	1	https://github.com/Securecom/Securecom-Text/blob/c253500783a8cdfdb0bb9fa1700b5c0c45a43a3e/src/com/securecomcode/text/database/SmsDatabase.java		Follows cursor=db.query() with cursor.close() in every (actual) case (in the sense of witnessable traces, though contains checks that are redundant)
98	1	https://github.com/Securecom/Securecom-Text/blob/c253500783a8cdfdb0bb9fa1700b5c0c45a43a3e/src/com/securecomcode/text/database/PartDatabase.java		Follows cursor=db.query() with cursor.close() in every (actual) case (in the sense of witnessable traces, though contains checks that are redundant)
99	0	https://github.com/Securecom/Securecom-Text/blob/c253500783a8cdfdb0bb9fa1700b5c0c45a43a3e/src/com/securecomcode/text/database/SmsDatabase.java		Only calls db.query()---a helper method that may be correct in broader context
100	1	https://github.com/Securecom/Securecom-Text/blob/c253500783a8cdfdb0bb9fa1700b5c0c45a43a3e/src/com/securecomcode/text/database/CanonicalAddressDatabase.java		Follows cursor=db.query() with cursor.close() in every (actual) case (in the sense of witnessable traces, though contains checks that are redundant)
