Precisions	Recalls
[0.8333333333333334, 1.0, 0.6363636363636364, 0.9, 0.9090909090909091, 0.6153846153846154] 	 [0.8333333333333334, 0.7, 0.875, 0.6923076923076923, 0.9090909090909091, 1.0]
Mean Precision	Mean Recall
0.815695415695 0.834955322455
SD Precision	SD Recall
0.142824811602 0.110229550852

Precisions	Recalls
[0.47058823529411764, 0.5882352941176471, 0.625, 0.6875, 0.6875, 0.75] 	 [1.0, 1.0, 1.0, 1.0, 1.0, 1.0]
Mean Precision	Mean Recall
0.634803921569 1.0
SD Precision	SD Recall
0.0894943530895 0.0
