digraph Tree {
node [shape=box] ;
0 [label="X[0] <= 0.1774\ngini = 0.4759\nsamples = 82\nvalue = [32, 50]"] ;
1 [label="gini = 0.18\nsamples = 30\nvalue = [3, 27]"] ;
0 -> 1 [labeldistance=2.5, labelangle=45, headlabel="True"] ;
2 [label="gini = 0.4933\nsamples = 52\nvalue = [29, 23]"] ;
0 -> 2 [labeldistance=2.5, labelangle=-45, headlabel="False"] ;
}