%!PS-Adobe-3.0 EPSF-3.0
%%Creator: graphviz version 2.38.0 (20140413.2041)
%%Title: isoAB
%%Pages: 1
%%BoundingBox: 36 36 2531 505
%%EndComments
save
%%BeginProlog
/DotDict 200 dict def
DotDict begin

/setupLatin1 {
mark
/EncodingVector 256 array def
 EncodingVector 0

ISOLatin1Encoding 0 255 getinterval putinterval
EncodingVector 45 /hyphen put

% Set up ISO Latin 1 character encoding
/starnetISO {
        dup dup findfont dup length dict begin
        { 1 index /FID ne { def }{ pop pop } ifelse
        } forall
        /Encoding EncodingVector def
        currentdict end definefont
} def
/Times-Roman starnetISO def
/Times-Italic starnetISO def
/Times-Bold starnetISO def
/Times-BoldItalic starnetISO def
/Helvetica starnetISO def
/Helvetica-Oblique starnetISO def
/Helvetica-Bold starnetISO def
/Helvetica-BoldOblique starnetISO def
/Courier starnetISO def
/Courier-Oblique starnetISO def
/Courier-Bold starnetISO def
/Courier-BoldOblique starnetISO def
cleartomark
} bind def

%%BeginResource: procset graphviz 0 0
/coord-font-family /Times-Roman def
/default-font-family /Times-Roman def
/coordfont coord-font-family findfont 8 scalefont def

/InvScaleFactor 1.0 def
/set_scale {
       dup 1 exch div /InvScaleFactor exch def
       scale
} bind def

% styles
/solid { [] 0 setdash } bind def
/dashed { [9 InvScaleFactor mul dup ] 0 setdash } bind def
/dotted { [1 InvScaleFactor mul 6 InvScaleFactor mul] 0 setdash } bind def
/invis {/fill {newpath} def /stroke {newpath} def /show {pop newpath} def} bind def
/bold { 2 setlinewidth } bind def
/filled { } bind def
/unfilled { } bind def
/rounded { } bind def
/diagonals { } bind def
/tapered { } bind def

% hooks for setting color 
/nodecolor { sethsbcolor } bind def
/edgecolor { sethsbcolor } bind def
/graphcolor { sethsbcolor } bind def
/nopcolor {pop pop pop} bind def

/beginpage {	% i j npages
	/npages exch def
	/j exch def
	/i exch def
	/str 10 string def
	npages 1 gt {
		gsave
			coordfont setfont
			0 0 moveto
			(\() show i str cvs show (,) show j str cvs show (\)) show
		grestore
	} if
} bind def

/set_font {
	findfont exch
	scalefont setfont
} def

% draw text fitted to its expected width
/alignedtext {			% width text
	/text exch def
	/width exch def
	gsave
		width 0 gt {
			[] 0 setdash
			text stringwidth pop width exch sub text length div 0 text ashow
		} if
	grestore
} def

/boxprim {				% xcorner ycorner xsize ysize
		4 2 roll
		moveto
		2 copy
		exch 0 rlineto
		0 exch rlineto
		pop neg 0 rlineto
		closepath
} bind def

/ellipse_path {
	/ry exch def
	/rx exch def
	/y exch def
	/x exch def
	matrix currentmatrix
	newpath
	x y translate
	rx ry scale
	0 0 1 0 360 arc
	setmatrix
} bind def

/endpage { showpage } bind def
/showpage { } def

/layercolorseq
	[	% layer color sequence - darkest to lightest
		[0 0 0]
		[.2 .8 .8]
		[.4 .8 .8]
		[.6 .8 .8]
		[.8 .8 .8]
	]
def

/layerlen layercolorseq length def

/setlayer {/maxlayer exch def /curlayer exch def
	layercolorseq curlayer 1 sub layerlen mod get
	aload pop sethsbcolor
	/nodecolor {nopcolor} def
	/edgecolor {nopcolor} def
	/graphcolor {nopcolor} def
} bind def

/onlayer { curlayer ne {invis} if } def

/onlayers {
	/myupper exch def
	/mylower exch def
	curlayer mylower lt
	curlayer myupper gt
	or
	{invis} if
} def

/curlayer 0 def

%%EndResource
%%EndProlog
%%BeginSetup
14 default-font-family set_font
1 setmiterlimit
% /arrowlength 10 def
% /arrowwidth 5 def

% make sure pdfmark is harmless for PS-interpreters other than Distiller
/pdfmark where {pop} {userdict /pdfmark /cleartomark load put} ifelse
% make '<<' and '>>' safe on PS Level 1 devices
/languagelevel where {pop languagelevel}{1} ifelse
2 lt {
    userdict (<<) cvn ([) cvn load put
    userdict (>>) cvn ([) cvn load put
} if

%%EndSetup
setupLatin1
%%Page: 1 1
%%PageBoundingBox: 36 36 2531 505
%%PageOrientation: Portrait
0 0 1 beginpage
gsave
36 36 2495 469 boxprim clip newpath
1 1 set_scale 0 rotate 40 40 translate
% cluster_A
gsave
1 setlinewidth
0 0 0 graphcolor
newpath 20 199 moveto
20 199 2162.95 199 2162.95 199 curveto
2168.95 199 2174.95 205 2174.95 211 curveto
2174.95 211 2174.95 370 2174.95 370 curveto
2174.95 376 2168.95 382 2162.95 382 curveto
2162.95 382 20 382 20 382 curveto
14 382 8 376 8 370 curveto
8 370 8 211 8 211 curveto
8 205 14 199 20 199 curveto
stroke
0 0 0 graphcolor
14 /Times-Roman set_font
1061.48 366.8 moveto 60 (ACDFG A) alignedtext
grestore
% cluster_B
gsave
1 setlinewidth
0 0 0.75294 graphcolor
newpath 500.43 8 moveto
500.43 8 2466.78 8 2466.78 8 curveto
2472.78 8 2478.78 14 2478.78 20 curveto
2478.78 20 2478.78 179 2478.78 179 curveto
2478.78 185 2472.78 191 2466.78 191 curveto
2466.78 191 500.43 191 500.43 191 curveto
494.43 191 488.43 185 488.43 179 curveto
488.43 179 488.43 20 488.43 20 curveto
488.43 14 494.43 8 500.43 8 curveto
stroke
0 0 0 graphcolor
14 /Times-Roman set_font
1454.1 175.8 moveto 59 (ACDFG B) alignedtext
grestore
% a_9
gsave
2 setlinewidth
dashed
0 1 1 nodecolor
226.35 225 210.2 18 ellipse_path stroke
0 0 0 nodecolor
13 /Times-Roman set_font
67.85 221.6 moveto 317 (DataNode #9: android.database.sqlite.SQLiteDatabase  $r3) alignedtext
grestore
% a_23
gsave
0 0 0.82745 nodecolor
newpath 949.7 351 moveto
472.7 351 lineto
472.7 315 lineto
949.7 315 lineto
closepath fill
2 setlinewidth
filled
0 0 0.82745 nodecolor
newpath 949.7 351 moveto
472.7 351 lineto
472.7 315 lineto
949.7 315 lineto
closepath stroke
0 0 0 nodecolor
13 /Times-Roman set_font
480.7 329.6 moveto 461 ( android.database.sqlite.SQLiteDatabase.query[#9]\(#20, #11, #21, #21, #21, #21, #21\)) alignedtext
grestore
% a_9->a_23
gsave
2 setlinewidth
0.33333 1 1 edgecolor
newpath 360.22 238.89 moveto
385.73 242.47 412.14 246.81 436.7 252 curveto
510.74 267.64 593.85 293.47 648.81 311.75 curveto
stroke
2 setlinewidth
solid
0.33333 1 1 edgecolor
newpath 647.81 315.11 moveto
658.4 314.96 lineto
650.03 308.47 lineto
closepath stroke
grestore
% b_10
gsave
2 setlinewidth
dashed
0 1 1 nodecolor
711.2 34 214.54 18 ellipse_path stroke
0 0 0 nodecolor
13 /Times-Roman set_font
549.2 30.6 moveto 324 (DataNode #10: android.database.sqlite.SQLiteDatabase  $r1) alignedtext
grestore
% a_9->b_10
gsave
2 setlinewidth
dashed
0 1 1 edgecolor
newpath 247.13 206.82 moveto
286.59 171.75 379.37 95.2 472.7 61 curveto
489.3 54.92 506.95 50.11 524.85 46.32 curveto
stroke
2 setlinewidth
solid
0 1 1 edgecolor
newpath 525.7 49.72 moveto
534.82 44.32 lineto
524.32 42.86 lineto
closepath stroke
grestore
% a_11
gsave
2 setlinewidth
dashed
0 1 1 nodecolor
226.35 279 138.17 18 ellipse_path stroke
0 0 0 nodecolor
13 /Times-Roman set_font
124.85 275.6 moveto 203 (DataNode #11: java.lang.String[]  $r2) alignedtext
grestore
% a_11->a_23
gsave
2 setlinewidth
0.33333 1 1 edgecolor
newpath 331.82 290.68 moveto
392.21 297.44 469.69 306.1 538.79 313.83 curveto
stroke
2 setlinewidth
solid
0.33333 1 1 edgecolor
newpath 538.6 317.33 moveto
548.92 314.96 lineto
539.37 310.37 lineto
closepath stroke
grestore
% b_13
gsave
2 setlinewidth
dashed
0 1 1 nodecolor
711.2 88 138.17 18 ellipse_path stroke
0 0 0 nodecolor
13 /Times-Roman set_font
609.7 84.6 moveto 203 (DataNode #13: java.lang.String[]  $r2) alignedtext
grestore
% a_11->b_13
gsave
2 setlinewidth
dashed
0 1 1 edgecolor
newpath 352.83 286.3 moveto
383.27 282.16 413.64 272.26 436.7 252 curveto
483.98 210.44 425.1 156.2 472.7 115 curveto
508.06 84.38 558.33 75.49 603.52 75.14 curveto
stroke
2 setlinewidth
solid
0 1 1 edgecolor
newpath 603.66 78.64 moveto
613.68 75.19 lineto
603.7 71.64 lineto
closepath stroke
grestore
% a_17
gsave
2 setlinewidth
dashed
0 1 1 nodecolor
1220.7 225 80.71 18 ellipse_path stroke
0 0 0 nodecolor
13 /Times-Roman set_font
1164.7 221.6 moveto 112 (DataNode #17: int  1) alignedtext
grestore
% a_47
gsave
0 0 0.82745 nodecolor
newpath 1794.01 260 moveto
1533.01 260 lineto
1533.01 224 lineto
1794.01 224 lineto
closepath fill
2 setlinewidth
filled
0 0 0.82745 nodecolor
newpath 1794.01 260 moveto
1533.01 260 lineto
1533.01 224 lineto
1794.01 224 lineto
closepath stroke
0 0 0 nodecolor
13 /Times-Roman set_font
1541.01 238.6 moveto 245 ( android.database.Cursor.getString[#22]\(#17\)) alignedtext
grestore
% a_17->a_47
gsave
2 setlinewidth
0.33333 1 1 edgecolor
newpath 1300.51 228.04 moveto
1362.12 230.42 1449.33 233.78 1522.72 236.61 curveto
stroke
2 setlinewidth
solid
0.33333 1 1 edgecolor
newpath 1522.85 240.12 moveto
1532.98 237 lineto
1523.12 233.12 lineto
closepath stroke
grestore
% b_16
gsave
2 setlinewidth
dashed
0 1 1 nodecolor
1663.51 142 80.71 18 ellipse_path stroke
0 0 0 nodecolor
13 /Times-Roman set_font
1607.51 138.6 moveto 112 (DataNode #16: int  0) alignedtext
grestore
% a_17->b_16
gsave
2 setlinewidth
dashed
0 1 1 edgecolor
newpath 1295.32 217.92 moveto
1341.58 212.88 1402.4 205.21 1455.7 195 curveto
1506.31 185.31 1562.95 170.51 1604.14 159.01 curveto
stroke
2 setlinewidth
solid
0 1 1 edgecolor
newpath 1605.32 162.32 moveto
1614 156.24 lineto
1603.43 155.58 lineto
closepath stroke
grestore
% a_21
gsave
2 setlinewidth
dashed
0 1 1 nodecolor
226.35 333 113.14 18 ellipse_path stroke
0 0 0 nodecolor
13 /Times-Roman set_font
144.85 329.6 moveto 163 (DataNode #21: null_type  null) alignedtext
grestore
% a_21->a_23
gsave
2 setlinewidth
0.33333 1 1 edgecolor
newpath 229.29 314.67 moveto
260.54 171.33 658.23 168.18 705.59 305.21 curveto
stroke
2 setlinewidth
solid
0.33333 1 1 edgecolor
newpath 702.23 306.19 moveto
708.3 314.88 lineto
708.98 304.3 lineto
closepath stroke
grestore
% a_21->a_23
gsave
2 setlinewidth
0.33333 1 1 edgecolor
newpath 229.72 314.95 moveto
263.69 189.32 652.3 186.1 704.43 305.3 curveto
stroke
2 setlinewidth
solid
0.33333 1 1 edgecolor
newpath 701.17 306.6 moveto
707.8 314.87 lineto
707.78 304.27 lineto
closepath stroke
grestore
% a_21->a_23
gsave
2 setlinewidth
0.33333 1 1 edgecolor
newpath 230.43 314.91 moveto
268.4 207.24 645.24 204.12 702.83 305.55 curveto
stroke
2 setlinewidth
solid
0.33333 1 1 edgecolor
newpath 699.67 307.07 moveto
707.04 314.69 lineto
706.03 304.14 lineto
closepath stroke
grestore
% a_21->a_23
gsave
2 setlinewidth
0.33333 1 1 edgecolor
newpath 231.52 314.85 moveto
274.56 225.02 637.24 222.14 700.73 306.23 curveto
stroke
2 setlinewidth
solid
0.33333 1 1 edgecolor
newpath 697.85 308.23 moveto
706.06 314.92 lineto
703.82 304.57 lineto
closepath stroke
grestore
% a_21->a_23
gsave
2 setlinewidth
0.33333 1 1 edgecolor
newpath 233.28 314.84 moveto
282.78 242.71 627.21 240.15 697.64 307.16 curveto
stroke
2 setlinewidth
solid
0.33333 1 1 edgecolor
newpath 695.02 309.49 moveto
704.22 314.77 lineto
700.32 304.91 lineto
closepath stroke
grestore
% a_21->a_23
gsave
2 setlinewidth
0.33333 1 1 edgecolor
newpath 236.56 314.7 moveto
295.07 260.22 614.87 258.18 692.98 308.57 curveto
stroke
2 setlinewidth
solid
0.33333 1 1 edgecolor
newpath 691.22 311.63 moveto
701.27 314.98 lineto
695.5 306.09 lineto
closepath stroke
grestore
% a_21->a_23
gsave
2 setlinewidth
0.33333 1 1 edgecolor
newpath 242.33 315.17 moveto
311.3 277.54 598.62 276.01 685.32 310.59 curveto
stroke
2 setlinewidth
solid
0.33333 1 1 edgecolor
newpath 683.88 313.77 moveto
694.43 314.74 lineto
686.78 307.41 lineto
closepath stroke
grestore
% a_21->a_23
gsave
2 setlinewidth
0.33333 1 1 edgecolor
newpath 257.19 315.66 moveto
339.71 294.78 571.25 293.83 667.45 312.79 curveto
stroke
2 setlinewidth
solid
0.33333 1 1 edgecolor
newpath 666.9 316.25 moveto
677.41 314.94 lineto
668.38 309.4 lineto
closepath stroke
grestore
% a_21->a_23
gsave
2 setlinewidth
0.33333 1 1 edgecolor
newpath 293.73 318.53 moveto
365.86 312.5 483.07 311.19 574.8 314.6 curveto
stroke
2 setlinewidth
solid
0.33333 1 1 edgecolor
newpath 574.87 318.1 moveto
585 315 lineto
575.15 311.11 lineto
closepath stroke
grestore
% a_21->a_23
gsave
2 setlinewidth
0.33333 1 1 edgecolor
newpath 333.61 327.3 moveto
372.02 326.63 417.18 326.28 462.62 326.25 curveto
stroke
2 setlinewidth
solid
0.33333 1 1 edgecolor
newpath 462.62 329.75 moveto
472.62 326.25 lineto
462.62 322.75 lineto
closepath stroke
grestore
% a_21->a_23
gsave
2 setlinewidth
0.33333 1 1 edgecolor
newpath 333.61 338.7 moveto
372.02 339.37 417.18 339.72 462.62 339.75 curveto
stroke
2 setlinewidth
solid
0.33333 1 1 edgecolor
newpath 462.62 343.25 moveto
472.62 339.75 lineto
462.62 336.25 lineto
closepath stroke
grestore
% a_21->a_23
gsave
2 setlinewidth
0.33333 1 1 edgecolor
newpath 293.73 347.47 moveto
365.86 353.5 483.07 354.81 574.8 351.4 curveto
stroke
2 setlinewidth
solid
0.33333 1 1 edgecolor
newpath 575.15 354.89 moveto
585 351 lineto
574.87 347.9 lineto
closepath stroke
grestore
% a_21->a_23
gsave
2 setlinewidth
0.33333 1 1 edgecolor
newpath 257.19 350.34 moveto
339.71 371.22 571.25 372.17 667.45 353.21 curveto
stroke
2 setlinewidth
solid
0.33333 1 1 edgecolor
newpath 668.38 356.6 moveto
677.41 351.06 lineto
666.9 349.75 lineto
closepath stroke
grestore
% a_21->a_23
gsave
2 setlinewidth
0.33333 1 1 edgecolor
newpath 242.33 350.83 moveto
311.3 388.46 598.62 389.99 685.32 355.41 curveto
stroke
2 setlinewidth
solid
0.33333 1 1 edgecolor
newpath 686.78 358.59 moveto
694.43 351.26 lineto
683.88 352.23 lineto
closepath stroke
grestore
% a_21->a_23
gsave
2 setlinewidth
0.33333 1 1 edgecolor
newpath 236.56 351.3 moveto
295.07 405.78 614.87 407.82 692.98 357.43 curveto
stroke
2 setlinewidth
solid
0.33333 1 1 edgecolor
newpath 695.5 359.91 moveto
701.27 351.02 lineto
691.22 354.37 lineto
closepath stroke
grestore
% a_21->a_23
gsave
2 setlinewidth
0.33333 1 1 edgecolor
newpath 233.28 351.16 moveto
282.78 423.29 627.21 425.85 697.64 358.84 curveto
stroke
2 setlinewidth
solid
0.33333 1 1 edgecolor
newpath 700.32 361.09 moveto
704.22 351.23 lineto
695.02 356.51 lineto
closepath stroke
grestore
% a_21->a_23
gsave
2 setlinewidth
0.33333 1 1 edgecolor
newpath 231.52 351.15 moveto
274.56 440.98 637.24 443.86 700.73 359.77 curveto
stroke
2 setlinewidth
solid
0.33333 1 1 edgecolor
newpath 703.82 361.43 moveto
706.06 351.08 lineto
697.85 357.77 lineto
closepath stroke
grestore
% a_21->a_23
gsave
2 setlinewidth
0.33333 1 1 edgecolor
newpath 230.43 351.09 moveto
268.4 458.76 645.24 461.88 702.83 360.45 curveto
stroke
2 setlinewidth
solid
0.33333 1 1 edgecolor
newpath 706.03 361.86 moveto
707.04 351.31 lineto
699.67 358.93 lineto
closepath stroke
grestore
% a_21->a_23
gsave
2 setlinewidth
0.33333 1 1 edgecolor
newpath 229.72 351.05 moveto
263.69 476.68 652.3 479.9 704.43 360.7 curveto
stroke
2 setlinewidth
solid
0.33333 1 1 edgecolor
newpath 707.78 361.73 moveto
707.8 351.13 lineto
701.17 359.4 lineto
closepath stroke
grestore
% a_21->a_23
gsave
2 setlinewidth
0.33333 1 1 edgecolor
newpath 229.29 351.33 moveto
260.54 494.67 658.23 497.82 705.59 360.79 curveto
stroke
2 setlinewidth
solid
0.33333 1 1 edgecolor
newpath 708.98 361.7 moveto
708.3 351.12 lineto
702.23 359.81 lineto
closepath stroke
grestore
% b_19
gsave
2 setlinewidth
dashed
0 1 1 nodecolor
711.2 142 113.14 18 ellipse_path stroke
0 0 0 nodecolor
13 /Times-Roman set_font
629.7 138.6 moveto 163 (DataNode #19: null_type  null) alignedtext
grestore
% a_21->b_19
gsave
2 setlinewidth
dashed
0 1 1 edgecolor
newpath 325.28 341.73 moveto
363.83 340.11 406.1 331.39 436.7 306 curveto
476.61 272.88 434.34 229.91 472.7 195 curveto
504.09 166.43 547.42 152.12 588.48 145.28 curveto
stroke
2 setlinewidth
solid
0 1 1 edgecolor
newpath 589.23 148.71 moveto
598.59 143.74 lineto
588.17 141.79 lineto
closepath stroke
grestore
% a_22
gsave
2 setlinewidth
dashed
0 1 1 nodecolor
1220.7 279 179.29 18 ellipse_path stroke
0 0 0 nodecolor
13 /Times-Roman set_font
1086.7 275.6 moveto 268 (DataNode #22: android.database.Cursor  mCursor) alignedtext
grestore
% a_22->a_47
gsave
2 setlinewidth
0.33333 1 1 edgecolor
newpath 1358.76 267.5 moveto
1410.87 263.12 1470.28 258.13 1522.66 253.74 curveto
stroke
2 setlinewidth
solid
0.33333 1 1 edgecolor
newpath 1523.02 257.22 moveto
1532.69 252.9 lineto
1522.43 250.25 lineto
closepath stroke
grestore
% a_50
gsave
0 0 0.82745 nodecolor
newpath 2150.14 297 moveto
1888.14 297 lineto
1888.14 261 lineto
2150.14 261 lineto
closepath fill
2 setlinewidth
filled
0 0 0.82745 nodecolor
newpath 2150.14 297 moveto
1888.14 297 lineto
1888.14 261 lineto
2150.14 261 lineto
closepath stroke
0 0 0 nodecolor
13 /Times-Roman set_font
1896.14 275.6 moveto 246 ( android.database.Cursor.moveToNext[#22]\(\)) alignedtext
grestore
% a_22->a_50
gsave
2 setlinewidth
0.33333 1 1 edgecolor
newpath 1400.43 279 moveto
1544.7 279 1744.85 279 1877.77 279 curveto
stroke
2 setlinewidth
solid
0.33333 1 1 edgecolor
newpath 1878.02 282.5 moveto
1888.02 279 lineto
1878.02 275.5 lineto
closepath stroke
grestore
% b_20
gsave
2 setlinewidth
dashed
0 1 1 nodecolor
1663.51 68 171.63 18 ellipse_path stroke
0 0 0 nodecolor
13 /Times-Roman set_font
1535.51 64.6 moveto 256 (DataNode #20: android.database.Cursor  cursor) alignedtext
grestore
% a_22->b_20
gsave
2 setlinewidth
dashed
0 1 1 edgecolor
newpath 1397.1 282.29 moveto
1418.58 276.21 1438.86 266.6 1455.7 252 curveto
1503.26 210.76 1447.44 159.77 1491.7 115 curveto
1504.83 101.71 1521.35 92.08 1538.91 85.13 curveto
stroke
2 setlinewidth
solid
0 1 1 edgecolor
newpath 1540.57 88.25 moveto
1548.76 81.53 lineto
1538.17 81.67 lineto
closepath stroke
grestore
% a_23->a_22
gsave
2 setlinewidth
0.66667 1 1 edgecolor
newpath 881.54 314.98 moveto
948.44 307.86 1024.17 299.8 1086.98 293.12 curveto
stroke
2 setlinewidth
solid
0.66667 1 1 edgecolor
newpath 1087.37 296.6 moveto
1096.95 292.06 lineto
1086.63 289.64 lineto
closepath stroke
grestore
% a_23->a_47
gsave
3 setlinewidth
0 0 0 edgecolor
newpath 949.96 331.14 moveto
1130.05 328.46 1361.94 321.92 1455.7 306 curveto
1508.18 297.09 1565.9 278.44 1607 263.57 curveto
stroke
3 setlinewidth
solid
0 0 0 edgecolor
newpath 1608.36 266.79 moveto
1616.55 260.07 lineto
1605.95 260.22 lineto
closepath stroke
grestore
% a_23->a_50
gsave
3 setlinewidth
0 0 0 edgecolor
newpath 950.05 333.71 moveto
1096.03 333.17 1286.76 330.74 1455.7 323 curveto
1599.7 316.41 1764.04 302.85 1877.72 292.52 curveto
stroke
3 setlinewidth
solid
0 0 0 edgecolor
newpath 1878.23 295.98 moveto
1887.88 291.59 lineto
1877.6 289.01 lineto
closepath stroke
grestore
% b_21
gsave
0 0 0.82745 nodecolor
newpath 1455.7 160 moveto
985.7 160 lineto
985.7 124 lineto
1455.7 124 lineto
closepath fill
2 setlinewidth
filled
0 0 0.82745 nodecolor
newpath 1455.7 160 moveto
985.7 160 lineto
985.7 124 lineto
1455.7 124 lineto
closepath stroke
0 0 0 nodecolor
13 /Times-Roman set_font
993.7 138.6 moveto 454 ( android.database.sqlite.SQLiteDatabase.query[#10]\(#4, #13, #19, #19, #19, #19, #7\)) alignedtext
grestore
% a_23->b_21
gsave
2 setlinewidth
dashed
0 1 1 edgecolor
newpath 741.87 314.96 moveto
790.96 285.84 892.85 228.37 985.7 195 curveto
1023.66 181.36 1066.39 170.45 1104.84 162.16 curveto
stroke
2 setlinewidth
solid
0 1 1 edgecolor
newpath 1105.98 165.5 moveto
1115.04 160 lineto
1104.54 158.65 lineto
closepath stroke
grestore
% a_46
gsave
2 setlinewidth
dashed
0 1 1 nodecolor
2019.14 225 147.62 18 ellipse_path stroke
0 0 0 nodecolor
13 /Times-Roman set_font
1910.14 221.6 moveto 218 (DataNode #46: java.lang.String  account) alignedtext
grestore
% b_4
gsave
2 setlinewidth
dashed
0 1 1 nodecolor
2336.87 142 133.83 18 ellipse_path stroke
0 0 0 nodecolor
13 /Times-Roman set_font
2238.87 138.6 moveto 196 (DataNode #4: java.lang.String  table) alignedtext
grestore
% a_46->b_4
gsave
2 setlinewidth
dashed
0 1 1 edgecolor
newpath 2106.15 210.34 moveto
2128.67 205.96 2152.83 200.76 2174.95 195 curveto
2210.4 185.77 2249.43 172.98 2280.18 162.27 curveto
stroke
2 setlinewidth
solid
0 1 1 edgecolor
newpath 2281.58 165.49 moveto
2289.86 158.88 lineto
2279.26 158.89 lineto
closepath stroke
grestore
% a_47->a_46
gsave
2 setlinewidth
0.66667 1 1 edgecolor
newpath 1794.18 235.77 moveto
1819.24 234.56 1845.66 233.29 1871.23 232.06 curveto
stroke
2 setlinewidth
solid
0.66667 1 1 edgecolor
newpath 1871.53 235.55 moveto
1881.36 231.58 lineto
1871.2 228.56 lineto
closepath stroke
grestore
% a_47->a_50
gsave
3 setlinewidth
0 0 0 edgecolor
newpath 1794.18 249.04 moveto
1827.59 252.21 1863.42 255.99 1896.4 259.81 curveto
stroke
3 setlinewidth
solid
0 0 0 edgecolor
newpath 1896.2 263.31 moveto
1906.54 261 lineto
1897.02 256.36 lineto
closepath stroke
grestore
% b_40
gsave
0 0 0.82745 nodecolor
newpath 2149.64 123 moveto
1888.64 123 lineto
1888.64 87 lineto
2149.64 87 lineto
closepath fill
2 setlinewidth
filled
0 0 0.82745 nodecolor
newpath 2149.64 123 moveto
1888.64 123 lineto
1888.64 87 lineto
2149.64 87 lineto
closepath stroke
0 0 0 nodecolor
13 /Times-Roman set_font
1896.64 101.6 moveto 245 ( android.database.Cursor.getString[#20]\(#16\)) alignedtext
grestore
% a_47->b_40
gsave
2 setlinewidth
dashed
0 1 1 edgecolor
newpath 1742.03 223.98 moveto
1771.63 216.24 1805.42 206.36 1835.33 195 curveto
1885.63 175.89 1940.7 147.72 1977.11 128 curveto
stroke
2 setlinewidth
solid
0 1 1 edgecolor
newpath 1978.84 131.04 moveto
1985.95 123.18 lineto
1975.49 124.89 lineto
closepath stroke
grestore
% a_50->a_47
gsave
3 setlinewidth
0 0 0 edgecolor
newpath 1887.84 271.91 moveto
1854.69 268.74 1819.18 265 1786.46 261.21 curveto
stroke
3 setlinewidth
solid
0 0 0 edgecolor
newpath 1786.74 257.72 moveto
1776.4 260.04 lineto
1785.93 264.67 lineto
closepath stroke
grestore
% b_31
gsave
0 0 0.82745 nodecolor
newpath 2467.87 106 moveto
2205.87 106 lineto
2205.87 70 lineto
2467.87 70 lineto
closepath fill
2 setlinewidth
filled
0 0 0.82745 nodecolor
newpath 2467.87 106 moveto
2205.87 106 lineto
2205.87 70 lineto
2467.87 70 lineto
closepath stroke
0 0 0 nodecolor
13 /Times-Roman set_font
2213.87 84.6 moveto 246 ( android.database.Cursor.moveToNext[#20]\(\)) alignedtext
grestore
% a_50->b_31
gsave
2 setlinewidth
dashed
0 1 1 edgecolor
newpath 2150.29 268.97 moveto
2159.33 264.6 2167.71 259.03 2174.95 252 curveto
2219.53 208.7 2158.98 158.92 2202.95 115 curveto
2203.89 114.06 2204.85 113.16 2205.83 112.28 curveto
stroke
2 setlinewidth
solid
0 1 1 edgecolor
newpath 2208.06 114.98 moveto
2213.75 106.05 lineto
2203.73 109.48 lineto
closepath stroke
grestore
% b_10->b_21
gsave
2 setlinewidth
0.33333 1 1 edgecolor
newpath 861.7 46.88 moveto
891.03 50.57 921.44 55.2 949.7 61 curveto
1023.04 76.04 1105.14 102.03 1159.34 120.51 curveto
stroke
2 setlinewidth
solid
0.33333 1 1 edgecolor
newpath 1158.54 123.94 moveto
1169.13 123.87 lineto
1160.81 117.32 lineto
closepath stroke
grestore
% b_13->b_21
gsave
2 setlinewidth
0.33333 1 1 edgecolor
newpath 818.89 99.35 moveto
882.9 106.16 965.96 115 1039.86 122.86 curveto
stroke
2 setlinewidth
solid
0.33333 1 1 edgecolor
newpath 1039.91 126.39 moveto
1050.22 123.97 lineto
1040.65 119.43 lineto
closepath stroke
grestore
% b_16->b_40
gsave
2 setlinewidth
0.33333 1 1 edgecolor
newpath 1736.93 134.42 moveto
1777.76 130.15 1830.17 124.67 1878.65 119.59 curveto
stroke
2 setlinewidth
solid
0.33333 1 1 edgecolor
newpath 1879.03 123.07 moveto
1888.61 118.55 lineto
1878.3 116.11 lineto
closepath stroke
grestore
% b_19->b_21
gsave
2 setlinewidth
0.33333 1 1 edgecolor
newpath 714.24 123.67 moveto
747.08 -19.67 1165.07 -22.82 1214.86 114.21 curveto
stroke
2 setlinewidth
solid
0.33333 1 1 edgecolor
newpath 1211.52 115.27 moveto
1217.7 123.88 lineto
1218.24 113.3 lineto
closepath stroke
grestore
% b_19->b_21
gsave
2 setlinewidth
0.33333 1 1 edgecolor
newpath 714.69 123.95 moveto
750.4 -1.68 1158.84 -4.9 1213.63 114.3 curveto
stroke
2 setlinewidth
solid
0.33333 1 1 edgecolor
newpath 1210.42 115.71 moveto
1217.18 123.87 lineto
1216.98 113.27 lineto
closepath stroke
grestore
% b_19->b_21
gsave
2 setlinewidth
0.33333 1 1 edgecolor
newpath 715.44 123.91 moveto
755.34 16.24 1151.42 13.12 1211.95 114.55 curveto
stroke
2 setlinewidth
solid
0.33333 1 1 edgecolor
newpath 1208.87 116.21 moveto
1216.37 123.69 lineto
1215.17 113.16 lineto
closepath stroke
grestore
% b_19->b_21
gsave
2 setlinewidth
0.33333 1 1 edgecolor
newpath 716.58 123.85 moveto
761.87 33.93 1143.79 31.14 1209.95 115.49 curveto
stroke
2 setlinewidth
solid
0.33333 1 1 edgecolor
newpath 1207.01 117.39 moveto
1215.34 123.92 lineto
1212.9 113.61 lineto
closepath stroke
grestore
% b_19->b_21
gsave
2 setlinewidth
0.33333 1 1 edgecolor
newpath 718.43 123.84 moveto
770.46 51.71 1132.47 49.15 1206.49 116.16 curveto
stroke
2 setlinewidth
solid
0.33333 1 1 edgecolor
newpath 1204.09 118.72 moveto
1213.41 123.77 lineto
1209.27 114.01 lineto
closepath stroke
grestore
% b_19->b_21
gsave
2 setlinewidth
0.33333 1 1 edgecolor
newpath 721.88 123.7 moveto
783.5 69.11 1120.87 67.17 1202.1 117.88 curveto
stroke
2 setlinewidth
solid
0.33333 1 1 edgecolor
newpath 1200.2 120.83 moveto
1210.32 123.98 lineto
1204.37 115.21 lineto
closepath stroke
grestore
% b_19->b_21
gsave
2 setlinewidth
0.33333 1 1 edgecolor
newpath 727.94 124.17 moveto
800.59 86.46 1103.71 85 1194.13 119.81 curveto
stroke
2 setlinewidth
solid
0.33333 1 1 edgecolor
newpath 1192.81 123.05 moveto
1203.38 123.87 lineto
1195.63 116.64 lineto
closepath stroke
grestore
% b_19->b_21
gsave
2 setlinewidth
0.33333 1 1 edgecolor
newpath 743.56 124.66 moveto
830.47 103.74 1074.64 102.82 1175.38 121.9 curveto
stroke
2 setlinewidth
solid
0.33333 1 1 edgecolor
newpath 1174.74 125.34 moveto
1185.24 123.94 lineto
1176.15 118.49 lineto
closepath stroke
grestore
% b_19->b_21
gsave
2 setlinewidth
0.33333 1 1 edgecolor
newpath 780.11 127.68 moveto
855.89 121.51 980.62 120.16 1077.9 123.61 curveto
stroke
2 setlinewidth
solid
0.33333 1 1 edgecolor
newpath 1078 127.12 moveto
1088.12 124 lineto
1078.26 120.13 lineto
closepath stroke
grestore
% b_19->b_21
gsave
2 setlinewidth
0.33333 1 1 edgecolor
newpath 818.89 136.38 moveto
864.74 135.58 920.36 135.21 975.39 135.25 curveto
stroke
2 setlinewidth
solid
0.33333 1 1 edgecolor
newpath 975.65 138.75 moveto
985.66 135.27 lineto
975.66 131.75 lineto
closepath stroke
grestore
% b_19->b_21
gsave
2 setlinewidth
0.33333 1 1 edgecolor
newpath 818.89 147.62 moveto
864.74 148.42 920.36 148.79 975.39 148.75 curveto
stroke
2 setlinewidth
solid
0.33333 1 1 edgecolor
newpath 975.66 152.25 moveto
985.66 148.73 lineto
975.65 145.25 lineto
closepath stroke
grestore
% b_19->b_21
gsave
2 setlinewidth
0.33333 1 1 edgecolor
newpath 780.11 156.32 moveto
855.89 162.49 980.62 163.84 1077.9 160.39 curveto
stroke
2 setlinewidth
solid
0.33333 1 1 edgecolor
newpath 1078.26 163.87 moveto
1088.12 160 lineto
1078 156.88 lineto
closepath stroke
grestore
% b_19->b_21
gsave
2 setlinewidth
0.33333 1 1 edgecolor
newpath 743.56 159.34 moveto
830.47 180.26 1074.64 181.18 1175.38 162.1 curveto
stroke
2 setlinewidth
solid
0.33333 1 1 edgecolor
newpath 1176.15 165.51 moveto
1185.24 160.06 lineto
1174.74 158.66 lineto
closepath stroke
grestore
% b_19->b_21
gsave
2 setlinewidth
0.33333 1 1 edgecolor
newpath 727.94 159.83 moveto
800.59 197.54 1103.71 199 1194.13 164.19 curveto
stroke
2 setlinewidth
solid
0.33333 1 1 edgecolor
newpath 1195.63 167.36 moveto
1203.38 160.13 lineto
1192.81 160.95 lineto
closepath stroke
grestore
% b_19->b_21
gsave
2 setlinewidth
0.33333 1 1 edgecolor
newpath 721.88 160.3 moveto
783.5 214.89 1120.87 216.83 1202.1 166.12 curveto
stroke
2 setlinewidth
solid
0.33333 1 1 edgecolor
newpath 1204.37 168.79 moveto
1210.32 160.02 lineto
1200.2 163.17 lineto
closepath stroke
grestore
% b_19->b_21
gsave
2 setlinewidth
0.33333 1 1 edgecolor
newpath 718.43 160.16 moveto
770.46 232.29 1132.47 234.85 1206.49 167.84 curveto
stroke
2 setlinewidth
solid
0.33333 1 1 edgecolor
newpath 1209.27 169.99 moveto
1213.41 160.23 lineto
1204.09 165.28 lineto
closepath stroke
grestore
% b_19->b_21
gsave
2 setlinewidth
0.33333 1 1 edgecolor
newpath 716.58 160.15 moveto
761.87 250.07 1143.79 252.86 1209.95 168.51 curveto
stroke
2 setlinewidth
solid
0.33333 1 1 edgecolor
newpath 1212.9 170.39 moveto
1215.34 160.08 lineto
1207.01 166.61 lineto
closepath stroke
grestore
% b_19->b_21
gsave
2 setlinewidth
0.33333 1 1 edgecolor
newpath 715.44 160.09 moveto
755.34 267.76 1151.42 270.88 1211.95 169.45 curveto
stroke
2 setlinewidth
solid
0.33333 1 1 edgecolor
newpath 1215.17 170.84 moveto
1216.37 160.31 lineto
1208.87 167.79 lineto
closepath stroke
grestore
% b_19->b_21
gsave
2 setlinewidth
0.33333 1 1 edgecolor
newpath 714.69 160.05 moveto
750.4 285.68 1158.84 288.9 1213.63 169.7 curveto
stroke
2 setlinewidth
solid
0.33333 1 1 edgecolor
newpath 1216.98 170.73 moveto
1217.18 160.13 lineto
1210.42 168.29 lineto
closepath stroke
grestore
% b_19->b_21
gsave
2 setlinewidth
0.33333 1 1 edgecolor
newpath 714.24 160.33 moveto
747.08 303.67 1165.07 306.82 1214.86 169.79 curveto
stroke
2 setlinewidth
solid
0.33333 1 1 edgecolor
newpath 1218.24 170.7 moveto
1217.7 160.12 lineto
1211.52 168.73 lineto
closepath stroke
grestore
% b_20->b_40
gsave
2 setlinewidth
0.33333 1 1 edgecolor
newpath 1785.72 80.68 moveto
1815.45 83.79 1847.51 87.15 1878.05 90.34 curveto
stroke
2 setlinewidth
solid
0.33333 1 1 edgecolor
newpath 1878.03 93.86 moveto
1888.34 91.42 lineto
1878.76 86.9 lineto
closepath stroke
grestore
% b_20->b_31
gsave
2 setlinewidth
0.33333 1 1 edgecolor
newpath 1834.71 69.53 moveto
1933.98 70.87 2061.59 73.37 2174.95 78 curveto
2181.62 78.27 2188.45 78.58 2195.34 78.92 curveto
stroke
2 setlinewidth
solid
0.33333 1 1 edgecolor
newpath 2195.31 82.42 moveto
2205.47 79.43 lineto
2195.66 75.43 lineto
closepath stroke
grestore
% b_21->b_20
gsave
2 setlinewidth
0.66667 1 1 edgecolor
newpath 1328.97 123.99 moveto
1399.77 112.11 1491.95 96.63 1561.46 84.96 curveto
stroke
2 setlinewidth
solid
0.66667 1 1 edgecolor
newpath 1562.26 88.38 moveto
1571.54 83.27 lineto
1561.1 81.47 lineto
closepath stroke
grestore
% b_21->b_40
gsave
3 setlinewidth
0 0 0 edgecolor
newpath 1380.36 123.98 moveto
1416.88 120.43 1455.6 117.14 1491.7 115 curveto
1622.64 107.22 1772.19 105.02 1878.35 104.59 curveto
stroke
3 setlinewidth
solid
0 0 0 edgecolor
newpath 1878.5 108.09 moveto
1888.49 104.55 lineto
1878.48 101.09 lineto
closepath stroke
grestore
% b_21->b_31
gsave
3 setlinewidth
0 0 0 edgecolor
newpath 1257.63 123.79 moveto
1308.28 99.25 1404.28 56.81 1491.7 41 curveto
1759.18 -7.39 2081.41 38.82 2239.22 68.09 curveto
stroke
3 setlinewidth
solid
0 0 0 edgecolor
newpath 2238.9 71.59 moveto
2249.37 69.99 lineto
2240.19 64.71 lineto
closepath stroke
grestore
% b_40->b_4
gsave
2 setlinewidth
0.66667 1 1 edgecolor
newpath 2149.93 120.21 moveto
2174.89 123.14 2200.82 126.17 2225.12 129.02 curveto
stroke
2 setlinewidth
solid
0.66667 1 1 edgecolor
newpath 2224.72 132.5 moveto
2235.06 130.19 lineto
2225.53 125.55 lineto
closepath stroke
grestore
% b_40->b_31
gsave
3 setlinewidth
0 0 0 edgecolor
newpath 2149.93 91.36 moveto
2165.06 90.44 2180.56 89.58 2195.83 88.83 curveto
stroke
3 setlinewidth
solid
0 0 0 edgecolor
newpath 2196 92.32 moveto
2205.82 88.35 lineto
2195.66 85.33 lineto
closepath stroke
grestore
% b_31->b_40
gsave
3 setlinewidth
0 0 0 edgecolor
newpath 2205.82 101.66 moveto
2190.68 102.58 2175.18 103.43 2159.92 104.18 curveto
stroke
3 setlinewidth
solid
0 0 0 edgecolor
newpath 2159.75 100.69 moveto
2149.93 104.67 lineto
2160.08 107.68 lineto
closepath stroke
grestore
endpage
showpage
grestore
%%PageTrailer
%%EndPage: 1
%%Trailer
end
restore
%%EOF
