%!PS-Adobe-3.0 EPSF-3.0
%%Creator: graphviz version 2.38.0 (20140413.2041)
%%Title: cfg
%%Pages: 1
%%BoundingBox: 36 36 1148 1265
%%EndComments
save
%%BeginProlog
/DotDict 200 dict def
DotDict begin

/setupLatin1 {
mark
/EncodingVector 256 array def
 EncodingVector 0

ISOLatin1Encoding 0 255 getinterval putinterval
EncodingVector 45 /hyphen put

% Set up ISO Latin 1 character encoding
/starnetISO {
        dup dup findfont dup length dict begin
        { 1 index /FID ne { def }{ pop pop } ifelse
        } forall
        /Encoding EncodingVector def
        currentdict end definefont
} def
/Times-Roman starnetISO def
/Times-Italic starnetISO def
/Times-Bold starnetISO def
/Times-BoldItalic starnetISO def
/Helvetica starnetISO def
/Helvetica-Oblique starnetISO def
/Helvetica-Bold starnetISO def
/Helvetica-BoldOblique starnetISO def
/Courier starnetISO def
/Courier-Oblique starnetISO def
/Courier-Bold starnetISO def
/Courier-BoldOblique starnetISO def
cleartomark
} bind def

%%BeginResource: procset graphviz 0 0
/coord-font-family /Times-Roman def
/default-font-family /Times-Roman def
/coordfont coord-font-family findfont 8 scalefont def

/InvScaleFactor 1.0 def
/set_scale {
       dup 1 exch div /InvScaleFactor exch def
       scale
} bind def

% styles
/solid { [] 0 setdash } bind def
/dashed { [9 InvScaleFactor mul dup ] 0 setdash } bind def
/dotted { [1 InvScaleFactor mul 6 InvScaleFactor mul] 0 setdash } bind def
/invis {/fill {newpath} def /stroke {newpath} def /show {pop newpath} def} bind def
/bold { 2 setlinewidth } bind def
/filled { } bind def
/unfilled { } bind def
/rounded { } bind def
/diagonals { } bind def
/tapered { } bind def

% hooks for setting color 
/nodecolor { sethsbcolor } bind def
/edgecolor { sethsbcolor } bind def
/graphcolor { sethsbcolor } bind def
/nopcolor {pop pop pop} bind def

/beginpage {	% i j npages
	/npages exch def
	/j exch def
	/i exch def
	/str 10 string def
	npages 1 gt {
		gsave
			coordfont setfont
			0 0 moveto
			(\() show i str cvs show (,) show j str cvs show (\)) show
		grestore
	} if
} bind def

/set_font {
	findfont exch
	scalefont setfont
} def

% draw text fitted to its expected width
/alignedtext {			% width text
	/text exch def
	/width exch def
	gsave
		width 0 gt {
			[] 0 setdash
			text stringwidth pop width exch sub text length div 0 text ashow
		} if
	grestore
} def

/boxprim {				% xcorner ycorner xsize ysize
		4 2 roll
		moveto
		2 copy
		exch 0 rlineto
		0 exch rlineto
		pop neg 0 rlineto
		closepath
} bind def

/ellipse_path {
	/ry exch def
	/rx exch def
	/y exch def
	/x exch def
	matrix currentmatrix
	newpath
	x y translate
	rx ry scale
	0 0 1 0 360 arc
	setmatrix
} bind def

/endpage { showpage } bind def
/showpage { } def

/layercolorseq
	[	% layer color sequence - darkest to lightest
		[0 0 0]
		[.2 .8 .8]
		[.4 .8 .8]
		[.6 .8 .8]
		[.8 .8 .8]
	]
def

/layerlen layercolorseq length def

/setlayer {/maxlayer exch def /curlayer exch def
	layercolorseq curlayer 1 sub layerlen mod get
	aload pop sethsbcolor
	/nodecolor {nopcolor} def
	/edgecolor {nopcolor} def
	/graphcolor {nopcolor} def
} bind def

/onlayer { curlayer ne {invis} if } def

/onlayers {
	/myupper exch def
	/mylower exch def
	curlayer mylower lt
	curlayer myupper gt
	or
	{invis} if
} def

/curlayer 0 def

%%EndResource
%%EndProlog
%%BeginSetup
14 default-font-family set_font
1 setmiterlimit
% /arrowlength 10 def
% /arrowwidth 5 def

% make sure pdfmark is harmless for PS-interpreters other than Distiller
/pdfmark where {pop} {userdict /pdfmark /cleartomark load put} ifelse
% make '<<' and '>>' safe on PS Level 1 devices
/languagelevel where {pop languagelevel}{1} ifelse
2 lt {
    userdict (<<) cvn ([) cvn load put
    userdict (>>) cvn ([) cvn load put
} if

%%EndSetup
setupLatin1
%%Page: 1 1
%%PageBoundingBox: 36 36 1148 1265
%%PageOrientation: Portrait
0 0 1 beginpage
gsave
36 36 1112 1229 boxprim clip newpath
1 1 set_scale 0 rotate 40 40 translate
0 0 0 graphcolor
14 /Times-Roman set_font
364.91 7.8 moveto 374 (ru.yandex.money.android.sample.storage.DatabaseHelper.getValues) alignedtext
% 0
gsave
1 setlinewidth
0 0 0 nodecolor
newpath 504.49 1221 moveto
450.49 1221 lineto
450.49 1185 lineto
504.49 1185 lineto
closepath stroke
0 0 0 nodecolor
14 /Times-Roman set_font
465.99 1199.3 moveto 23 (\(#0\)) alignedtext
grestore
% 2
gsave
1 setlinewidth
0 0 0 nodecolor
newpath 504.49 1149 moveto
450.49 1149 lineto
450.49 1113 lineto
504.49 1113 lineto
closepath stroke
0 0 0 nodecolor
14 /Times-Roman set_font
465.99 1127.3 moveto 23 (\(#2\)) alignedtext
grestore
% 0->2
gsave
1 setlinewidth
0 0 0 edgecolor
newpath 477.49 1184.7 moveto
477.49 1176.98 477.49 1167.71 477.49 1159.11 curveto
stroke
0 0 0 edgecolor
newpath 480.99 1159.1 moveto
477.49 1149.1 lineto
473.99 1159.1 lineto
closepath fill
1 setlinewidth
solid
0 0 0 edgecolor
newpath 480.99 1159.1 moveto
477.49 1149.1 lineto
473.99 1159.1 lineto
closepath stroke
grestore
% 34
gsave
1 setlinewidth
0 0 0 nodecolor
newpath 447.99 279 moveto
330.99 279 lineto
330.99 241 lineto
447.99 241 lineto
closepath stroke
0 0 0 nodecolor
14 /Times-Roman set_font
360.49 263.8 moveto 58 (EQ\(0,$z0\)) alignedtext
0 0 0 nodecolor
14 /Times-Roman set_font
338.99 248.8 moveto 101 (\(#34\)\(\(#16\),\(#30\)\)) alignedtext
grestore
% 44
gsave
1 setlinewidth
0 0 0 nodecolor
newpath 378.99 205 moveto
151.99 205 lineto
151.99 167 lineto
378.99 167 lineto
closepath stroke
0 0 0 nodecolor
14 /Times-Roman set_font
159.99 189.8 moveto 211 (cursor.android.database.Cursor.close\(\)) alignedtext
0 0 0 nodecolor
14 /Times-Roman set_font
229.49 174.8 moveto 72 (\(#20\).\(#44\)\(\)) alignedtext
grestore
% 34->44
gsave
1 setlinewidth
0 0 0 edgecolor
newpath 358.2 240.83 moveto
342.19 231.54 322.53 220.12 305.44 210.2 curveto
stroke
0 0 0 edgecolor
newpath 307.18 207.16 moveto
296.77 205.16 lineto
303.66 213.21 lineto
closepath fill
1 setlinewidth
solid
0 0 0 edgecolor
newpath 307.18 207.16 moveto
296.77 205.16 lineto
303.66 213.21 lineto
closepath stroke
grestore
% 46
gsave
1 setlinewidth
0 0 0 nodecolor
newpath 292.49 59 moveto
238.49 59 lineto
238.49 23 lineto
292.49 23 lineto
closepath stroke
0 0 0 nodecolor
14 /Times-Roman set_font
250.49 37.3 moveto 30 (\(#46\)) alignedtext
grestore
% 45
gsave
1 setlinewidth
0 0 0 nodecolor
newpath 292.49 131 moveto
238.49 131 lineto
238.49 95 lineto
292.49 95 lineto
closepath stroke
0 0 0 nodecolor
14 /Times-Roman set_font
250.49 109.3 moveto 30 (\(#45\)) alignedtext
grestore
% 44->45
gsave
1 setlinewidth
0 0 0 edgecolor
newpath 265.49 166.72 moveto
265.49 158.97 265.49 149.79 265.49 141.27 curveto
stroke
0 0 0 edgecolor
newpath 268.99 141 moveto
265.49 131 lineto
261.99 141 lineto
closepath fill
1 setlinewidth
solid
0 0 0 edgecolor
newpath 268.99 141 moveto
265.49 131 lineto
261.99 141 lineto
closepath stroke
grestore
% 45->46
gsave
1 setlinewidth
0 0 0 edgecolor
newpath 265.49 94.7 moveto
265.49 86.98 265.49 77.71 265.49 69.11 curveto
stroke
0 0 0 edgecolor
newpath 268.99 69.1 moveto
265.49 59.1 lineto
261.99 69.1 lineto
closepath fill
1 setlinewidth
solid
0 0 0 edgecolor
newpath 268.99 69.1 moveto
265.49 59.1 lineto
261.99 69.1 lineto
closepath stroke
grestore
% 21
gsave
1 setlinewidth
0 0 0 nodecolor
newpath 722.99 643 moveto
231.99 643 lineto
231.99 605 lineto
722.99 605 lineto
closepath stroke
0 0 0 nodecolor
14 /Times-Roman set_font
239.99 627.8 moveto 475 ($r1.android.database.sqlite.SQLiteDatabase.query\(column,null,null,null,null,$r2,table\)) alignedtext
0 0 0 nodecolor
14 /Times-Roman set_font
334.49 612.8 moveto 286 (\(#10\).\(#21\)\(\(#7\),\(#19\),\(#19\),\(#19\),\(#19\),\(#13\),\(#4\)\)) alignedtext
grestore
% 31
gsave
1 setlinewidth
0 0 0 nodecolor
newpath 612.99 497 moveto
341.99 497 lineto
341.99 459 lineto
612.99 459 lineto
closepath stroke
0 0 0 nodecolor
14 /Times-Roman set_font
349.99 481.8 moveto 255 (cursor.android.database.Cursor.moveToNext\(\)) alignedtext
0 0 0 nodecolor
14 /Times-Roman set_font
441.49 466.8 moveto 72 (\(#20\).\(#31\)\(\)) alignedtext
grestore
% 21->31
gsave
1 setlinewidth
0 0 0 edgecolor
newpath 477.49 604.76 moveto
477.49 580.2 477.49 536.25 477.49 507.35 curveto
stroke
0 0 0 edgecolor
newpath 480.99 507.09 moveto
477.49 497.09 lineto
473.99 507.09 lineto
closepath fill
1 setlinewidth
solid
0 0 0 edgecolor
newpath 480.99 507.09 moveto
477.49 497.09 lineto
473.99 507.09 lineto
closepath stroke
grestore
% 20
gsave
1 setlinewidth
dashed
0 0 0 nodecolor
300.49 551 149.47 18 ellipse_path stroke
0 0 0 nodecolor
14 /Times-Roman set_font
193.49 547.3 moveto 214 (cursor : android.database.Cursor \(# 20\)) alignedtext
grestore
% 21->20
gsave
1 setlinewidth
0.66667 1 1 edgecolor
newpath 432.37 604.9 moveto
407.48 594.92 376.52 582.5 350.85 572.2 curveto
stroke
0.66667 1 1 edgecolor
newpath 351.88 568.84 moveto
341.29 568.37 lineto
349.27 575.34 lineto
closepath fill
1 setlinewidth
solid
0.66667 1 1 edgecolor
newpath 351.88 568.84 moveto
341.29 568.37 lineto
349.27 575.34 lineto
closepath stroke
grestore
% 37
gsave
1 setlinewidth
0 0 0 nodecolor
newpath 582.99 279 moveto
465.99 279 lineto
465.99 241 lineto
582.99 241 lineto
closepath stroke
0 0 0 nodecolor
14 /Times-Roman set_font
490.99 263.8 moveto 67 (NEQ\(0,$z0\)) alignedtext
0 0 0 nodecolor
14 /Times-Roman set_font
473.99 248.8 moveto 101 (\(#37\)\(\(#16\),\(#30\)\)) alignedtext
grestore
% 40
gsave
1 setlinewidth
0 0 0 nodecolor
newpath 651.99 205 moveto
396.99 205 lineto
396.99 167 lineto
651.99 167 lineto
closepath stroke
0 0 0 nodecolor
14 /Times-Roman set_font
404.99 189.8 moveto 239 (cursor.android.database.Cursor.getString\(0\)) alignedtext
0 0 0 nodecolor
14 /Times-Roman set_font
473.99 174.8 moveto 101 (\(#20\).\(#40\)\(\(#16\)\)) alignedtext
grestore
% 37->40
gsave
1 setlinewidth
0 0 0 edgecolor
newpath 524.49 240.83 moveto
524.49 233.13 524.49 223.97 524.49 215.42 curveto
stroke
0 0 0 edgecolor
newpath 527.99 215.41 moveto
524.49 205.41 lineto
520.99 215.41 lineto
closepath fill
1 setlinewidth
solid
0 0 0 edgecolor
newpath 527.99 215.41 moveto
524.49 205.41 lineto
520.99 215.41 lineto
closepath stroke
grestore
% 33
gsave
1 setlinewidth
0 0 0 nodecolor
newpath 446.49 351 moveto
392.49 351 lineto
392.49 315 lineto
446.49 315 lineto
closepath stroke
0 0 0 nodecolor
14 /Times-Roman set_font
404.49 329.3 moveto 30 (\(#33\)) alignedtext
grestore
% 31->33
gsave
1 setlinewidth
0 0 0 edgecolor
newpath 461.33 458.7 moveto
453.34 448.76 444.22 435.89 438.49 423 curveto
429.74 403.3 424.92 379.31 422.33 361.21 curveto
stroke
0 0 0 edgecolor
newpath 425.77 360.52 moveto
421.01 351.05 lineto
418.82 361.41 lineto
closepath fill
1 setlinewidth
solid
0 0 0 edgecolor
newpath 425.77 360.52 moveto
421.01 351.05 lineto
418.82 361.41 lineto
closepath stroke
grestore
% 30
gsave
1 setlinewidth
dashed
0 0 0 nodecolor
530.49 405 82.59 18 ellipse_path stroke
0 0 0 nodecolor
14 /Times-Roman set_font
474.99 401.3 moveto 111 ($z0 : boolean \(# 30\)) alignedtext
grestore
% 31->30
gsave
1 setlinewidth
0.66667 1 1 edgecolor
newpath 491.14 458.72 moveto
497.43 450.29 505 440.15 511.81 431.02 curveto
stroke
0.66667 1 1 edgecolor
newpath 514.62 433.11 moveto
517.8 423 lineto
509.01 428.92 lineto
closepath fill
1 setlinewidth
solid
0.66667 1 1 edgecolor
newpath 514.62 433.11 moveto
517.8 423 lineto
509.01 428.92 lineto
closepath stroke
grestore
% 33->34
gsave
1 setlinewidth
0 0 0 edgecolor
newpath 412.23 314.81 moveto
408.87 306.86 404.79 297.21 401.02 288.29 curveto
stroke
0 0 0 edgecolor
newpath 404.22 286.87 moveto
397.1 279.02 lineto
397.77 289.59 lineto
closepath fill
1 setlinewidth
solid
0 0 0 edgecolor
newpath 404.22 286.87 moveto
397.1 279.02 lineto
397.77 289.59 lineto
closepath stroke
grestore
% 33->37
gsave
1 setlinewidth
0 0 0 edgecolor
newpath 444.64 314.99 moveto
458.03 305.94 474.71 294.66 489.36 284.75 curveto
stroke
0 0 0 edgecolor
newpath 491.39 287.61 moveto
497.71 279.11 lineto
487.47 281.81 lineto
closepath fill
1 setlinewidth
solid
0 0 0 edgecolor
newpath 491.39 287.61 moveto
497.71 279.11 lineto
487.47 281.81 lineto
closepath stroke
grestore
% 43
gsave
1 setlinewidth
0 0 0 nodecolor
newpath 629.49 131 moveto
575.49 131 lineto
575.49 95 lineto
629.49 95 lineto
closepath stroke
0 0 0 nodecolor
14 /Times-Roman set_font
587.49 109.3 moveto 30 (\(#43\)) alignedtext
grestore
% 43->31
gsave
1 setlinewidth
0 0 0 edgecolor
newpath 627.59 131.2 moveto
639.29 140.49 652.39 152.93 660.49 167 curveto
681.36 203.27 680.49 217.16 680.49 259 curveto
680.49 334 680.49 334 680.49 334 curveto
680.49 397.17 613.99 434.87 557.11 455.57 curveto
stroke
0 0 0 edgecolor
newpath 555.63 452.38 moveto
547.35 458.99 lineto
557.95 458.98 lineto
closepath fill
1 setlinewidth
solid
0 0 0 edgecolor
newpath 555.63 452.38 moveto
547.35 458.99 lineto
557.95 458.98 lineto
closepath stroke
grestore
% 40->43
gsave
1 setlinewidth
0 0 0 edgecolor
newpath 544.58 166.72 moveto
554.22 157.94 565.89 147.31 576.22 137.91 curveto
stroke
0 0 0 edgecolor
newpath 578.77 140.32 moveto
583.81 131 lineto
574.06 135.15 lineto
closepath fill
1 setlinewidth
solid
0 0 0 edgecolor
newpath 578.77 140.32 moveto
583.81 131 lineto
574.06 135.15 lineto
closepath stroke
grestore
% 4
gsave
1 setlinewidth
dashed
0 0 0 nodecolor
110.49 113 110.48 18 ellipse_path stroke
0 0 0 nodecolor
14 /Times-Roman set_font
33.49 109.3 moveto 154 (table : java.lang.String \(# 4\)) alignedtext
grestore
% 40->4
gsave
1 setlinewidth
0.66667 1 1 edgecolor
newpath 419.49 166.99 moveto
349.56 155 258.94 139.46 193.95 128.31 curveto
stroke
0.66667 1 1 edgecolor
newpath 194.19 124.8 moveto
183.74 126.56 lineto
193.01 131.7 lineto
closepath fill
1 setlinewidth
solid
0.66667 1 1 edgecolor
newpath 194.19 124.8 moveto
183.74 126.56 lineto
193.01 131.7 lineto
closepath stroke
grestore
% 8
gsave
1 setlinewidth
0 0 0 nodecolor
newpath 504.49 1005 moveto
450.49 1005 lineto
450.49 969 lineto
504.49 969 lineto
closepath stroke
0 0 0 nodecolor
14 /Times-Roman set_font
465.99 983.3 moveto 23 (\(#8\)) alignedtext
grestore
% 11
gsave
1 setlinewidth
0 0 0 nodecolor
newpath 678.49 933 moveto
276.49 933 lineto
276.49 895 lineto
678.49 895 lineto
closepath stroke
0 0 0 nodecolor
14 /Times-Roman set_font
284.49 917.8 moveto 386 (this.android.database.sqlite.SQLiteOpenHelper.getReadableDatabase\(\)) alignedtext
0 0 0 nodecolor
14 /Times-Roman set_font
444.99 902.8 moveto 65 (\(#1\).\(#11\)\(\)) alignedtext
grestore
% 8->11
gsave
1 setlinewidth
0 0 0 edgecolor
newpath 477.49 968.81 moveto
477.49 961.11 477.49 951.82 477.49 943.15 curveto
stroke
0 0 0 edgecolor
newpath 480.99 943.02 moveto
477.49 933.02 lineto
473.99 943.02 lineto
closepath fill
1 setlinewidth
solid
0 0 0 edgecolor
newpath 480.99 943.02 moveto
477.49 933.02 lineto
473.99 943.02 lineto
closepath stroke
grestore
% 7
gsave
1 setlinewidth
dashed
0 0 0 nodecolor
312.49 841 120.48 18 ellipse_path stroke
0 0 0 nodecolor
14 /Times-Roman set_font
227.99 837.3 moveto 169 (column : java.lang.String \(# 7\)) alignedtext
grestore
% 8->7
gsave
1 setlinewidth
0.66667 1 1 edgecolor
newpath 450.45 983.24 moveto
398.95 977.37 289.9 961.77 267.49 933 curveto
251.52 912.5 268.87 885.43 286.46 866.16 curveto
stroke
0.66667 1 1 edgecolor
newpath 289 868.57 moveto
293.4 858.93 lineto
283.95 863.72 lineto
closepath fill
1 setlinewidth
solid
0.66667 1 1 edgecolor
newpath 289 868.57 moveto
293.4 858.93 lineto
283.95 863.72 lineto
closepath stroke
grestore
% 14
gsave
1 setlinewidth
0 0 0 nodecolor
newpath 504.49 859 moveto
450.49 859 lineto
450.49 823 lineto
504.49 823 lineto
closepath stroke
0 0 0 nodecolor
14 /Times-Roman set_font
462.49 837.3 moveto 30 (\(#14\)) alignedtext
grestore
% 17
gsave
1 setlinewidth
0 0 0 nodecolor
newpath 504.49 787 moveto
450.49 787 lineto
450.49 751 lineto
504.49 751 lineto
closepath stroke
0 0 0 nodecolor
14 /Times-Roman set_font
462.49 765.3 moveto 30 (\(#17\)) alignedtext
grestore
% 14->17
gsave
1 setlinewidth
0 0 0 edgecolor
newpath 477.49 822.7 moveto
477.49 814.98 477.49 805.71 477.49 797.11 curveto
stroke
0 0 0 edgecolor
newpath 480.99 797.1 moveto
477.49 787.1 lineto
473.99 797.1 lineto
closepath fill
1 setlinewidth
solid
0 0 0 edgecolor
newpath 480.99 797.1 moveto
477.49 787.1 lineto
473.99 797.1 lineto
closepath stroke
grestore
% 13
gsave
1 setlinewidth
dashed
0 0 0 nodecolor
817.49 697 115.88 18 ellipse_path stroke
0 0 0 nodecolor
14 /Times-Roman set_font
736.49 693.3 moveto 162 ($r2 : java.lang.String[] \(# 13\)) alignedtext
grestore
% 14->13
gsave
1 setlinewidth
0.66667 1 1 edgecolor
newpath 504.74 828.62 moveto
562.42 804.53 697.5 748.12 769.81 717.91 curveto
stroke
0.66667 1 1 edgecolor
newpath 771.28 721.09 moveto
779.16 714.01 lineto
768.58 714.63 lineto
closepath fill
1 setlinewidth
solid
0.66667 1 1 edgecolor
newpath 771.28 721.09 moveto
779.16 714.01 lineto
768.58 714.63 lineto
closepath stroke
grestore
% 17->21
gsave
1 setlinewidth
0 0 0 edgecolor
newpath 477.49 750.75 moveto
477.49 726.64 477.49 682.57 477.49 653.53 curveto
stroke
0 0 0 edgecolor
newpath 480.99 653.21 moveto
477.49 643.21 lineto
473.99 653.21 lineto
closepath fill
1 setlinewidth
solid
0 0 0 edgecolor
newpath 480.99 653.21 moveto
477.49 643.21 lineto
473.99 653.21 lineto
closepath stroke
grestore
% 17->13
gsave
1 setlinewidth
0.66667 1 1 edgecolor
newpath 504.75 761.54 moveto
554.75 750.66 662.42 728.38 737.41 713.32 curveto
stroke
0.66667 1 1 edgecolor
newpath 738.19 716.73 moveto
747.3 711.33 lineto
736.81 709.87 lineto
closepath fill
1 setlinewidth
solid
0.66667 1 1 edgecolor
newpath 738.19 716.73 moveto
747.3 711.33 lineto
736.81 709.87 lineto
closepath stroke
grestore
% 11->14
gsave
1 setlinewidth
0 0 0 edgecolor
newpath 477.49 894.72 moveto
477.49 886.97 477.49 877.79 477.49 869.27 curveto
stroke
0 0 0 edgecolor
newpath 480.99 869 moveto
477.49 859 lineto
473.99 869 lineto
closepath fill
1 setlinewidth
solid
0 0 0 edgecolor
newpath 480.99 869 moveto
477.49 859 lineto
473.99 869 lineto
closepath stroke
grestore
% 10
gsave
1 setlinewidth
dashed
0 0 0 nodecolor
909.49 769 194.17 18 ellipse_path stroke
0 0 0 nodecolor
14 /Times-Roman set_font
767.99 765.3 moveto 283 ($r1 : android.database.sqlite.SQLiteDatabase \(# 10\)) alignedtext
grestore
% 11->10
gsave
1 setlinewidth
0.66667 1 1 edgecolor
newpath 532.2 894.89 moveto
613.66 867.92 766.23 817.42 850.24 789.61 curveto
stroke
0.66667 1 1 edgecolor
newpath 851.5 792.88 moveto
859.89 786.42 lineto
849.3 786.24 lineto
closepath fill
1 setlinewidth
solid
0.66667 1 1 edgecolor
newpath 851.5 792.88 moveto
859.89 786.42 lineto
849.3 786.24 lineto
closepath stroke
grestore
% 5
gsave
1 setlinewidth
0 0 0 nodecolor
newpath 504.49 1077 moveto
450.49 1077 lineto
450.49 1041 lineto
504.49 1041 lineto
closepath stroke
0 0 0 nodecolor
14 /Times-Roman set_font
465.99 1055.3 moveto 23 (\(#5\)) alignedtext
grestore
% 2->5
gsave
1 setlinewidth
0 0 0 edgecolor
newpath 477.49 1112.7 moveto
477.49 1104.98 477.49 1095.71 477.49 1087.11 curveto
stroke
0 0 0 edgecolor
newpath 480.99 1087.1 moveto
477.49 1077.1 lineto
473.99 1087.1 lineto
closepath fill
1 setlinewidth
solid
0 0 0 edgecolor
newpath 480.99 1087.1 moveto
477.49 1077.1 lineto
473.99 1087.1 lineto
closepath stroke
grestore
% 1
gsave
1 setlinewidth
dashed
0 0 0 nodecolor
777.49 987 255.35 18 ellipse_path stroke
0 0 0 nodecolor
14 /Times-Roman set_font
588.99 983.3 moveto 377 (this : ru.yandex.money.android.sample.storage.DatabaseHelper \(# 1\)) alignedtext
grestore
% 2->1
gsave
1 setlinewidth
0.66667 1 1 edgecolor
newpath 504.64 1117.15 moveto
556.36 1092.67 669.47 1039.13 732.61 1009.24 curveto
stroke
0.66667 1 1 edgecolor
newpath 734.39 1012.28 moveto
741.93 1004.83 lineto
731.39 1005.95 lineto
closepath fill
1 setlinewidth
solid
0.66667 1 1 edgecolor
newpath 734.39 1012.28 moveto
741.93 1004.83 lineto
731.39 1005.95 lineto
closepath stroke
grestore
% 5->8
gsave
1 setlinewidth
0 0 0 edgecolor
newpath 477.49 1040.7 moveto
477.49 1032.98 477.49 1023.71 477.49 1015.11 curveto
stroke
0 0 0 edgecolor
newpath 480.99 1015.1 moveto
477.49 1005.1 lineto
473.99 1015.1 lineto
closepath fill
1 setlinewidth
solid
0 0 0 edgecolor
newpath 480.99 1015.1 moveto
477.49 1005.1 lineto
473.99 1015.1 lineto
closepath stroke
grestore
% 5->4
gsave
1 setlinewidth
0.66667 1 1 edgecolor
newpath 450.24 1054.12 moveto
361.34 1040.7 85.49 992.79 85.49 915 curveto
85.49 915 85.49 915 85.49 259 curveto
85.49 217.37 95.62 169.97 102.99 141.03 curveto
stroke
0.66667 1 1 edgecolor
newpath 106.4 141.8 moveto
105.55 131.24 lineto
99.63 140.03 lineto
closepath fill
1 setlinewidth
solid
0.66667 1 1 edgecolor
newpath 106.4 141.8 moveto
105.55 131.24 lineto
99.63 140.03 lineto
closepath stroke
grestore
% 20->44
gsave
1 setlinewidth
0 1 1 edgecolor
newpath 293.21 532.62 moveto
282.69 505.9 264.49 452.9 264.49 406 curveto
264.49 406 264.49 406 264.49 332 curveto
264.49 291.6 264.88 244.86 265.18 215.61 curveto
stroke
0 1 1 edgecolor
newpath 268.68 215.35 moveto
265.28 205.31 lineto
261.68 215.27 lineto
closepath fill
1 setlinewidth
solid
0 1 1 edgecolor
newpath 268.68 215.35 moveto
265.28 205.31 lineto
261.68 215.27 lineto
closepath stroke
grestore
% 20->31
gsave
1 setlinewidth
0 1 1 edgecolor
newpath 341.54 533.53 moveto
365.74 523.83 396.65 511.43 422.88 500.91 curveto
stroke
0 1 1 edgecolor
newpath 424.33 504.09 moveto
432.31 497.12 lineto
421.73 497.6 lineto
closepath fill
1 setlinewidth
solid
0 1 1 edgecolor
newpath 424.33 504.09 moveto
432.31 497.12 lineto
421.73 497.6 lineto
closepath stroke
grestore
% 20->40
gsave
1 setlinewidth
0 1 1 edgecolor
newpath 300.89 532.71 moveto
301.47 505.68 302.49 451.75 302.49 406 curveto
302.49 406 302.49 406 302.49 332 curveto
302.49 290.68 293.08 271 321.49 241 curveto
334.35 227.42 369.5 216.05 407.01 207.31 curveto
stroke
0 1 1 edgecolor
newpath 408.13 210.64 moveto
417.11 205.02 lineto
406.59 203.81 lineto
closepath fill
1 setlinewidth
solid
0 1 1 edgecolor
newpath 408.13 210.64 moveto
417.11 205.02 lineto
406.59 203.81 lineto
closepath stroke
grestore
% 13->21
gsave
1 setlinewidth
0 1 1 edgecolor
newpath 751.13 682.14 moveto
700.72 671.62 630.65 656.98 574.04 645.16 curveto
stroke
0 1 1 edgecolor
newpath 574.5 641.68 moveto
564 643.06 lineto
573.07 648.53 lineto
closepath fill
1 setlinewidth
solid
0 1 1 edgecolor
newpath 574.5 641.68 moveto
564 643.06 lineto
573.07 648.53 lineto
closepath stroke
grestore
% 13->17
gsave
1 setlinewidth
0 1 1 edgecolor
newpath 754.38 712.13 moveto
683.91 727.05 572.32 749.93 514.62 761.22 curveto
stroke
0 1 1 edgecolor
newpath 513.64 757.84 moveto
504.49 763.19 lineto
514.98 764.72 lineto
closepath fill
1 setlinewidth
solid
0 1 1 edgecolor
newpath 513.64 757.84 moveto
504.49 763.19 lineto
514.98 764.72 lineto
closepath stroke
grestore
% 4->21
gsave
1 setlinewidth
0 1 1 edgecolor
newpath 113.06 131.36 moveto
116.85 158.53 123.49 212.75 123.49 259 curveto
123.49 479 123.49 479 123.49 479 curveto
123.49 519.88 112.89 540.8 142.49 569 curveto
158.56 584.32 194.22 595.3 236.52 603.16 curveto
stroke
0 1 1 edgecolor
newpath 236.07 606.64 moveto
246.53 604.94 lineto
237.29 599.74 lineto
closepath fill
1 setlinewidth
solid
0 1 1 edgecolor
newpath 236.07 606.64 moveto
246.53 604.94 lineto
237.29 599.74 lineto
closepath stroke
grestore
% 16
gsave
1 setlinewidth
dashed
0 0 0 nodecolor
558.49 333 55.79 18 ellipse_path stroke
0 0 0 nodecolor
14 /Times-Roman set_font
523.49 329.3 moveto 70 (0 : int \(# 16\)) alignedtext
grestore
% 16->34
gsave
1 setlinewidth
0 1 1 edgecolor
newpath 525.91 318.31 moveto
502.14 308.33 469.43 294.58 441.99 283.06 curveto
stroke
0 1 1 edgecolor
newpath 443.11 279.73 moveto
432.53 279.08 lineto
440.4 286.18 lineto
closepath fill
1 setlinewidth
solid
0 1 1 edgecolor
newpath 443.11 279.73 moveto
432.53 279.08 lineto
440.4 286.18 lineto
closepath stroke
grestore
% 16->37
gsave
1 setlinewidth
0 1 1 edgecolor
newpath 550.43 315.17 moveto
546.59 307.14 541.88 297.32 537.54 288.26 curveto
stroke
0 1 1 edgecolor
newpath 540.68 286.71 moveto
533.2 279.2 lineto
534.37 289.73 lineto
closepath fill
1 setlinewidth
solid
0 1 1 edgecolor
newpath 540.68 286.71 moveto
533.2 279.2 lineto
534.37 289.73 lineto
closepath stroke
grestore
% 16->40
gsave
1 setlinewidth
0 1 1 edgecolor
newpath 572.32 315.5 moveto
586.08 296.96 603.53 266.17 591.49 241 curveto
585.89 229.3 576.39 219.33 566.27 211.26 curveto
stroke
0 1 1 edgecolor
newpath 568.21 208.33 moveto
558.09 205.19 lineto
564.04 213.96 lineto
closepath fill
1 setlinewidth
solid
0 1 1 edgecolor
newpath 568.21 208.33 moveto
558.09 205.19 lineto
564.04 213.96 lineto
closepath stroke
grestore
% 7->21
gsave
1 setlinewidth
0 1 1 edgecolor
newpath 325.71 822.77 moveto
354.52 785.23 423.11 695.86 457.34 651.26 curveto
stroke
0 1 1 edgecolor
newpath 460.19 653.29 moveto
463.51 643.22 lineto
454.64 649.02 lineto
closepath fill
1 setlinewidth
solid
0 1 1 edgecolor
newpath 460.19 653.29 moveto
463.51 643.22 lineto
454.64 649.02 lineto
closepath stroke
grestore
% 7->17
gsave
1 setlinewidth
0 1 1 edgecolor
newpath 350.76 823.76 moveto
377.89 812.25 414.09 796.9 440.85 785.55 curveto
stroke
0 1 1 edgecolor
newpath 442.4 788.69 moveto
450.24 781.56 lineto
439.67 782.24 lineto
closepath fill
1 setlinewidth
solid
0 1 1 edgecolor
newpath 442.4 788.69 moveto
450.24 781.56 lineto
439.67 782.24 lineto
closepath stroke
grestore
% 10->21
gsave
1 setlinewidth
0 1 1 edgecolor
newpath 925.03 751.01 moveto
940.94 731.54 960.9 699.67 942.49 679 curveto
927.06 661.67 832.86 649.06 733.25 640.4 curveto
stroke
0 1 1 edgecolor
newpath 733.54 636.91 moveto
723.28 639.55 lineto
732.95 643.89 lineto
closepath fill
1 setlinewidth
solid
0 1 1 edgecolor
newpath 733.54 636.91 moveto
723.28 639.55 lineto
732.95 643.89 lineto
closepath stroke
grestore
% 1->11
gsave
1 setlinewidth
0 1 1 edgecolor
newpath 708.29 969.62 moveto
665.24 959.43 609.55 946.25 563.65 935.39 curveto
stroke
0 1 1 edgecolor
newpath 564.26 931.94 moveto
553.72 933.04 lineto
562.64 938.75 lineto
closepath fill
1 setlinewidth
solid
0 1 1 edgecolor
newpath 564.26 931.94 moveto
553.72 933.04 lineto
562.64 938.75 lineto
closepath stroke
grestore
% 19
gsave
1 setlinewidth
dashed
0 0 0 nodecolor
594.49 697 89.08 18 ellipse_path stroke
0 0 0 nodecolor
14 /Times-Roman set_font
533.99 693.3 moveto 121 (null : null_type \(# 19\)) alignedtext
grestore
% 19->21
gsave
1 setlinewidth
0 1 1 edgecolor
newpath 552.77 680.94 moveto
534.09 671.69 513.41 659.62 497.86 649.06 curveto
stroke
0 1 1 edgecolor
newpath 499.53 645.96 moveto
489.34 643.05 lineto
495.5 651.68 lineto
closepath fill
1 setlinewidth
solid
0 1 1 edgecolor
newpath 499.53 645.96 moveto
489.34 643.05 lineto
495.5 651.68 lineto
closepath stroke
grestore
% 19->21
gsave
1 setlinewidth
0 1 1 edgecolor
newpath 562.49 680.07 moveto
546.19 670.82 526.49 659 510.11 648.68 curveto
stroke
0 1 1 edgecolor
newpath 511.71 645.55 moveto
501.4 643.13 lineto
507.95 651.46 lineto
closepath fill
1 setlinewidth
solid
0 1 1 edgecolor
newpath 511.71 645.55 moveto
501.4 643.13 lineto
507.95 651.46 lineto
closepath stroke
grestore
% 19->21
gsave
1 setlinewidth
0 1 1 edgecolor
newpath 572.88 679.35 moveto
558.59 670.07 539.48 658.36 522.08 648.19 curveto
stroke
0 1 1 edgecolor
newpath 523.58 645.01 moveto
513.17 643.03 lineto
520.07 651.07 lineto
closepath fill
1 setlinewidth
solid
0 1 1 edgecolor
newpath 523.58 645.01 moveto
513.17 643.03 lineto
520.07 651.07 lineto
closepath stroke
grestore
% 19->21
gsave
1 setlinewidth
0 1 1 edgecolor
newpath 583.8 678.81 moveto
571.38 669.5 552.7 657.88 534.14 647.82 curveto
stroke
0 1 1 edgecolor
newpath 535.55 644.6 moveto
525.07 643.02 lineto
532.28 650.79 lineto
closepath fill
1 setlinewidth
solid
0 1 1 edgecolor
newpath 535.55 644.6 moveto
525.07 643.02 lineto
532.28 650.79 lineto
closepath stroke
grestore
% 30->34
gsave
1 setlinewidth
0 1 1 edgecolor
newpath 517.8 387.13 moveto
503.53 368.61 479.24 338.4 455.49 315 curveto
445.16 304.81 433.06 294.51 422.07 285.68 curveto
stroke
0 1 1 edgecolor
newpath 423.93 282.69 moveto
413.92 279.23 lineto
419.59 288.18 lineto
closepath fill
1 setlinewidth
solid
0 1 1 edgecolor
newpath 423.93 282.69 moveto
413.92 279.23 lineto
419.59 288.18 lineto
closepath stroke
grestore
% 30->37
gsave
1 setlinewidth
0 1 1 edgecolor
newpath 575.25 389.86 moveto
593.58 381.61 612.94 369.16 623.49 351 curveto
631.53 337.17 631.66 328.76 623.49 315 curveto
615.66 301.81 603.35 291.64 590.04 283.87 curveto
stroke
0 1 1 edgecolor
newpath 591.65 280.76 moveto
581.18 279.1 lineto
588.33 286.92 lineto
closepath fill
1 setlinewidth
solid
0 1 1 edgecolor
newpath 591.65 280.76 moveto
581.18 279.1 lineto
588.33 286.92 lineto
closepath stroke
grestore
% 30->33
gsave
1 setlinewidth
0 1 1 edgecolor
newpath 504.75 387.76 moveto
490.05 378.5 471.4 366.73 455.29 356.58 curveto
stroke
0 1 1 edgecolor
newpath 456.97 353.5 moveto
446.64 351.12 lineto
453.24 359.42 lineto
closepath fill
1 setlinewidth
solid
0 1 1 edgecolor
newpath 456.97 353.5 moveto
446.64 351.12 lineto
453.24 359.42 lineto
closepath stroke
grestore
endpage
showpage
grestore
%%PageTrailer
%%EndPage: 1
%%Trailer
end
restore
%%EOF
