%!PS-Adobe-3.0 EPSF-3.0
%%Creator: graphviz version 2.38.0 (20140413.2041)
%%Title: cfg
%%Pages: 1
%%BoundingBox: 36 36 1835 3303
%%EndComments
save
%%BeginProlog
/DotDict 200 dict def
DotDict begin

/setupLatin1 {
mark
/EncodingVector 256 array def
 EncodingVector 0

ISOLatin1Encoding 0 255 getinterval putinterval
EncodingVector 45 /hyphen put

% Set up ISO Latin 1 character encoding
/starnetISO {
        dup dup findfont dup length dict begin
        { 1 index /FID ne { def }{ pop pop } ifelse
        } forall
        /Encoding EncodingVector def
        currentdict end definefont
} def
/Times-Roman starnetISO def
/Times-Italic starnetISO def
/Times-Bold starnetISO def
/Times-BoldItalic starnetISO def
/Helvetica starnetISO def
/Helvetica-Oblique starnetISO def
/Helvetica-Bold starnetISO def
/Helvetica-BoldOblique starnetISO def
/Courier starnetISO def
/Courier-Oblique starnetISO def
/Courier-Bold starnetISO def
/Courier-BoldOblique starnetISO def
cleartomark
} bind def

%%BeginResource: procset graphviz 0 0
/coord-font-family /Times-Roman def
/default-font-family /Times-Roman def
/coordfont coord-font-family findfont 8 scalefont def

/InvScaleFactor 1.0 def
/set_scale {
       dup 1 exch div /InvScaleFactor exch def
       scale
} bind def

% styles
/solid { [] 0 setdash } bind def
/dashed { [9 InvScaleFactor mul dup ] 0 setdash } bind def
/dotted { [1 InvScaleFactor mul 6 InvScaleFactor mul] 0 setdash } bind def
/invis {/fill {newpath} def /stroke {newpath} def /show {pop newpath} def} bind def
/bold { 2 setlinewidth } bind def
/filled { } bind def
/unfilled { } bind def
/rounded { } bind def
/diagonals { } bind def
/tapered { } bind def

% hooks for setting color 
/nodecolor { sethsbcolor } bind def
/edgecolor { sethsbcolor } bind def
/graphcolor { sethsbcolor } bind def
/nopcolor {pop pop pop} bind def

/beginpage {	% i j npages
	/npages exch def
	/j exch def
	/i exch def
	/str 10 string def
	npages 1 gt {
		gsave
			coordfont setfont
			0 0 moveto
			(\() show i str cvs show (,) show j str cvs show (\)) show
		grestore
	} if
} bind def

/set_font {
	findfont exch
	scalefont setfont
} def

% draw text fitted to its expected width
/alignedtext {			% width text
	/text exch def
	/width exch def
	gsave
		width 0 gt {
			[] 0 setdash
			text stringwidth pop width exch sub text length div 0 text ashow
		} if
	grestore
} def

/boxprim {				% xcorner ycorner xsize ysize
		4 2 roll
		moveto
		2 copy
		exch 0 rlineto
		0 exch rlineto
		pop neg 0 rlineto
		closepath
} bind def

/ellipse_path {
	/ry exch def
	/rx exch def
	/y exch def
	/x exch def
	matrix currentmatrix
	newpath
	x y translate
	rx ry scale
	0 0 1 0 360 arc
	setmatrix
} bind def

/endpage { showpage } bind def
/showpage { } def

/layercolorseq
	[	% layer color sequence - darkest to lightest
		[0 0 0]
		[.2 .8 .8]
		[.4 .8 .8]
		[.6 .8 .8]
		[.8 .8 .8]
	]
def

/layerlen layercolorseq length def

/setlayer {/maxlayer exch def /curlayer exch def
	layercolorseq curlayer 1 sub layerlen mod get
	aload pop sethsbcolor
	/nodecolor {nopcolor} def
	/edgecolor {nopcolor} def
	/graphcolor {nopcolor} def
} bind def

/onlayer { curlayer ne {invis} if } def

/onlayers {
	/myupper exch def
	/mylower exch def
	curlayer mylower lt
	curlayer myupper gt
	or
	{invis} if
} def

/curlayer 0 def

%%EndResource
%%EndProlog
%%BeginSetup
14 default-font-family set_font
1 setmiterlimit
% /arrowlength 10 def
% /arrowwidth 5 def

% make sure pdfmark is harmless for PS-interpreters other than Distiller
/pdfmark where {pop} {userdict /pdfmark /cleartomark load put} ifelse
% make '<<' and '>>' safe on PS Level 1 devices
/languagelevel where {pop languagelevel}{1} ifelse
2 lt {
    userdict (<<) cvn ([) cvn load put
    userdict (>>) cvn ([) cvn load put
} if

%%EndSetup
setupLatin1
%%Page: 1 1
%%PageBoundingBox: 36 36 1835 3303
%%PageOrientation: Portrait
0 0 1 beginpage
gsave
36 36 1799 3267 boxprim clip newpath
1 1 set_scale 0 rotate 40 40 translate
0 0 0 graphcolor
14 /Times-Roman set_font
740.09 7.8 moveto 311 (ke.co.ma3map.android.helpers.Database.runSelectQuery) alignedtext
% 0
gsave
1 setlinewidth
0 0 0 nodecolor
newpath 1308 3259 moveto
1254 3259 lineto
1254 3223 lineto
1308 3223 lineto
closepath stroke
0 0 0 nodecolor
14 /Times-Roman set_font
1269.5 3237.3 moveto 23 (\(#0\)) alignedtext
grestore
% 2
gsave
1 setlinewidth
0 0 0 nodecolor
newpath 1308 3187 moveto
1254 3187 lineto
1254 3151 lineto
1308 3151 lineto
closepath stroke
0 0 0 nodecolor
14 /Times-Roman set_font
1269.5 3165.3 moveto 23 (\(#2\)) alignedtext
grestore
% 0->2
gsave
1 setlinewidth
0 0 0 edgecolor
newpath 1281 3222.7 moveto
1281 3214.98 1281 3205.71 1281 3197.11 curveto
stroke
0 0 0 edgecolor
newpath 1284.5 3197.1 moveto
1281 3187.1 lineto
1277.5 3197.1 lineto
closepath fill
1 setlinewidth
solid
0 0 0 edgecolor
newpath 1284.5 3197.1 moveto
1281 3187.1 lineto
1277.5 3197.1 lineto
closepath stroke
grestore
% 85
gsave
1 setlinewidth
0 0 0 nodecolor
newpath 569 1079 moveto
459 1079 lineto
459 1041 lineto
569 1041 lineto
closepath stroke
0 0 0 nodecolor
14 /Times-Roman set_font
474.5 1063.8 moveto 79 (EQ\(null,table\)) alignedtext
0 0 0 nodecolor
14 /Times-Roman set_font
467 1048.8 moveto 94 (\(#85\)\(\(#84\),\(#7\)\)) alignedtext
grestore
% 91
gsave
1 setlinewidth
0 0 0 nodecolor
newpath 541 1005 moveto
487 1005 lineto
487 969 lineto
541 969 lineto
closepath stroke
0 0 0 nodecolor
14 /Times-Roman set_font
499 983.3 moveto 30 (\(#91\)) alignedtext
grestore
% 85->91
gsave
1 setlinewidth
0 0 0 edgecolor
newpath 514 1040.72 moveto
514 1032.97 514 1023.79 514 1015.27 curveto
stroke
0 0 0 edgecolor
newpath 517.5 1015 moveto
514 1005 lineto
510.5 1015 lineto
closepath fill
1 setlinewidth
solid
0 0 0 edgecolor
newpath 517.5 1015 moveto
514 1005 lineto
510.5 1015 lineto
closepath stroke
grestore
% 96
gsave
1 setlinewidth
0 0 0 nodecolor
newpath 841 713 moveto
787 713 lineto
787 677 lineto
841 677 lineto
closepath stroke
0 0 0 nodecolor
14 /Times-Roman set_font
799 691.3 moveto 30 (\(#96\)) alignedtext
grestore
% 98
gsave
1 setlinewidth
0 0 0 nodecolor
newpath 380 569 moveto
326 569 lineto
326 533 lineto
380 533 lineto
closepath stroke
0 0 0 nodecolor
14 /Times-Roman set_font
338 547.3 moveto 30 (\(#98\)) alignedtext
grestore
% 96->98
gsave
1 setlinewidth
0 0 0 edgecolor
newpath 786.66 686.92 moveto
719.24 669.23 539.89 620.8 394 569 curveto
392.59 568.5 391.16 567.98 389.72 567.44 curveto
stroke
0 0 0 edgecolor
newpath 390.78 564.1 moveto
380.19 563.74 lineto
388.25 570.62 lineto
closepath fill
1 setlinewidth
solid
0 0 0 edgecolor
newpath 390.78 564.1 moveto
380.19 563.74 lineto
388.25 570.62 lineto
closepath stroke
grestore
% 58
gsave
1 setlinewidth
dashed
0 0 0 nodecolor
978 623 62.29 18 ellipse_path stroke
0 0 0 nodecolor
14 /Times-Roman set_font
938 619.3 moveto 80 ($i2 : int \(# 58\)) alignedtext
grestore
% 96->58
gsave
1 setlinewidth
0.66667 1 1 edgecolor
newpath 841.27 680 moveto
865.82 668.89 902.22 653.3 931.35 641.38 curveto
stroke
0.66667 1 1 edgecolor
newpath 932.97 644.5 moveto
940.92 637.5 lineto
930.34 638.02 lineto
closepath fill
1 setlinewidth
solid
0.66667 1 1 edgecolor
newpath 932.97 644.5 moveto
940.92 637.5 lineto
930.34 638.02 lineto
closepath stroke
grestore
% 99
gsave
1 setlinewidth
0 0 0 nodecolor
newpath 411.5 497 moveto
294.5 497 lineto
294.5 459 lineto
411.5 459 lineto
closepath stroke
0 0 0 nodecolor
14 /Times-Roman set_font
320 481.8 moveto 66 (EQ\($i2,$i0\)) alignedtext
0 0 0 nodecolor
14 /Times-Roman set_font
302.5 466.8 moveto 101 (\(#99\)\(\(#58\),\(#42\)\)) alignedtext
grestore
% 98->99
gsave
1 setlinewidth
0 0 0 edgecolor
newpath 353 532.81 moveto
353 525.11 353 515.82 353 507.15 curveto
stroke
0 0 0 edgecolor
newpath 356.5 507.02 moveto
353 497.02 lineto
349.5 507.02 lineto
closepath fill
1 setlinewidth
solid
0 0 0 edgecolor
newpath 356.5 507.02 moveto
353 497.02 lineto
349.5 507.02 lineto
closepath stroke
grestore
% 102
gsave
1 setlinewidth
0 0 0 nodecolor
newpath 290 279 moveto
166 279 lineto
166 241 lineto
290 241 lineto
closepath stroke
0 0 0 nodecolor
14 /Times-Roman set_font
190 263.8 moveto 76 (NEQ\($i2,$i0\)) alignedtext
0 0 0 nodecolor
14 /Times-Roman set_font
174 248.8 moveto 108 (\(#102\)\(\(#58\),\(#42\)\)) alignedtext
grestore
% 98->102
gsave
1 setlinewidth
0 0 0 edgecolor
newpath 325.8 542.54 moveto
302.81 534.84 270.72 520.57 252 497 curveto
200.62 432.29 203.55 396.97 214 315 curveto
215.09 306.49 217.1 297.4 219.26 289.16 curveto
stroke
0 0 0 edgecolor
newpath 222.7 289.84 moveto
222.03 279.27 lineto
215.96 287.95 lineto
closepath fill
1 setlinewidth
solid
0 0 0 edgecolor
newpath 222.7 289.84 moveto
222.03 279.27 lineto
215.96 287.95 lineto
closepath stroke
grestore
% 83
gsave
1 setlinewidth
0 0 0 nodecolor
newpath 541 1152 moveto
487 1152 lineto
487 1116 lineto
541 1116 lineto
closepath stroke
0 0 0 nodecolor
14 /Times-Roman set_font
499 1130.3 moveto 30 (\(#83\)) alignedtext
grestore
% 83->85
gsave
1 setlinewidth
0 0 0 edgecolor
newpath 514 1115.94 moveto
514 1107.99 514 1098.31 514 1089.31 curveto
stroke
0 0 0 edgecolor
newpath 517.5 1089.2 moveto
514 1079.2 lineto
510.5 1089.2 lineto
closepath fill
1 setlinewidth
solid
0 0 0 edgecolor
newpath 517.5 1089.2 moveto
514 1079.2 lineto
510.5 1089.2 lineto
closepath stroke
grestore
% 108
gsave
1 setlinewidth
0 0 0 nodecolor
newpath 310 351 moveto
256 351 lineto
256 315 lineto
310 315 lineto
closepath stroke
0 0 0 nodecolor
14 /Times-Roman set_font
264.5 329.3 moveto 37 (\(#108\)) alignedtext
grestore
% 59
gsave
1 setlinewidth
0 0 0 nodecolor
newpath 1269 1809 moveto
1021 1809 lineto
1021 1771 lineto
1269 1771 lineto
closepath stroke
0 0 0 nodecolor
14 /Times-Roman set_font
1029 1793.8 moveto 232 (cursor.android.database.Cursor.getCount\(\)) alignedtext
0 0 0 nodecolor
14 /Times-Roman set_font
1109 1778.8 moveto 72 (\(#31\).\(#59\)\(\)) alignedtext
grestore
% 108->59
gsave
1 setlinewidth
0 0 0 edgecolor
newpath 271.6 351.23 moveto
255.49 377.31 228 428.86 228 477 curveto
228 1645 228 1645 228 1645 curveto
228 1723.27 756.13 1765.68 1010.79 1781.57 curveto
stroke
0 0 0 edgecolor
newpath 1010.66 1785.07 moveto
1020.85 1782.2 lineto
1011.09 1778.09 lineto
closepath fill
1 setlinewidth
solid
0 0 0 edgecolor
newpath 1010.66 1785.07 moveto
1020.85 1782.2 lineto
1011.09 1778.09 lineto
closepath stroke
grestore
% 80
gsave
1 setlinewidth
0 0 0 nodecolor
newpath 710.5 1299 moveto
449.5 1299 lineto
449.5 1261 lineto
710.5 1261 lineto
closepath stroke
0 0 0 nodecolor
14 /Times-Roman set_font
457.5 1283.8 moveto 245 (cursor.android.database.Cursor.getString\(c2\)) alignedtext
0 0 0 nodecolor
14 /Times-Roman set_font
529.5 1268.8 moveto 101 (\(#31\).\(#80\)\(\(#68\)\)) alignedtext
grestore
% 80->83
gsave
1 setlinewidth
0 0 0 edgecolor
newpath 578.86 1260.87 moveto
577.08 1242.05 572.53 1212.16 561 1189 curveto
555.74 1178.44 547.92 1168.28 540.16 1159.69 curveto
stroke
0 0 0 edgecolor
newpath 542.54 1157.11 moveto
533.12 1152.26 lineto
537.46 1161.93 lineto
closepath fill
1 setlinewidth
solid
0 0 0 edgecolor
newpath 542.54 1157.11 moveto
533.12 1152.26 lineto
537.46 1161.93 lineto
closepath stroke
grestore
% 7
gsave
1 setlinewidth
dashed
0 0 0 nodecolor
442 1207 110.48 18 ellipse_path stroke
0 0 0 nodecolor
14 /Times-Roman set_font
365 1203.3 moveto 154 (table : java.lang.String \(# 7\)) alignedtext
grestore
% 80->7
gsave
1 setlinewidth
0.66667 1 1 edgecolor
newpath 544.82 1260.9 moveto
525.93 1251.18 502.55 1239.15 482.86 1229.02 curveto
stroke
0.66667 1 1 edgecolor
newpath 484.31 1225.83 moveto
473.81 1224.37 lineto
481.1 1232.05 lineto
closepath fill
1 setlinewidth
solid
0.66667 1 1 edgecolor
newpath 484.31 1225.83 moveto
473.81 1224.37 lineto
481.1 1232.05 lineto
closepath stroke
grestore
% 105
gsave
1 setlinewidth
0 0 0 nodecolor
newpath 363.5 205 moveto
92.5 205 lineto
92.5 167 lineto
363.5 167 lineto
closepath stroke
0 0 0 nodecolor
14 /Times-Roman set_font
100.5 189.8 moveto 255 (cursor.android.database.Cursor.moveToNext\(\)) alignedtext
0 0 0 nodecolor
14 /Times-Roman set_font
188.5 174.8 moveto 79 (\(#31\).\(#105\)\(\)) alignedtext
grestore
% 106
gsave
1 setlinewidth
0 0 0 nodecolor
newpath 365 423 moveto
311 423 lineto
311 387 lineto
365 387 lineto
closepath stroke
0 0 0 nodecolor
14 /Times-Roman set_font
319.5 401.3 moveto 37 (\(#106\)) alignedtext
grestore
% 105->106
gsave
1 setlinewidth
0 0 0 edgecolor
newpath 260.57 205.13 moveto
274.25 214.26 289.23 226.48 299 241 curveto
327 282.61 334.97 342.07 337.2 376.49 curveto
stroke
0 0 0 edgecolor
newpath 333.71 376.93 moveto
337.73 386.73 lineto
340.7 376.56 lineto
closepath fill
1 setlinewidth
solid
0 0 0 edgecolor
newpath 333.71 376.93 moveto
337.73 386.73 lineto
340.7 376.56 lineto
closepath stroke
grestore
% 71
gsave
1 setlinewidth
0 0 0 nodecolor
newpath 974 1517 moveto
920 1517 lineto
920 1481 lineto
974 1481 lineto
closepath stroke
0 0 0 nodecolor
14 /Times-Roman set_font
932 1495.3 moveto 30 (\(#71\)) alignedtext
grestore
% 73
gsave
1 setlinewidth
0 0 0 nodecolor
newpath 974 1445 moveto
920 1445 lineto
920 1409 lineto
974 1409 lineto
closepath stroke
0 0 0 nodecolor
14 /Times-Roman set_font
932 1423.3 moveto 30 (\(#73\)) alignedtext
grestore
% 71->73
gsave
1 setlinewidth
0 0 0 edgecolor
newpath 947 1480.7 moveto
947 1472.98 947 1463.71 947 1455.11 curveto
stroke
0 0 0 edgecolor
newpath 950.5 1455.1 moveto
947 1445.1 lineto
943.5 1455.1 lineto
closepath fill
1 setlinewidth
solid
0 0 0 edgecolor
newpath 950.5 1455.1 moveto
947 1445.1 lineto
943.5 1455.1 lineto
closepath stroke
grestore
% 71->58
gsave
1 setlinewidth
0.66667 1 1 edgecolor
newpath 968.56 1480.62 moveto
996.59 1455.92 1042 1407.76 1042 1355 curveto
1042 1355 1042 1355 1042 1206 curveto
1042 1107.65 1080 1086.35 1080 988 curveto
1080 988 1080 988 1080 767 curveto
1080 716.75 1037.74 671.95 1007.63 646.39 curveto
stroke
0.66667 1 1 edgecolor
newpath 1009.83 643.67 moveto
999.88 640.01 lineto
1005.37 649.07 lineto
closepath fill
1 setlinewidth
solid
0.66667 1 1 edgecolor
newpath 1009.83 643.67 moveto
999.88 640.01 lineto
1005.37 649.07 lineto
closepath stroke
grestore
% 94
gsave
1 setlinewidth
0 0 0 nodecolor
newpath 938 787 moveto
690 787 lineto
690 749 lineto
938 749 lineto
closepath stroke
0 0 0 nodecolor
14 /Times-Roman set_font
698 771.8 moveto 232 (cursor.android.database.Cursor.getCount\(\)) alignedtext
0 0 0 nodecolor
14 /Times-Roman set_font
778 756.8 moveto 72 (\(#31\).\(#94\)\(\)) alignedtext
grestore
% 94->96
gsave
1 setlinewidth
0 0 0 edgecolor
newpath 814 748.72 moveto
814 740.97 814 731.79 814 723.27 curveto
stroke
0 0 0 edgecolor
newpath 817.5 723 moveto
814 713 lineto
810.5 723 lineto
closepath fill
1 setlinewidth
solid
0 0 0 edgecolor
newpath 817.5 723 moveto
814 713 lineto
810.5 723 lineto
closepath stroke
grestore
% 94->58
gsave
1 setlinewidth
0.66667 1 1 edgecolor
newpath 834.77 748.89 moveto
864.49 722.98 919.13 675.33 951.66 646.97 curveto
stroke
0.66667 1 1 edgecolor
newpath 954.18 649.41 moveto
959.42 640.2 lineto
949.58 644.14 lineto
closepath fill
1 setlinewidth
solid
0.66667 1 1 edgecolor
newpath 954.18 649.41 moveto
959.42 640.2 lineto
949.58 644.14 lineto
closepath stroke
grestore
% 62
gsave
1 setlinewidth
0 0 0 nodecolor
newpath 1442.5 279 moveto
1325.5 279 lineto
1325.5 241 lineto
1442.5 241 lineto
closepath stroke
0 0 0 nodecolor
14 /Times-Roman set_font
1351 263.8 moveto 66 (GE\($i2,$i0\)) alignedtext
0 0 0 nodecolor
14 /Times-Roman set_font
1333.5 248.8 moveto 101 (\(#62\)\(\(#58\),\(#42\)\)) alignedtext
grestore
% 109
gsave
1 setlinewidth
0 0 0 nodecolor
newpath 1497.5 205 moveto
1270.5 205 lineto
1270.5 167 lineto
1497.5 167 lineto
closepath stroke
0 0 0 nodecolor
14 /Times-Roman set_font
1278.5 189.8 moveto 211 (cursor.android.database.Cursor.close\(\)) alignedtext
0 0 0 nodecolor
14 /Times-Roman set_font
1344.5 174.8 moveto 79 (\(#31\).\(#109\)\(\)) alignedtext
grestore
% 62->109
gsave
1 setlinewidth
0 0 0 edgecolor
newpath 1384 240.83 moveto
1384 233.13 1384 223.97 1384 215.42 curveto
stroke
0 0 0 edgecolor
newpath 1387.5 215.41 moveto
1384 205.41 lineto
1380.5 215.41 lineto
closepath fill
1 setlinewidth
solid
0 0 0 edgecolor
newpath 1387.5 215.41 moveto
1384 205.41 lineto
1380.5 215.41 lineto
closepath stroke
grestore
% 110
gsave
1 setlinewidth
0 0 0 nodecolor
newpath 1455 131 moveto
1401 131 lineto
1401 95 lineto
1455 95 lineto
closepath stroke
0 0 0 nodecolor
14 /Times-Roman set_font
1409.5 109.3 moveto 37 (\(#110\)) alignedtext
grestore
% 111
gsave
1 setlinewidth
0 0 0 nodecolor
newpath 1504 59 moveto
1450 59 lineto
1450 23 lineto
1504 23 lineto
closepath stroke
0 0 0 nodecolor
14 /Times-Roman set_font
1458.5 37.3 moveto 37 (\(#111\)) alignedtext
grestore
% 110->111
gsave
1 setlinewidth
0 0 0 edgecolor
newpath 1440.11 94.7 moveto
1445.87 86.47 1452.86 76.48 1459.21 67.42 curveto
stroke
0 0 0 edgecolor
newpath 1462.16 69.3 moveto
1465.03 59.1 lineto
1456.42 65.29 lineto
closepath fill
1 setlinewidth
solid
0 0 0 edgecolor
newpath 1462.16 69.3 moveto
1465.03 59.1 lineto
1456.42 65.29 lineto
closepath stroke
grestore
% 109->110
gsave
1 setlinewidth
0 0 0 edgecolor
newpath 1395.33 166.72 moveto
1400.45 158.46 1406.58 148.56 1412.15 139.58 curveto
stroke
0 0 0 edgecolor
newpath 1415.17 141.35 moveto
1417.46 131 lineto
1409.22 137.66 lineto
closepath fill
1 setlinewidth
solid
0 0 0 edgecolor
newpath 1415.17 141.35 moveto
1417.46 131 lineto
1409.22 137.66 lineto
closepath stroke
grestore
% 93
gsave
1 setlinewidth
0 0 0 nodecolor
newpath 436 933 moveto
382 933 lineto
382 897 lineto
436 897 lineto
closepath stroke
0 0 0 nodecolor
14 /Times-Roman set_font
394 911.3 moveto 30 (\(#93\)) alignedtext
grestore
% 93->71
gsave
1 setlinewidth
0 0 0 edgecolor
newpath 384.91 933.08 moveto
353.91 957.26 304 1004.64 304 1059 curveto
304 1355 304 1355 304 1355 curveto
304 1479.97 772.66 1495.78 909.76 1497.74 curveto
stroke
0 0 0 edgecolor
newpath 909.74 1501.24 moveto
919.78 1497.86 lineto
909.83 1494.24 lineto
closepath fill
1 setlinewidth
solid
0 0 0 edgecolor
newpath 909.74 1501.24 moveto
919.78 1497.86 lineto
909.83 1494.24 lineto
closepath stroke
grestore
% 106->108
gsave
1 setlinewidth
0 0 0 edgecolor
newpath 324.4 386.7 moveto
317.88 378.39 309.93 368.28 302.75 359.14 curveto
stroke
0 0 0 edgecolor
newpath 305.37 356.81 moveto
296.44 351.1 lineto
299.87 361.13 lineto
closepath fill
1 setlinewidth
solid
0 0 0 edgecolor
newpath 305.37 356.81 moveto
296.44 351.1 lineto
299.87 361.13 lineto
closepath stroke
grestore
% 42
gsave
1 setlinewidth
dashed
0 0 0 nodecolor
1282 333 62.29 18 ellipse_path stroke
0 0 0 nodecolor
14 /Times-Roman set_font
1242 329.3 moveto 80 ($i0 : int \(# 42\)) alignedtext
grestore
% 106->42
gsave
1 setlinewidth
0.66667 1 1 edgecolor
newpath 365.24 401.79 moveto
491.39 392.05 1019.74 352.85 1211.85 338.93 curveto
stroke
0.66667 1 1 edgecolor
newpath 1212.39 342.4 moveto
1222.11 338.19 lineto
1211.88 335.42 lineto
closepath fill
1 setlinewidth
solid
0.66667 1 1 edgecolor
newpath 1212.39 342.4 moveto
1222.11 338.19 lineto
1211.88 335.42 lineto
closepath stroke
grestore
% 99->106
gsave
1 setlinewidth
0 0 0 edgecolor
newpath 349.14 458.72 moveto
347.48 450.89 345.52 441.59 343.7 432.99 curveto
stroke
0 0 0 edgecolor
newpath 347.08 432.06 moveto
341.59 423 lineto
340.23 433.51 lineto
closepath fill
1 setlinewidth
solid
0 0 0 edgecolor
newpath 347.08 432.06 moveto
341.59 423 lineto
340.23 433.51 lineto
closepath stroke
grestore
% 91->93
gsave
1 setlinewidth
0 0 0 edgecolor
newpath 488.31 968.88 moveto
474.71 959.81 457.83 948.55 443.14 938.76 curveto
stroke
0 0 0 edgecolor
newpath 445.05 935.82 moveto
434.78 933.19 lineto
441.16 941.65 lineto
closepath fill
1 setlinewidth
solid
0 0 0 edgecolor
newpath 445.05 935.82 moveto
434.78 933.19 lineto
441.16 941.65 lineto
closepath stroke
grestore
% 68
gsave
1 setlinewidth
dashed
0 0 0 nodecolor
852 915 59.59 18 ellipse_path stroke
0 0 0 nodecolor
14 /Times-Roman set_font
814 911.3 moveto 76 (c2 : int \(# 68\)) alignedtext
grestore
% 91->68
gsave
1 setlinewidth
0.66667 1 1 edgecolor
newpath 541.08 979.54 moveto
595.46 967.63 718.53 942.07 792.55 927.25 curveto
stroke
0.66667 1 1 edgecolor
newpath 793.53 930.63 moveto
802.65 925.24 lineto
792.16 923.76 lineto
closepath fill
1 setlinewidth
solid
0.66667 1 1 edgecolor
newpath 793.53 930.63 moveto
802.65 925.24 lineto
792.16 923.76 lineto
closepath stroke
grestore
% 102->105
gsave
1 setlinewidth
0 0 0 edgecolor
newpath 228 240.83 moveto
228 233.13 228 223.97 228 215.42 curveto
stroke
0 0 0 edgecolor
newpath 231.5 215.41 moveto
228 205.41 lineto
224.5 215.41 lineto
closepath fill
1 setlinewidth
solid
0 0 0 edgecolor
newpath 231.5 215.41 moveto
228 205.41 lineto
224.5 215.41 lineto
closepath stroke
grestore
% 77
gsave
1 setlinewidth
0 0 0 nodecolor
newpath 899.5 1373 moveto
782.5 1373 lineto
782.5 1335 lineto
899.5 1335 lineto
closepath stroke
0 0 0 nodecolor
14 /Times-Roman set_font
811 1357.8 moveto 60 (LT\($i2,c2\)) alignedtext
0 0 0 nodecolor
14 /Times-Roman set_font
790.5 1342.8 moveto 101 (\(#77\)\(\(#58\),\(#68\)\)) alignedtext
grestore
% 77->80
gsave
1 setlinewidth
0 0 0 edgecolor
newpath 782.43 1336.84 moveto
744.8 1326.46 695.57 1312.88 655.08 1301.71 curveto
stroke
0 0 0 edgecolor
newpath 655.83 1298.29 moveto
645.26 1299 lineto
653.96 1305.03 lineto
closepath fill
1 setlinewidth
solid
0 0 0 edgecolor
newpath 655.83 1298.29 moveto
645.26 1299 lineto
653.96 1305.03 lineto
closepath stroke
grestore
% 74
gsave
1 setlinewidth
0 0 0 nodecolor
newpath 942.5 861 moveto
825.5 861 lineto
825.5 823 lineto
942.5 823 lineto
closepath stroke
0 0 0 nodecolor
14 /Times-Roman set_font
853.5 845.8 moveto 61 (GE\($i2,c2\)) alignedtext
0 0 0 nodecolor
14 /Times-Roman set_font
833.5 830.8 moveto 101 (\(#74\)\(\(#58\),\(#68\)\)) alignedtext
grestore
% 74->94
gsave
1 setlinewidth
0 0 0 edgecolor
newpath 866.34 822.83 moveto
858.03 814.28 847.97 803.94 838.91 794.62 curveto
stroke
0 0 0 edgecolor
newpath 841.38 792.14 moveto
831.9 787.41 lineto
836.36 797.02 lineto
closepath fill
1 setlinewidth
solid
0 0 0 edgecolor
newpath 841.38 792.14 moveto
831.9 787.41 lineto
836.36 797.02 lineto
closepath stroke
grestore
% 61
gsave
1 setlinewidth
0 0 0 nodecolor
newpath 1172 1735 moveto
1118 1735 lineto
1118 1699 lineto
1172 1699 lineto
closepath stroke
0 0 0 nodecolor
14 /Times-Roman set_font
1130 1713.3 moveto 30 (\(#61\)) alignedtext
grestore
% 61->62
gsave
1 setlinewidth
0 0 0 edgecolor
newpath 1172.42 1712.54 moveto
1235.19 1702.94 1384 1669.85 1384 1572 curveto
1384 1572 1384 1572 1384 404 curveto
1384 364.15 1384 318.06 1384 289.22 curveto
stroke
0 0 0 edgecolor
newpath 1387.5 289.06 moveto
1384 279.06 lineto
1380.5 289.06 lineto
closepath fill
1 setlinewidth
solid
0 0 0 edgecolor
newpath 1387.5 289.06 moveto
1384 279.06 lineto
1380.5 289.06 lineto
closepath stroke
grestore
% 65
gsave
1 setlinewidth
0 0 0 nodecolor
newpath 1203.5 1663 moveto
1086.5 1663 lineto
1086.5 1625 lineto
1203.5 1625 lineto
closepath stroke
0 0 0 nodecolor
14 /Times-Roman set_font
1113 1647.8 moveto 64 (LT\($i2,$i0\)) alignedtext
0 0 0 nodecolor
14 /Times-Roman set_font
1094.5 1632.8 moveto 101 (\(#65\)\(\(#58\),\(#42\)\)) alignedtext
grestore
% 61->65
gsave
1 setlinewidth
0 0 0 edgecolor
newpath 1145 1698.81 moveto
1145 1691.11 1145 1681.82 1145 1673.15 curveto
stroke
0 0 0 edgecolor
newpath 1148.5 1673.02 moveto
1145 1663.02 lineto
1141.5 1673.02 lineto
closepath fill
1 setlinewidth
solid
0 0 0 edgecolor
newpath 1148.5 1673.02 moveto
1145 1663.02 lineto
1141.5 1673.02 lineto
closepath stroke
grestore
% 69
gsave
1 setlinewidth
0 0 0 nodecolor
newpath 1090 1589 moveto
1036 1589 lineto
1036 1553 lineto
1090 1553 lineto
closepath stroke
0 0 0 nodecolor
14 /Times-Roman set_font
1048 1567.3 moveto 30 (\(#69\)) alignedtext
grestore
% 69->71
gsave
1 setlinewidth
0 0 0 edgecolor
newpath 1035.8 1553.59 moveto
1019.95 1544.02 999.77 1531.85 982.66 1521.52 curveto
stroke
0 0 0 edgecolor
newpath 984.4 1518.48 moveto
974.03 1516.31 lineto
980.78 1524.47 lineto
closepath fill
1 setlinewidth
solid
0 0 0 edgecolor
newpath 984.4 1518.48 moveto
974.03 1516.31 lineto
980.78 1524.47 lineto
closepath stroke
grestore
% 69->68
gsave
1 setlinewidth
0.66667 1 1 edgecolor
newpath 1066.44 1552.59 moveto
1071.41 1525.9 1080 1473.19 1080 1428 curveto
1080 1428 1080 1428 1080 1206 curveto
1080 1081.83 949.22 979.4 885.76 937.01 curveto
stroke
0.66667 1 1 edgecolor
newpath 887.55 933.99 moveto
877.27 931.43 lineto
883.7 939.84 lineto
closepath fill
1 setlinewidth
solid
0.66667 1 1 edgecolor
newpath 887.55 933.99 moveto
877.27 931.43 lineto
883.7 939.84 lineto
closepath stroke
grestore
% 65->69
gsave
1 setlinewidth
0 0 0 edgecolor
newpath 1123.88 1624.72 moveto
1113.65 1615.85 1101.24 1605.11 1090.29 1595.63 curveto
stroke
0 0 0 edgecolor
newpath 1092.49 1592.9 moveto
1082.64 1589 lineto
1087.91 1598.2 lineto
closepath fill
1 setlinewidth
solid
0 0 0 edgecolor
newpath 1092.49 1592.9 moveto
1082.64 1589 lineto
1087.91 1598.2 lineto
closepath stroke
grestore
% 73->77
gsave
1 setlinewidth
0 0 0 edgecolor
newpath 921.61 1408.99 moveto
908.09 1399.94 891.25 1388.66 876.46 1378.75 curveto
stroke
0 0 0 edgecolor
newpath 878.29 1375.77 moveto
868.04 1373.11 lineto
874.4 1381.58 lineto
closepath fill
1 setlinewidth
solid
0 0 0 edgecolor
newpath 878.29 1375.77 moveto
868.04 1373.11 lineto
874.4 1381.58 lineto
closepath stroke
grestore
% 73->74
gsave
1 setlinewidth
0 0 0 edgecolor
newpath 950.75 1408.69 moveto
956.29 1381.59 966 1327.46 966 1281 curveto
966 1281 966 1281 966 986 curveto
966 940.16 933.89 895.69 909.86 868.83 curveto
stroke
0 0 0 edgecolor
newpath 912.37 866.39 moveto
903.02 861.41 lineto
907.22 871.14 lineto
closepath fill
1 setlinewidth
solid
0 0 0 edgecolor
newpath 912.37 866.39 moveto
903.02 861.41 lineto
907.22 871.14 lineto
closepath stroke
grestore
% 59->61
gsave
1 setlinewidth
0 0 0 edgecolor
newpath 1145 1770.72 moveto
1145 1762.97 1145 1753.79 1145 1745.27 curveto
stroke
0 0 0 edgecolor
newpath 1148.5 1745 moveto
1145 1735 lineto
1141.5 1745 lineto
closepath fill
1 setlinewidth
solid
0 0 0 edgecolor
newpath 1148.5 1745 moveto
1145 1735 lineto
1141.5 1745 lineto
closepath stroke
grestore
% 59->58
gsave
1 setlinewidth
0.66667 1 1 edgecolor
newpath 1130.71 1770.71 moveto
1113.52 1747.32 1085.88 1704.82 1077 1663 curveto
1073.49 1646.48 1072.43 1641.26 1077 1625 curveto
1082.08 1606.95 1092.05 1606.42 1099 1589 curveto
1113.98 1551.43 1118 1540.45 1118 1500 curveto
1118 1500 1118 1500 1118 767 curveto
1118 709.55 1059.58 666.65 1018.22 643.48 curveto
stroke
0.66667 1 1 edgecolor
newpath 1019.88 640.39 moveto
1009.42 638.7 lineto
1016.54 646.54 lineto
closepath fill
1 setlinewidth
solid
0.66667 1 1 edgecolor
newpath 1019.88 640.39 moveto
1009.42 638.7 lineto
1016.54 646.54 lineto
closepath stroke
grestore
% 32
gsave
1 setlinewidth
0 0 0 nodecolor
newpath 1616 2395 moveto
946 2395 lineto
946 2357 lineto
1616 2357 lineto
closepath stroke
0 0 0 nodecolor
14 /Times-Roman set_font
954 2379.8 moveto 654 (db.android.database.sqlite.SQLiteDatabase.query\(limit,orderBy,having,groupBy,selectionArgs,selection,columns,table\)) alignedtext
0 0 0 nodecolor
14 /Times-Roman set_font
1121.5 2364.8 moveto 319 (\(#4\).\(#32\)\(\(#28\),\(#25\),\(#22\),\(#19\),\(#16\),\(#13\),\(#10\),\(#7\)\)) alignedtext
grestore
% 43
gsave
1 setlinewidth
0 0 0 nodecolor
newpath 1405 2249 moveto
1157 2249 lineto
1157 2211 lineto
1405 2211 lineto
closepath stroke
0 0 0 nodecolor
14 /Times-Roman set_font
1165 2233.8 moveto 232 (cursor.android.database.Cursor.getCount\(\)) alignedtext
0 0 0 nodecolor
14 /Times-Roman set_font
1245 2218.8 moveto 72 (\(#31\).\(#43\)\(\)) alignedtext
grestore
% 32->43
gsave
1 setlinewidth
0 0 0 edgecolor
newpath 1281 2356.76 moveto
1281 2332.2 1281 2288.25 1281 2259.35 curveto
stroke
0 0 0 edgecolor
newpath 1284.5 2259.09 moveto
1281 2249.09 lineto
1277.5 2259.09 lineto
closepath fill
1 setlinewidth
solid
0 0 0 edgecolor
newpath 1284.5 2259.09 moveto
1281 2249.09 lineto
1277.5 2259.09 lineto
closepath stroke
grestore
% 31
gsave
1 setlinewidth
dashed
0 0 0 nodecolor
1054 2303 149.47 18 ellipse_path stroke
0 0 0 nodecolor
14 /Times-Roman set_font
947 2299.3 moveto 214 (cursor : android.database.Cursor \(# 31\)) alignedtext
grestore
% 32->31
gsave
1 setlinewidth
0.66667 1 1 edgecolor
newpath 1223.42 2356.99 moveto
1190.19 2346.6 1148.43 2333.53 1114.68 2322.98 curveto
stroke
0.66667 1 1 edgecolor
newpath 1115.53 2319.58 moveto
1104.94 2319.93 lineto
1113.44 2326.26 lineto
closepath fill
1 setlinewidth
solid
0.66667 1 1 edgecolor
newpath 1115.53 2319.58 moveto
1104.94 2319.93 lineto
1113.44 2326.26 lineto
closepath stroke
grestore
% 45
gsave
1 setlinewidth
0 0 0 nodecolor
newpath 1308 2175 moveto
1254 2175 lineto
1254 2139 lineto
1308 2139 lineto
closepath stroke
0 0 0 nodecolor
14 /Times-Roman set_font
1266 2153.3 moveto 30 (\(#45\)) alignedtext
grestore
% 47
gsave
1 setlinewidth
0 0 0 nodecolor
newpath 1584.5 279 moveto
1467.5 279 lineto
1467.5 241 lineto
1584.5 241 lineto
closepath stroke
0 0 0 nodecolor
14 /Times-Roman set_font
1496 263.8 moveto 60 (EQ\(-1,$i0\)) alignedtext
0 0 0 nodecolor
14 /Times-Roman set_font
1475.5 248.8 moveto 101 (\(#47\)\(\(#46\),\(#42\)\)) alignedtext
grestore
% 45->47
gsave
1 setlinewidth
0 0 0 edgecolor
newpath 1308.04 2155.07 moveto
1380.57 2150.99 1574 2129.05 1574 2011 curveto
1574 2011 1574 2011 1574 404 curveto
1574 362.07 1555.22 316.65 1541.16 288.51 curveto
stroke
0 0 0 edgecolor
newpath 1544.11 286.59 moveto
1536.42 279.31 lineto
1537.88 289.8 lineto
closepath fill
1 setlinewidth
solid
0 0 0 edgecolor
newpath 1544.11 286.59 moveto
1536.42 279.31 lineto
1537.88 289.8 lineto
closepath stroke
grestore
% 50
gsave
1 setlinewidth
0 0 0 nodecolor
newpath 1335.5 2103 moveto
1218.5 2103 lineto
1218.5 2065 lineto
1335.5 2065 lineto
closepath stroke
0 0 0 nodecolor
14 /Times-Roman set_font
1242 2087.8 moveto 70 (NEQ\(-1,$i0\)) alignedtext
0 0 0 nodecolor
14 /Times-Roman set_font
1226.5 2072.8 moveto 101 (\(#50\)\(\(#46\),\(#42\)\)) alignedtext
grestore
% 45->50
gsave
1 setlinewidth
0 0 0 edgecolor
newpath 1280.03 2138.81 moveto
1279.6 2131.11 1279.07 2121.82 1278.59 2113.15 curveto
stroke
0 0 0 edgecolor
newpath 1282.07 2112.81 moveto
1278.02 2103.02 lineto
1275.08 2113.2 lineto
closepath fill
1 setlinewidth
solid
0 0 0 edgecolor
newpath 1282.07 2112.81 moveto
1278.02 2103.02 lineto
1275.08 2113.2 lineto
closepath stroke
grestore
% 57
gsave
1 setlinewidth
0 0 0 nodecolor
newpath 1279.5 1883 moveto
1010.5 1883 lineto
1010.5 1845 lineto
1279.5 1845 lineto
closepath stroke
0 0 0 nodecolor
14 /Times-Roman set_font
1018.5 1867.8 moveto 253 (cursor.android.database.Cursor.moveToFirst\(\)) alignedtext
0 0 0 nodecolor
14 /Times-Roman set_font
1109 1852.8 moveto 72 (\(#31\).\(#57\)\(\)) alignedtext
grestore
% 57->59
gsave
1 setlinewidth
0 0 0 edgecolor
newpath 1145 1844.83 moveto
1145 1837.13 1145 1827.97 1145 1819.42 curveto
stroke
0 0 0 edgecolor
newpath 1148.5 1819.41 moveto
1145 1809.41 lineto
1141.5 1819.41 lineto
closepath fill
1 setlinewidth
solid
0 0 0 edgecolor
newpath 1148.5 1819.41 moveto
1145 1809.41 lineto
1141.5 1819.41 lineto
closepath stroke
grestore
% 53
gsave
1 setlinewidth
0 0 0 nodecolor
newpath 1394 2029 moveto
1146 2029 lineto
1146 1991 lineto
1394 1991 lineto
closepath stroke
0 0 0 nodecolor
14 /Times-Roman set_font
1154 2013.8 moveto 232 (cursor.android.database.Cursor.getCount\(\)) alignedtext
0 0 0 nodecolor
14 /Times-Roman set_font
1234 1998.8 moveto 72 (\(#31\).\(#53\)\(\)) alignedtext
grestore
% 55
gsave
1 setlinewidth
0 0 0 nodecolor
newpath 1297 1955 moveto
1243 1955 lineto
1243 1919 lineto
1297 1919 lineto
closepath stroke
0 0 0 nodecolor
14 /Times-Roman set_font
1255 1933.3 moveto 30 (\(#55\)) alignedtext
grestore
% 53->55
gsave
1 setlinewidth
0 0 0 edgecolor
newpath 1270 1990.72 moveto
1270 1982.97 1270 1973.79 1270 1965.27 curveto
stroke
0 0 0 edgecolor
newpath 1273.5 1965 moveto
1270 1955 lineto
1266.5 1965 lineto
closepath fill
1 setlinewidth
solid
0 0 0 edgecolor
newpath 1273.5 1965 moveto
1270 1955 lineto
1266.5 1965 lineto
closepath stroke
grestore
% 53->42
gsave
1 setlinewidth
0.66667 1 1 edgecolor
newpath 1287.25 1990.62 moveto
1309.67 1964.72 1346 1915.03 1346 1865 curveto
1346 1865 1346 1865 1346 477 curveto
1346 432.58 1319.95 386.63 1301.09 359.19 curveto
stroke
0.66667 1 1 edgecolor
newpath 1303.9 357.09 moveto
1295.26 350.95 lineto
1298.18 361.14 lineto
closepath fill
1 setlinewidth
solid
0.66667 1 1 edgecolor
newpath 1303.9 357.09 moveto
1295.26 350.95 lineto
1298.18 361.14 lineto
closepath stroke
grestore
% 55->57
gsave
1 setlinewidth
0 0 0 edgecolor
newpath 1242.88 1920.59 moveto
1226.22 1911.13 1204.55 1898.83 1185.85 1888.2 curveto
stroke
0 0 0 edgecolor
newpath 1187.36 1885.03 moveto
1176.93 1883.14 lineto
1183.9 1891.12 lineto
closepath fill
1 setlinewidth
solid
0 0 0 edgecolor
newpath 1187.36 1885.03 moveto
1176.93 1883.14 lineto
1183.9 1891.12 lineto
closepath stroke
grestore
% 55->42
gsave
1 setlinewidth
0.66667 1 1 edgecolor
newpath 1277.51 1918.97 moveto
1288.58 1892.26 1308 1838.62 1308 1791 curveto
1308 1791 1308 1791 1308 477 curveto
1308 435.87 1297.46 389.15 1289.8 360.63 curveto
stroke
0.66667 1 1 edgecolor
newpath 1293.18 359.69 moveto
1287.14 350.99 lineto
1286.43 361.56 lineto
closepath fill
1 setlinewidth
solid
0.66667 1 1 edgecolor
newpath 1293.18 359.69 moveto
1287.14 350.99 lineto
1286.43 361.56 lineto
closepath stroke
grestore
% 47->111
gsave
1 setlinewidth
0 0 0 edgecolor
newpath 1522.09 240.66 moveto
1518.11 222.07 1511.73 192.52 1506 167 curveto
1498.44 133.34 1489.41 94.65 1483.46 69.35 curveto
stroke
0 0 0 edgecolor
newpath 1486.81 68.3 moveto
1481.11 59.37 lineto
1480 69.91 lineto
closepath fill
1 setlinewidth
solid
0 0 0 edgecolor
newpath 1486.81 68.3 moveto
1481.11 59.37 lineto
1480 69.91 lineto
closepath stroke
grestore
% 50->53
gsave
1 setlinewidth
0 0 0 edgecolor
newpath 1275.23 2064.83 moveto
1274.48 2057.13 1273.59 2047.97 1272.76 2039.42 curveto
stroke
0 0 0 edgecolor
newpath 1276.24 2039.03 moveto
1271.79 2029.41 lineto
1269.27 2039.71 lineto
closepath fill
1 setlinewidth
solid
0 0 0 edgecolor
newpath 1276.24 2039.03 moveto
1271.79 2029.41 lineto
1269.27 2039.71 lineto
closepath stroke
grestore
% 43->45
gsave
1 setlinewidth
0 0 0 edgecolor
newpath 1281 2210.72 moveto
1281 2202.97 1281 2193.79 1281 2185.27 curveto
stroke
0 0 0 edgecolor
newpath 1284.5 2185 moveto
1281 2175 lineto
1277.5 2185 lineto
closepath fill
1 setlinewidth
solid
0 0 0 edgecolor
newpath 1284.5 2185 moveto
1281 2175 lineto
1277.5 2185 lineto
closepath stroke
grestore
% 43->42
gsave
1 setlinewidth
0.66667 1 1 edgecolor
newpath 1405.19 2223.61 moveto
1499.12 2212.06 1612 2178.69 1612 2085 curveto
1612 2085 1612 2085 1612 550 curveto
1612 455.08 1553.98 438.13 1474 387 curveto
1436.42 362.98 1387.98 349.71 1349.15 342.45 curveto
stroke
0.66667 1 1 edgecolor
newpath 1349.44 338.95 moveto
1338.98 340.65 lineto
1348.22 345.84 lineto
closepath fill
1 setlinewidth
solid
0.66667 1 1 edgecolor
newpath 1349.44 338.95 moveto
1338.98 340.65 lineto
1348.22 345.84 lineto
closepath stroke
grestore
% 14
gsave
1 setlinewidth
0 0 0 nodecolor
newpath 1308 2899 moveto
1254 2899 lineto
1254 2863 lineto
1308 2863 lineto
closepath stroke
0 0 0 nodecolor
14 /Times-Roman set_font
1266 2877.3 moveto 30 (\(#14\)) alignedtext
grestore
% 17
gsave
1 setlinewidth
0 0 0 nodecolor
newpath 1308 2827 moveto
1254 2827 lineto
1254 2791 lineto
1308 2791 lineto
closepath stroke
0 0 0 nodecolor
14 /Times-Roman set_font
1266 2805.3 moveto 30 (\(#17\)) alignedtext
grestore
% 14->17
gsave
1 setlinewidth
0 0 0 edgecolor
newpath 1281 2862.7 moveto
1281 2854.98 1281 2845.71 1281 2837.11 curveto
stroke
0 0 0 edgecolor
newpath 1284.5 2837.1 moveto
1281 2827.1 lineto
1277.5 2837.1 lineto
closepath fill
1 setlinewidth
solid
0 0 0 edgecolor
newpath 1284.5 2837.1 moveto
1281 2827.1 lineto
1277.5 2837.1 lineto
closepath stroke
grestore
% 13
gsave
1 setlinewidth
dashed
0 0 0 nodecolor
1497 2809 129.18 18 ellipse_path stroke
0 0 0 nodecolor
14 /Times-Roman set_font
1405.5 2805.3 moveto 183 (selection : java.lang.String \(# 13\)) alignedtext
grestore
% 14->13
gsave
1 setlinewidth
0.66667 1 1 edgecolor
newpath 1308.36 2871.13 moveto
1341 2860.55 1396.5 2842.57 1438.87 2828.84 curveto
stroke
0.66667 1 1 edgecolor
newpath 1440.08 2832.13 moveto
1448.51 2825.71 lineto
1437.92 2825.47 lineto
closepath fill
1 setlinewidth
solid
0.66667 1 1 edgecolor
newpath 1440.08 2832.13 moveto
1448.51 2825.71 lineto
1437.92 2825.47 lineto
closepath stroke
grestore
% 20
gsave
1 setlinewidth
0 0 0 nodecolor
newpath 1308 2755 moveto
1254 2755 lineto
1254 2719 lineto
1308 2719 lineto
closepath stroke
0 0 0 nodecolor
14 /Times-Roman set_font
1266 2733.3 moveto 30 (\(#20\)) alignedtext
grestore
% 23
gsave
1 setlinewidth
0 0 0 nodecolor
newpath 1308 2683 moveto
1254 2683 lineto
1254 2647 lineto
1308 2647 lineto
closepath stroke
0 0 0 nodecolor
14 /Times-Roman set_font
1266 2661.3 moveto 30 (\(#23\)) alignedtext
grestore
% 20->23
gsave
1 setlinewidth
0 0 0 edgecolor
newpath 1281 2718.7 moveto
1281 2710.98 1281 2701.71 1281 2693.11 curveto
stroke
0 0 0 edgecolor
newpath 1284.5 2693.1 moveto
1281 2683.1 lineto
1277.5 2693.1 lineto
closepath fill
1 setlinewidth
solid
0 0 0 edgecolor
newpath 1284.5 2693.1 moveto
1281 2683.1 lineto
1277.5 2693.1 lineto
closepath stroke
grestore
% 19
gsave
1 setlinewidth
dashed
0 0 0 nodecolor
1061 2665 128.88 18 ellipse_path stroke
0 0 0 nodecolor
14 /Times-Roman set_font
970 2661.3 moveto 182 (groupBy : java.lang.String \(# 19\)) alignedtext
grestore
% 20->19
gsave
1 setlinewidth
0.66667 1 1 edgecolor
newpath 1253.58 2727.28 moveto
1220.28 2716.68 1163.17 2698.51 1119.77 2684.7 curveto
stroke
0.66667 1 1 edgecolor
newpath 1120.76 2681.34 moveto
1110.17 2681.65 lineto
1118.64 2688.01 lineto
closepath fill
1 setlinewidth
solid
0.66667 1 1 edgecolor
newpath 1120.76 2681.34 moveto
1110.17 2681.65 lineto
1118.64 2688.01 lineto
closepath stroke
grestore
% 29
gsave
1 setlinewidth
0 0 0 nodecolor
newpath 1308 2539 moveto
1254 2539 lineto
1254 2503 lineto
1308 2503 lineto
closepath stroke
0 0 0 nodecolor
14 /Times-Roman set_font
1266 2517.3 moveto 30 (\(#29\)) alignedtext
grestore
% 29->32
gsave
1 setlinewidth
0 0 0 edgecolor
newpath 1281 2502.75 moveto
1281 2478.64 1281 2434.57 1281 2405.53 curveto
stroke
0 0 0 edgecolor
newpath 1284.5 2405.21 moveto
1281 2395.21 lineto
1277.5 2405.21 lineto
closepath fill
1 setlinewidth
solid
0 0 0 edgecolor
newpath 1284.5 2405.21 moveto
1281 2395.21 lineto
1277.5 2405.21 lineto
closepath stroke
grestore
% 28
gsave
1 setlinewidth
dashed
0 0 0 nodecolor
1138 2449 115.08 18 ellipse_path stroke
0 0 0 nodecolor
14 /Times-Roman set_font
1057.5 2445.3 moveto 161 (limit : java.lang.String \(# 28\)) alignedtext
grestore
% 29->28
gsave
1 setlinewidth
0.66667 1 1 edgecolor
newpath 1253.77 2506.67 moveto
1233.09 2496.55 1204.28 2482.44 1180.57 2470.84 curveto
stroke
0.66667 1 1 edgecolor
newpath 1181.95 2467.61 moveto
1171.42 2466.36 lineto
1178.87 2473.9 lineto
closepath fill
1 setlinewidth
solid
0.66667 1 1 edgecolor
newpath 1181.95 2467.61 moveto
1171.42 2466.36 lineto
1178.87 2473.9 lineto
closepath stroke
grestore
% 26
gsave
1 setlinewidth
0 0 0 nodecolor
newpath 1308 2611 moveto
1254 2611 lineto
1254 2575 lineto
1308 2575 lineto
closepath stroke
0 0 0 nodecolor
14 /Times-Roman set_font
1266 2589.3 moveto 30 (\(#26\)) alignedtext
grestore
% 23->26
gsave
1 setlinewidth
0 0 0 edgecolor
newpath 1281 2646.7 moveto
1281 2638.98 1281 2629.71 1281 2621.11 curveto
stroke
0 0 0 edgecolor
newpath 1284.5 2621.1 moveto
1281 2611.1 lineto
1277.5 2621.1 lineto
closepath fill
1 setlinewidth
solid
0 0 0 edgecolor
newpath 1284.5 2621.1 moveto
1281 2611.1 lineto
1277.5 2621.1 lineto
closepath stroke
grestore
% 22
gsave
1 setlinewidth
dashed
0 0 0 nodecolor
1110 2593 122.38 18 ellipse_path stroke
0 0 0 nodecolor
14 /Times-Roman set_font
1024 2589.3 moveto 172 (having : java.lang.String \(# 22\)) alignedtext
grestore
% 23->22
gsave
1 setlinewidth
0.66667 1 1 edgecolor
newpath 1253.9 2652.91 moveto
1228.39 2642.46 1189.57 2626.57 1158.68 2613.93 curveto
stroke
0.66667 1 1 edgecolor
newpath 1159.95 2610.67 moveto
1149.37 2610.12 lineto
1157.3 2617.15 lineto
closepath fill
1 setlinewidth
solid
0.66667 1 1 edgecolor
newpath 1159.95 2610.67 moveto
1149.37 2610.12 lineto
1157.3 2617.15 lineto
closepath stroke
grestore
% 26->29
gsave
1 setlinewidth
0 0 0 edgecolor
newpath 1281 2574.7 moveto
1281 2566.98 1281 2557.71 1281 2549.11 curveto
stroke
0 0 0 edgecolor
newpath 1284.5 2549.1 moveto
1281 2539.1 lineto
1277.5 2549.1 lineto
closepath fill
1 setlinewidth
solid
0 0 0 edgecolor
newpath 1284.5 2549.1 moveto
1281 2539.1 lineto
1277.5 2549.1 lineto
closepath stroke
grestore
% 25
gsave
1 setlinewidth
dashed
0 0 0 nodecolor
1453 2521 126.98 18 ellipse_path stroke
0 0 0 nodecolor
14 /Times-Roman set_font
1363.5 2517.3 moveto 179 (orderBy : java.lang.String \(# 25\)) alignedtext
grestore
% 26->25
gsave
1 setlinewidth
0.66667 1 1 edgecolor
newpath 1308.25 2580.91 moveto
1333.92 2570.46 1372.96 2554.57 1404.03 2541.93 curveto
stroke
0.66667 1 1 edgecolor
newpath 1405.45 2545.13 moveto
1413.4 2538.12 lineto
1402.81 2538.65 lineto
closepath fill
1 setlinewidth
solid
0.66667 1 1 edgecolor
newpath 1405.45 2545.13 moveto
1413.4 2538.12 lineto
1402.81 2538.65 lineto
closepath stroke
grestore
% 17->20
gsave
1 setlinewidth
0 0 0 edgecolor
newpath 1281 2790.7 moveto
1281 2782.98 1281 2773.71 1281 2765.11 curveto
stroke
0 0 0 edgecolor
newpath 1284.5 2765.1 moveto
1281 2755.1 lineto
1277.5 2765.1 lineto
closepath fill
1 setlinewidth
solid
0 0 0 edgecolor
newpath 1284.5 2765.1 moveto
1281 2755.1 lineto
1277.5 2765.1 lineto
closepath stroke
grestore
% 16
gsave
1 setlinewidth
dashed
0 0 0 nodecolor
1478 2737 152.17 18 ellipse_path stroke
0 0 0 nodecolor
14 /Times-Roman set_font
1369 2733.3 moveto 218 (selectionArgs : java.lang.String[] \(# 16\)) alignedtext
grestore
% 17->16
gsave
1 setlinewidth
0.66667 1 1 edgecolor
newpath 1308.39 2798.27 moveto
1337.8 2787.82 1385.31 2770.94 1422.58 2757.69 curveto
stroke
0.66667 1 1 edgecolor
newpath 1424.05 2760.88 moveto
1432.3 2754.24 lineto
1421.71 2754.29 lineto
closepath fill
1 setlinewidth
solid
0.66667 1 1 edgecolor
newpath 1424.05 2760.88 moveto
1432.3 2754.24 lineto
1421.71 2754.29 lineto
closepath stroke
grestore
% 8
gsave
1 setlinewidth
0 0 0 nodecolor
newpath 1308 3043 moveto
1254 3043 lineto
1254 3007 lineto
1308 3007 lineto
closepath stroke
0 0 0 nodecolor
14 /Times-Roman set_font
1269.5 3021.3 moveto 23 (\(#8\)) alignedtext
grestore
% 11
gsave
1 setlinewidth
0 0 0 nodecolor
newpath 1308 2971 moveto
1254 2971 lineto
1254 2935 lineto
1308 2935 lineto
closepath stroke
0 0 0 nodecolor
14 /Times-Roman set_font
1266 2949.3 moveto 30 (\(#11\)) alignedtext
grestore
% 8->11
gsave
1 setlinewidth
0 0 0 edgecolor
newpath 1281 3006.7 moveto
1281 2998.98 1281 2989.71 1281 2981.11 curveto
stroke
0 0 0 edgecolor
newpath 1284.5 2981.1 moveto
1281 2971.1 lineto
1277.5 2981.1 lineto
closepath fill
1 setlinewidth
solid
0 0 0 edgecolor
newpath 1284.5 2981.1 moveto
1281 2971.1 lineto
1277.5 2981.1 lineto
closepath stroke
grestore
% 8->7
gsave
1 setlinewidth
0.66667 1 1 edgecolor
newpath 1253.95 3023.93 moveto
1069.15 3023.13 0 3012.83 0 2882 curveto
0 2882 0 2882 0 1570 curveto
0 1375.41 259.59 1266.47 380.89 1226.18 curveto
stroke
0.66667 1 1 edgecolor
newpath 382.02 1229.5 moveto
390.43 1223.06 lineto
379.84 1222.84 lineto
closepath fill
1 setlinewidth
solid
0.66667 1 1 edgecolor
newpath 382.02 1229.5 moveto
390.43 1223.06 lineto
379.84 1222.84 lineto
closepath stroke
grestore
% 11->14
gsave
1 setlinewidth
0 0 0 edgecolor
newpath 1281 2934.7 moveto
1281 2926.98 1281 2917.71 1281 2909.11 curveto
stroke
0 0 0 edgecolor
newpath 1284.5 2909.1 moveto
1281 2899.1 lineto
1277.5 2909.1 lineto
closepath fill
1 setlinewidth
solid
0 0 0 edgecolor
newpath 1284.5 2909.1 moveto
1281 2899.1 lineto
1277.5 2909.1 lineto
closepath stroke
grestore
% 10
gsave
1 setlinewidth
dashed
0 0 0 nodecolor
795 2449 133.78 18 ellipse_path stroke
0 0 0 nodecolor
14 /Times-Roman set_font
700 2445.3 moveto 190 (columns : java.lang.String[] \(# 10\)) alignedtext
grestore
% 11->10
gsave
1 setlinewidth
0.66667 1 1 edgecolor
newpath 1253.83 2948.9 moveto
1160.25 2937.49 857 2894.03 857 2810 curveto
857 2810 857 2810 857 2592 curveto
857 2548.5 832.26 2503.29 814.03 2475.89 curveto
stroke
0.66667 1 1 edgecolor
newpath 816.69 2473.58 moveto
808.15 2467.31 lineto
810.92 2477.54 lineto
closepath fill
1 setlinewidth
solid
0.66667 1 1 edgecolor
newpath 816.69 2473.58 moveto
808.15 2467.31 lineto
810.92 2477.54 lineto
closepath stroke
grestore
% 5
gsave
1 setlinewidth
0 0 0 nodecolor
newpath 1308 3115 moveto
1254 3115 lineto
1254 3079 lineto
1308 3079 lineto
closepath stroke
0 0 0 nodecolor
14 /Times-Roman set_font
1269.5 3093.3 moveto 23 (\(#5\)) alignedtext
grestore
% 2->5
gsave
1 setlinewidth
0 0 0 edgecolor
newpath 1281 3150.7 moveto
1281 3142.98 1281 3133.71 1281 3125.11 curveto
stroke
0 0 0 edgecolor
newpath 1284.5 3125.1 moveto
1281 3115.1 lineto
1277.5 3125.1 lineto
closepath fill
1 setlinewidth
solid
0 0 0 edgecolor
newpath 1284.5 3125.1 moveto
1281 3115.1 lineto
1277.5 3125.1 lineto
closepath stroke
grestore
% 1
gsave
1 setlinewidth
dashed
0 0 0 nodecolor
1520 3097 194.17 18 ellipse_path stroke
0 0 0 nodecolor
14 /Times-Roman set_font
1378.5 3093.3 moveto 283 (this : ke.co.ma3map.android.helpers.Database \(# 1\)) alignedtext
grestore
% 2->1
gsave
1 setlinewidth
0.66667 1 1 edgecolor
newpath 1308.42 3159.97 moveto
1343.86 3149.59 1406.73 3131.17 1454.76 3117.11 curveto
stroke
0.66667 1 1 edgecolor
newpath 1455.85 3120.44 moveto
1464.46 3114.27 lineto
1453.88 3113.72 lineto
closepath fill
1 setlinewidth
solid
0.66667 1 1 edgecolor
newpath 1455.85 3120.44 moveto
1464.46 3114.27 lineto
1453.88 3113.72 lineto
closepath stroke
grestore
% 5->8
gsave
1 setlinewidth
0 0 0 edgecolor
newpath 1281 3078.7 moveto
1281 3070.98 1281 3061.71 1281 3053.11 curveto
stroke
0 0 0 edgecolor
newpath 1284.5 3053.1 moveto
1281 3043.1 lineto
1277.5 3053.1 lineto
closepath fill
1 setlinewidth
solid
0 0 0 edgecolor
newpath 1284.5 3053.1 moveto
1281 3043.1 lineto
1277.5 3053.1 lineto
closepath stroke
grestore
% 4
gsave
1 setlinewidth
dashed
0 0 0 nodecolor
1604 2953 187.37 18 ellipse_path stroke
0 0 0 nodecolor
14 /Times-Roman set_font
1468 2949.3 moveto 272 (db : android.database.sqlite.SQLiteDatabase \(# 4\)) alignedtext
grestore
% 5->4
gsave
1 setlinewidth
0.66667 1 1 edgecolor
newpath 1308.09 3083.1 moveto
1311.09 3081.7 1314.1 3080.31 1317 3079 curveto
1400.28 3041.21 1498.07 2999.1 1555.32 2974.67 curveto
stroke
0.66667 1 1 edgecolor
newpath 1557.01 2977.75 moveto
1564.84 2970.61 lineto
1554.27 2971.31 lineto
closepath fill
1 setlinewidth
solid
0.66667 1 1 edgecolor
newpath 1557.01 2977.75 moveto
1564.84 2970.61 lineto
1554.27 2971.31 lineto
closepath stroke
grestore
% 68->80
gsave
1 setlinewidth
0 1 1 edgecolor
newpath 844.31 933.22 moveto
833.21 959.69 814 1012.25 814 1059 curveto
814 1135 814 1135 814 1135 curveto
814 1175.88 823.35 1195.55 795 1225 curveto
781.59 1238.93 745.58 1250.24 706.78 1258.85 curveto
stroke
0 1 1 edgecolor
newpath 705.91 1255.46 moveto
696.87 1260.98 lineto
707.38 1262.3 lineto
closepath fill
1 setlinewidth
solid
0 1 1 edgecolor
newpath 705.91 1255.46 moveto
696.87 1260.98 lineto
707.38 1262.3 lineto
closepath stroke
grestore
% 68->91
gsave
1 setlinewidth
0 1 1 edgecolor
newpath 806.09 926.54 moveto
738.48 941.08 613.67 966.87 551.32 979.14 curveto
stroke
0 1 1 edgecolor
newpath 550.29 975.78 moveto
541.15 981.13 lineto
551.63 982.65 lineto
closepath fill
1 setlinewidth
solid
0 1 1 edgecolor
newpath 550.29 975.78 moveto
541.15 981.13 lineto
551.63 982.65 lineto
closepath stroke
grestore
% 68->77
gsave
1 setlinewidth
0 1 1 edgecolor
newpath 852 933.17 moveto
852 960.02 852 1013.57 852 1059 curveto
852 1208 852 1208 852 1208 curveto
852 1248.52 847.68 1295.22 844.45 1324.43 curveto
stroke
0 1 1 edgecolor
newpath 840.93 1324.39 moveto
843.28 1334.72 lineto
847.89 1325.18 lineto
closepath fill
1 setlinewidth
solid
0 1 1 edgecolor
newpath 840.93 1324.39 moveto
843.28 1334.72 lineto
847.89 1325.18 lineto
closepath stroke
grestore
% 68->74
gsave
1 setlinewidth
0 1 1 edgecolor
newpath 859.75 896.81 moveto
863.33 888.86 867.68 879.21 871.7 870.29 curveto
stroke
0 1 1 edgecolor
newpath 874.96 871.57 moveto
875.88 861.02 lineto
868.58 868.7 lineto
closepath fill
1 setlinewidth
solid
0 1 1 edgecolor
newpath 874.96 871.57 moveto
875.88 861.02 lineto
868.58 868.7 lineto
closepath stroke
grestore
% 68->73
gsave
1 setlinewidth
0 1 1 edgecolor
newpath 867.75 932.53 moveto
890.01 957.7 928 1008.11 928 1059 curveto
928 1281 928 1281 928 1281 curveto
928 1322.38 935.7 1369.84 941.3 1398.87 curveto
stroke
0 1 1 edgecolor
newpath 937.87 1399.56 moveto
943.25 1408.69 lineto
944.73 1398.2 lineto
closepath fill
1 setlinewidth
solid
0 1 1 edgecolor
newpath 937.87 1399.56 moveto
943.25 1408.69 lineto
944.73 1398.2 lineto
closepath stroke
grestore
% 46
gsave
1 setlinewidth
dashed
0 0 0 nodecolor
1178 2157 58.49 18 ellipse_path stroke
0 0 0 nodecolor
14 /Times-Roman set_font
1141 2153.3 moveto 74 (-1 : int \(# 46\)) alignedtext
grestore
% 46->47
gsave
1 setlinewidth
0 1 1 edgecolor
newpath 1220.35 2144.36 moveto
1262.02 2132.58 1322.44 2114.49 1344 2103 curveto
1402.07 2072.04 1460 2076.8 1460 2011 curveto
1460 2011 1460 2011 1460 404 curveto
1460 360.08 1485.98 314.98 1505.34 287.47 curveto
stroke
0 1 1 edgecolor
newpath 1508.32 289.33 moveto
1511.35 279.18 lineto
1502.65 285.22 lineto
closepath fill
1 setlinewidth
solid
0 1 1 edgecolor
newpath 1508.32 289.33 moveto
1511.35 279.18 lineto
1502.65 285.22 lineto
closepath stroke
grestore
% 46->50
gsave
1 setlinewidth
0 1 1 edgecolor
newpath 1199.97 2140.24 moveto
1212.73 2131.09 1229.07 2119.37 1243.42 2109.08 curveto
stroke
0 1 1 edgecolor
newpath 1245.51 2111.89 moveto
1251.59 2103.22 lineto
1241.43 2106.2 lineto
closepath fill
1 setlinewidth
solid
0 1 1 edgecolor
newpath 1245.51 2111.89 moveto
1251.59 2103.22 lineto
1241.43 2106.2 lineto
closepath stroke
grestore
% 58->96
gsave
1 setlinewidth
0 1 1 edgecolor
newpath 948.57 638.97 moveto
921.16 651.33 880.38 668.7 850.83 680.6 curveto
stroke
0 1 1 edgecolor
newpath 849.27 677.46 moveto
841.28 684.41 lineto
851.86 683.96 lineto
closepath fill
1 setlinewidth
solid
0 1 1 edgecolor
newpath 849.27 677.46 moveto
841.28 684.41 lineto
851.86 683.96 lineto
closepath stroke
grestore
% 58->98
gsave
1 setlinewidth
0 1 1 edgecolor
newpath 915.61 622.47 moveto
807.68 621.93 579.83 614.83 394 569 curveto
392.74 568.69 391.46 568.34 390.18 567.97 curveto
stroke
0 1 1 edgecolor
newpath 391 564.55 moveto
380.41 564.69 lineto
388.77 571.19 lineto
closepath fill
1 setlinewidth
solid
0 1 1 edgecolor
newpath 391 564.55 moveto
380.41 564.69 lineto
388.77 571.19 lineto
closepath stroke
grestore
% 58->62
gsave
1 setlinewidth
0 1 1 edgecolor
newpath 981.75 604.93 moveto
987.29 578.21 997 524.83 997 479 curveto
997 479 997 479 997 404 curveto
997 336.97 1203.84 291.52 1315.09 271.92 curveto
stroke
0 1 1 edgecolor
newpath 1315.97 275.32 moveto
1325.22 270.16 lineto
1314.77 268.42 lineto
closepath fill
1 setlinewidth
solid
0 1 1 edgecolor
newpath 1315.97 275.32 moveto
1325.22 270.16 lineto
1314.77 268.42 lineto
closepath stroke
grestore
% 58->99
gsave
1 setlinewidth
0 1 1 edgecolor
newpath 930.77 611.19 moveto
821.26 586.14 549.66 524 421.73 494.73 curveto
stroke
0 1 1 edgecolor
newpath 422.19 491.24 moveto
411.66 492.42 lineto
420.63 498.06 lineto
closepath fill
1 setlinewidth
solid
0 1 1 edgecolor
newpath 422.19 491.24 moveto
411.66 492.42 lineto
420.63 498.06 lineto
closepath stroke
grestore
% 58->102
gsave
1 setlinewidth
0 1 1 edgecolor
newpath 920.23 615.95 moveto
843.84 607.53 705.22 590.84 588 569 curveto
553.98 562.66 309.73 521.21 285 497 curveto
228.01 441.22 224.13 338.99 225.98 289.43 curveto
stroke
0 1 1 edgecolor
newpath 229.49 289.29 moveto
226.47 279.13 lineto
222.5 288.95 lineto
closepath fill
1 setlinewidth
solid
0 1 1 edgecolor
newpath 229.49 289.29 moveto
226.47 279.13 lineto
222.5 288.95 lineto
closepath stroke
grestore
% 58->77
gsave
1 setlinewidth
0 1 1 edgecolor
newpath 983.14 640.99 moveto
990.71 667.59 1004 720.82 1004 767 curveto
1004 843 1004 843 1004 843 curveto
1004 951.55 890 950.45 890 1059 curveto
890 1208 890 1208 890 1208 curveto
890 1250.97 870.45 1297.52 856.04 1325.97 curveto
stroke
0 1 1 edgecolor
newpath 852.91 1324.41 moveto
851.39 1334.9 lineto
859.12 1327.65 lineto
closepath fill
1 setlinewidth
solid
0 1 1 edgecolor
newpath 852.91 1324.41 moveto
851.39 1334.9 lineto
859.12 1327.65 lineto
closepath stroke
grestore
% 58->74
gsave
1 setlinewidth
0 1 1 edgecolor
newpath 978.35 641.47 moveto
978.22 672.79 974.43 739.64 947 787 curveto
940.45 798.31 930.62 808.39 920.67 816.68 curveto
stroke
0 1 1 edgecolor
newpath 918.41 814.01 moveto
912.72 822.95 lineto
922.75 819.51 lineto
closepath fill
1 setlinewidth
solid
0 1 1 edgecolor
newpath 918.41 814.01 moveto
912.72 822.95 lineto
922.75 819.51 lineto
closepath stroke
grestore
% 58->61
gsave
1 setlinewidth
0 1 1 edgecolor
newpath 1034.69 630.7 moveto
1109.55 643.07 1232 677.05 1232 767 curveto
1232 1572 1232 1572 1232 1572 curveto
1232 1613.41 1233.96 1627.89 1212 1663 curveto
1204.15 1675.55 1192.24 1686.36 1180.63 1694.9 curveto
stroke
0 1 1 edgecolor
newpath 1178.5 1692.11 moveto
1172.29 1700.69 lineto
1182.5 1697.86 lineto
closepath fill
1 setlinewidth
solid
0 1 1 edgecolor
newpath 1178.5 1692.11 moveto
1172.29 1700.69 lineto
1182.5 1697.86 lineto
closepath stroke
grestore
% 58->65
gsave
1 setlinewidth
0 1 1 edgecolor
newpath 1034.99 630.33 moveto
1067.62 636.86 1106.95 650.1 1132 677 curveto
1160.22 707.29 1156 725.6 1156 767 curveto
1156 1500 1156 1500 1156 1500 curveto
1156 1539.96 1151.68 1586.02 1148.45 1614.83 curveto
stroke
0 1 1 edgecolor
newpath 1144.95 1614.64 moveto
1147.28 1624.98 lineto
1151.9 1615.44 lineto
closepath fill
1 setlinewidth
solid
0 1 1 edgecolor
newpath 1144.95 1614.64 moveto
1147.28 1624.98 lineto
1151.9 1615.44 lineto
closepath stroke
grestore
% 58->73
gsave
1 setlinewidth
0 1 1 edgecolor
newpath 991.26 640.95 moveto
1010.01 666.67 1042 717.77 1042 767 curveto
1042 916 1042 916 1042 916 curveto
1042 1013.91 1004 1035.09 1004 1133 curveto
1004 1281 1004 1281 1004 1281 curveto
1004 1325.23 980.75 1372.11 963.94 1400.22 curveto
stroke
0 1 1 edgecolor
newpath 960.8 1398.65 moveto
958.53 1409 lineto
966.76 1402.32 lineto
closepath fill
1 setlinewidth
solid
0 1 1 edgecolor
newpath 960.8 1398.65 moveto
958.53 1409 lineto
966.76 1402.32 lineto
closepath stroke
grestore
% 4->32
gsave
1 setlinewidth
0 1 1 edgecolor
newpath 1624.42 2935.05 moveto
1651.52 2910.51 1696 2862.29 1696 2810 curveto
1696 2810 1696 2810 1696 2520 curveto
1696 2470.49 1671.47 2456.44 1629 2431 curveto
1604.02 2416.04 1549.47 2404.73 1490.79 2396.44 curveto
stroke
0 1 1 edgecolor
newpath 1490.96 2392.93 moveto
1480.57 2395.03 lineto
1490 2399.86 lineto
closepath fill
1 setlinewidth
solid
0 1 1 edgecolor
newpath 1490.96 2392.93 moveto
1480.57 2395.03 lineto
1490 2399.86 lineto
closepath stroke
grestore
% 13->32
gsave
1 setlinewidth
0 1 1 edgecolor
newpath 1573.99 2794.42 moveto
1597.9 2786.61 1622.32 2774.32 1639 2755 curveto
1665.42 2724.38 1658 2706.45 1658 2666 curveto
1658 2666 1658 2666 1658 2520 curveto
1658 2470.22 1632.55 2456.84 1590 2431 curveto
1566.34 2416.63 1512.76 2405.16 1456.74 2396.55 curveto
stroke
0 1 1 edgecolor
newpath 1457.04 2393.06 moveto
1446.63 2395.03 lineto
1456 2399.98 lineto
closepath fill
1 setlinewidth
solid
0 1 1 edgecolor
newpath 1457.04 2393.06 moveto
1446.63 2395.03 lineto
1456 2399.98 lineto
closepath stroke
grestore
% 31->80
gsave
1 setlinewidth
0 1 1 edgecolor
newpath 929.45 2292.96 moveto
698.69 2274.53 228 2228.33 228 2158 curveto
228 2158 228 2158 228 1936 curveto
228 1805.57 190 1775.43 190 1645 curveto
190 1645 190 1645 190 1498 curveto
190 1380.2 327.56 1325.78 439.28 1301.01 curveto
stroke
0 1 1 edgecolor
newpath 440.28 1304.38 moveto
449.32 1298.85 lineto
438.81 1297.53 lineto
closepath fill
1 setlinewidth
solid
0 1 1 edgecolor
newpath 440.28 1304.38 moveto
449.32 1298.85 lineto
438.81 1297.53 lineto
closepath stroke
grestore
% 31->105
gsave
1 setlinewidth
0 1 1 edgecolor
newpath 906.45 2299.95 moveto
680.41 2295.73 268.28 2283.39 210 2249 curveto
168.69 2224.63 152 2205.96 152 2158 curveto
152 2158 152 2158 152 1936 curveto
152 1826.66 38 1827.34 38 1718 curveto
38 1718 38 1718 38 332 curveto
38 269.56 103.64 230.43 157.75 208.78 curveto
stroke
0 1 1 edgecolor
newpath 159.29 211.93 moveto
167.36 205.06 lineto
156.77 205.41 lineto
closepath fill
1 setlinewidth
solid
0 1 1 edgecolor
newpath 159.29 211.93 moveto
167.36 205.06 lineto
156.77 205.41 lineto
closepath stroke
grestore
% 31->94
gsave
1 setlinewidth
0 1 1 edgecolor
newpath 906.17 2300.05 moveto
725.31 2296.14 430.43 2284.37 327 2249 curveto
257.84 2225.34 190 2231.1 190 2158 curveto
190 2158 190 2158 190 1936 curveto
190 1894.17 179.29 1884.66 166 1845 curveto
146.63 1787.17 114 1778.99 114 1718 curveto
114 1718 114 1718 114 1498 curveto
114 1207.14 119.04 1038.79 373 897 curveto
473.07 841.13 599.82 807.64 691.73 789.02 curveto
stroke
0 1 1 edgecolor
newpath 692.51 792.43 moveto
701.63 787.04 lineto
691.14 785.57 lineto
closepath fill
1 setlinewidth
solid
0 1 1 edgecolor
newpath 692.51 792.43 moveto
701.63 787.04 lineto
691.14 785.57 lineto
closepath stroke
grestore
% 31->109
gsave
1 setlinewidth
0 1 1 edgecolor
newpath 1192.23 2296.05 moveto
1368.3 2284.61 1650 2251.68 1650 2158 curveto
1650 2158 1650 2158 1650 332 curveto
1650 284.28 1631.5 269.19 1593 241 curveto
1568.03 222.72 1537.43 210.61 1507.43 202.6 curveto
stroke
0 1 1 edgecolor
newpath 1508.27 199.2 moveto
1497.72 200.14 lineto
1506.55 205.99 lineto
closepath fill
1 setlinewidth
solid
0 1 1 edgecolor
newpath 1508.27 199.2 moveto
1497.72 200.14 lineto
1506.55 205.99 lineto
closepath stroke
grestore
% 31->59
gsave
1 setlinewidth
0 1 1 edgecolor
newpath 1051.38 2284.87 moveto
1039.07 2204 988.18 1863.5 1001 1845 curveto
1010.45 1831.37 1023.78 1821.17 1038.57 1813.55 curveto
stroke
0 1 1 edgecolor
newpath 1040.39 1816.56 moveto
1047.94 1809.13 lineto
1037.41 1810.23 lineto
closepath fill
1 setlinewidth
solid
0 1 1 edgecolor
newpath 1040.39 1816.56 moveto
1047.94 1809.13 lineto
1037.41 1810.23 lineto
closepath stroke
grestore
% 31->57
gsave
1 setlinewidth
0 1 1 edgecolor
newpath 1048.18 2284.56 moveto
1045.07 2274.33 1041.57 2261.08 1040 2249 curveto
1037.83 2232.25 1037.52 2227.71 1040 2211 curveto
1058.08 2089.16 1110.13 1950.82 1133.45 1892.86 curveto
stroke
0 1 1 edgecolor
newpath 1136.81 1893.89 moveto
1137.33 1883.31 lineto
1130.33 1891.26 lineto
closepath fill
1 setlinewidth
solid
0 1 1 edgecolor
newpath 1136.81 1893.89 moveto
1137.33 1883.31 lineto
1130.33 1891.26 lineto
closepath stroke
grestore
% 31->53
gsave
1 setlinewidth
0 1 1 edgecolor
newpath 1058.66 2284.98 moveto
1068.9 2248.35 1093.8 2163.37 1111 2139 curveto
1142.46 2094.43 1193.59 2057.17 1229.35 2034.56 curveto
stroke
0 1 1 edgecolor
newpath 1231.44 2037.38 moveto
1238.09 2029.12 lineto
1227.74 2031.43 lineto
closepath fill
1 setlinewidth
solid
0 1 1 edgecolor
newpath 1231.44 2037.38 moveto
1238.09 2029.12 lineto
1227.74 2031.43 lineto
closepath stroke
grestore
% 31->43
gsave
1 setlinewidth
0 1 1 edgecolor
newpath 1104.94 2286.07 moveto
1137.08 2276.01 1178.96 2262.92 1213.8 2252.02 curveto
stroke
0 1 1 edgecolor
newpath 1214.93 2255.33 moveto
1223.43 2249.01 lineto
1212.84 2248.65 lineto
closepath fill
1 setlinewidth
solid
0 1 1 edgecolor
newpath 1214.93 2255.33 moveto
1223.43 2249.01 lineto
1212.84 2248.65 lineto
closepath stroke
grestore
% 22->32
gsave
1 setlinewidth
0 1 1 edgecolor
newpath 1086.65 2575.2 moveto
1047.07 2544.71 974.75 2478.99 1014 2431 curveto
1026.3 2415.96 1058.21 2405.02 1095.87 2397.08 curveto
stroke
0 1 1 edgecolor
newpath 1096.98 2400.43 moveto
1106.09 2395.03 lineto
1095.6 2393.57 lineto
closepath fill
1 setlinewidth
solid
0 1 1 edgecolor
newpath 1096.98 2400.43 moveto
1106.09 2395.03 lineto
1095.6 2393.57 lineto
closepath stroke
grestore
% 16->32
gsave
1 setlinewidth
0 1 1 edgecolor
newpath 1509.8 2719.33 moveto
1548.29 2696.6 1608 2651.99 1608 2594 curveto
1608 2594 1608 2594 1608 2520 curveto
1608 2452.82 1549.35 2416.9 1481.73 2397.8 curveto
stroke
0 1 1 edgecolor
newpath 1482.26 2394.32 moveto
1471.69 2395.1 lineto
1480.44 2401.08 lineto
closepath fill
1 setlinewidth
solid
0 1 1 edgecolor
newpath 1482.26 2394.32 moveto
1471.69 2395.1 lineto
1480.44 2401.08 lineto
closepath stroke
grestore
% 7->85
gsave
1 setlinewidth
0 1 1 edgecolor
newpath 447.6 1188.75 moveto
453.94 1170.09 465.07 1139.68 478 1115 curveto
482.81 1105.81 488.81 1096.25 494.53 1087.78 curveto
stroke
0 1 1 edgecolor
newpath 497.52 1089.61 moveto
500.33 1079.39 lineto
491.76 1085.63 lineto
closepath fill
1 setlinewidth
solid
0 1 1 edgecolor
newpath 497.52 1089.61 moveto
500.33 1079.39 lineto
491.76 1085.63 lineto
closepath stroke
grestore
% 7->83
gsave
1 setlinewidth
0 1 1 edgecolor
newpath 459.06 1189.17 moveto
468.08 1180.29 479.3 1169.21 489.26 1159.4 curveto
stroke
0 1 1 edgecolor
newpath 491.9 1161.71 moveto
496.56 1152.2 lineto
486.98 1156.73 lineto
closepath fill
1 setlinewidth
solid
0 1 1 edgecolor
newpath 491.9 1161.71 moveto
496.56 1152.2 lineto
486.98 1156.73 lineto
closepath stroke
grestore
% 7->32
gsave
1 setlinewidth
0 1 1 edgecolor
newpath 411.74 1224.47 moveto
324.05 1274.66 76 1435 76 1643 curveto
76 2158 76 2158 76 2158 curveto
76 2206.94 96.06 2223.79 138 2249 curveto
268.47 2327.43 649.12 2357.13 935.58 2368.33 curveto
stroke
0 1 1 edgecolor
newpath 935.6 2371.83 moveto
945.73 2368.72 lineto
935.87 2364.84 lineto
closepath fill
1 setlinewidth
solid
0 1 1 edgecolor
newpath 935.6 2371.83 moveto
945.73 2368.72 lineto
935.87 2364.84 lineto
closepath stroke
grestore
% 88
gsave
1 setlinewidth
0 0 0 nodecolor
newpath 669 1153 moveto
559 1153 lineto
559 1115 lineto
669 1115 lineto
closepath stroke
0 0 0 nodecolor
14 /Times-Roman set_font
570 1137.8 moveto 88 (NEQ\(null,table\)) alignedtext
0 0 0 nodecolor
14 /Times-Roman set_font
567 1122.8 moveto 94 (\(#88\)\(\(#84\),\(#7\)\)) alignedtext
grestore
% 7->88
gsave
1 setlinewidth
0 1 1 edgecolor
newpath 480.6 1190.07 moveto
504.33 1180.27 535.06 1167.59 561.04 1156.86 curveto
stroke
0 1 1 edgecolor
newpath 562.47 1160.06 moveto
570.38 1153.01 lineto
559.8 1153.59 lineto
closepath fill
1 setlinewidth
solid
0 1 1 edgecolor
newpath 562.47 1160.06 moveto
570.38 1153.01 lineto
559.8 1153.59 lineto
closepath stroke
grestore
% 25->32
gsave
1 setlinewidth
0 1 1 edgecolor
newpath 1432.59 2503.03 moveto
1402.36 2477.9 1345.5 2430.62 1310.66 2401.66 curveto
stroke
0 1 1 edgecolor
newpath 1312.66 2398.77 moveto
1302.73 2395.07 lineto
1308.18 2404.15 lineto
closepath fill
1 setlinewidth
solid
0 1 1 edgecolor
newpath 1312.66 2398.77 moveto
1302.73 2395.07 lineto
1308.18 2404.15 lineto
closepath stroke
grestore
% 10->71
gsave
1 setlinewidth
0 1 1 edgecolor
newpath 662.08 2446.57 moveto
463.9 2440.79 114 2414.87 114 2304 curveto
114 2304 114 2304 114 1936 curveto
114 1571.8 746.78 1511.25 909.31 1501.71 curveto
stroke
0 1 1 edgecolor
newpath 909.97 1505.17 moveto
919.76 1501.13 lineto
909.58 1498.19 lineto
closepath fill
1 setlinewidth
solid
0 1 1 edgecolor
newpath 909.97 1505.17 moveto
919.76 1501.13 lineto
909.58 1498.19 lineto
closepath stroke
grestore
% 10->32
gsave
1 setlinewidth
0 1 1 edgecolor
newpath 882.17 2435.27 moveto
956 2424.48 1063.03 2408.84 1147.64 2396.48 curveto
stroke
0 1 1 edgecolor
newpath 1148.19 2399.94 moveto
1157.58 2395.03 lineto
1147.17 2393.01 lineto
closepath fill
1 setlinewidth
solid
0 1 1 edgecolor
newpath 1148.19 2399.94 moveto
1157.58 2395.03 lineto
1147.17 2393.01 lineto
closepath stroke
grestore
% 28->32
gsave
1 setlinewidth
0 1 1 edgecolor
newpath 1170.81 2431.71 moveto
1189.99 2422.19 1214.48 2410.03 1235.5 2399.59 curveto
stroke
0 1 1 edgecolor
newpath 1237.18 2402.67 moveto
1244.58 2395.08 lineto
1234.06 2396.4 lineto
closepath fill
1 setlinewidth
solid
0 1 1 edgecolor
newpath 1237.18 2402.67 moveto
1244.58 2395.08 lineto
1234.06 2396.4 lineto
closepath stroke
grestore
% 19->32
gsave
1 setlinewidth
0 1 1 edgecolor
newpath 1020.11 2647.93 moveto
1004.31 2639.47 987.91 2627.38 979 2611 curveto
955.24 2567.34 931.9 2501.63 999 2431 curveto
1013.38 2415.86 1048.56 2404.85 1089.37 2396.88 curveto
stroke
0 1 1 edgecolor
newpath 1090.11 2400.3 moveto
1099.29 2395.02 lineto
1088.82 2393.42 lineto
closepath fill
1 setlinewidth
solid
0 1 1 edgecolor
newpath 1090.11 2400.3 moveto
1099.29 2395.02 lineto
1088.82 2393.42 lineto
closepath stroke
grestore
% 84
gsave
1 setlinewidth
dashed
0 0 0 nodecolor
697 1207 89.08 18 ellipse_path stroke
0 0 0 nodecolor
14 /Times-Roman set_font
636.5 1203.3 moveto 121 (null : null_type \(# 84\)) alignedtext
grestore
% 84->85
gsave
1 setlinewidth
0 1 1 edgecolor
newpath 698.21 1188.66 moveto
698.63 1168.48 696.17 1135.34 678 1115 curveto
653 1087.03 613.25 1073.5 579.15 1066.98 curveto
stroke
0 1 1 edgecolor
newpath 579.69 1063.52 moveto
569.23 1065.24 lineto
578.48 1070.41 lineto
closepath fill
1 setlinewidth
solid
0 1 1 edgecolor
newpath 579.69 1063.52 moveto
569.23 1065.24 lineto
578.48 1070.41 lineto
closepath stroke
grestore
% 84->88
gsave
1 setlinewidth
0 1 1 edgecolor
newpath 677.33 1189.17 moveto
667.05 1180.38 654.27 1169.44 642.88 1159.71 curveto
stroke
0 1 1 edgecolor
newpath 645.15 1157.04 moveto
635.27 1153.2 lineto
640.6 1162.36 lineto
closepath fill
1 setlinewidth
solid
0 1 1 edgecolor
newpath 645.15 1157.04 moveto
635.27 1153.2 lineto
640.6 1162.36 lineto
closepath stroke
grestore
% 42->98
gsave
1 setlinewidth
0 1 1 edgecolor
newpath 1234.89 344.95 moveto
1072.15 382.79 535.68 507.52 389.86 541.43 curveto
stroke
0 1 1 edgecolor
newpath 389 538.04 moveto
380.05 543.71 lineto
390.58 544.85 lineto
closepath fill
1 setlinewidth
solid
0 1 1 edgecolor
newpath 389 538.04 moveto
380.05 543.71 lineto
390.58 544.85 lineto
closepath stroke
grestore
% 42->62
gsave
1 setlinewidth
0 1 1 edgecolor
newpath 1304.89 316.07 moveto
1318.05 306.91 1334.84 295.22 1349.56 284.97 curveto
stroke
0 1 1 edgecolor
newpath 1351.74 287.72 moveto
1357.95 279.13 lineto
1347.74 281.97 lineto
closepath fill
1 setlinewidth
solid
0 1 1 edgecolor
newpath 1351.74 287.72 moveto
1357.95 279.13 lineto
1347.74 281.97 lineto
closepath stroke
grestore
% 42->106
gsave
1 setlinewidth
0 1 1 edgecolor
newpath 1222.73 338.66 moveto
1044.96 352.18 520.01 391.08 375.26 401.44 curveto
stroke
0 1 1 edgecolor
newpath 374.85 397.96 moveto
365.12 402.16 lineto
375.35 404.94 lineto
closepath fill
1 setlinewidth
solid
0 1 1 edgecolor
newpath 374.85 397.96 moveto
365.12 402.16 lineto
375.35 404.94 lineto
closepath stroke
grestore
% 42->99
gsave
1 setlinewidth
0 1 1 edgecolor
newpath 1228.42 342.25 moveto
1069.23 366.75 599.2 439.1 421.81 466.41 curveto
stroke
0 1 1 edgecolor
newpath 421.17 462.97 moveto
411.82 467.95 lineto
422.23 469.88 lineto
closepath fill
1 setlinewidth
solid
0 1 1 edgecolor
newpath 421.17 462.97 moveto
411.82 467.95 lineto
422.23 469.88 lineto
closepath stroke
grestore
% 42->102
gsave
1 setlinewidth
0 1 1 edgecolor
newpath 1221.93 327.95 moveto
1040.34 315.72 497.55 279.16 300.5 265.88 curveto
stroke
0 1 1 edgecolor
newpath 300.47 262.37 moveto
290.26 265.19 lineto
300 269.36 lineto
closepath fill
1 setlinewidth
solid
0 1 1 edgecolor
newpath 300.47 262.37 moveto
290.26 265.19 lineto
300 269.36 lineto
closepath stroke
grestore
% 42->61
gsave
1 setlinewidth
0 1 1 edgecolor
newpath 1279.63 351.13 moveto
1276.13 377.93 1270 431.41 1270 477 curveto
1270 1572 1270 1572 1270 1572 curveto
1270 1615.33 1263.01 1629.94 1235 1663 curveto
1220.73 1679.85 1199.67 1692.66 1181.51 1701.46 curveto
stroke
0 1 1 edgecolor
newpath 1179.94 1698.33 moveto
1172.33 1705.7 lineto
1182.87 1704.69 lineto
closepath fill
1 setlinewidth
solid
0 1 1 edgecolor
newpath 1179.94 1698.33 moveto
1172.33 1705.7 lineto
1182.87 1704.69 lineto
closepath stroke
grestore
% 42->65
gsave
1 setlinewidth
0 1 1 edgecolor
newpath 1263.34 350.45 moveto
1237.51 375.15 1194 424.53 1194 477 curveto
1194 1500 1194 1500 1194 1500 curveto
1194 1542.02 1174.83 1587.42 1160.47 1615.53 curveto
stroke
0 1 1 edgecolor
newpath 1157.2 1614.24 moveto
1155.63 1624.72 lineto
1163.39 1617.5 lineto
closepath fill
1 setlinewidth
solid
0 1 1 edgecolor
newpath 1157.2 1614.24 moveto
1155.63 1624.72 lineto
1163.39 1617.5 lineto
closepath stroke
grestore
% 42->45
gsave
1 setlinewidth
0 1 1 edgecolor
newpath 1331.83 343.91 moveto
1395.62 359.83 1498 397.73 1498 477 curveto
1498 2011 1498 2011 1498 2011 curveto
1498 2053.26 1503.69 2072.93 1474 2103 curveto
1432.73 2144.8 1361.8 2154.51 1318.38 2156.28 curveto
stroke
0 1 1 edgecolor
newpath 1318.13 2152.78 moveto
1308.23 2156.57 lineto
1318.33 2159.78 lineto
closepath fill
1 setlinewidth
solid
0 1 1 edgecolor
newpath 1318.13 2152.78 moveto
1308.23 2156.57 lineto
1318.33 2159.78 lineto
closepath stroke
grestore
% 42->47
gsave
1 setlinewidth
0 1 1 edgecolor
newpath 1324.22 319.71 moveto
1360.92 309.04 1414.77 293.37 1457.6 280.9 curveto
stroke
0 1 1 edgecolor
newpath 1458.78 284.21 moveto
1467.4 278.05 lineto
1456.82 277.48 lineto
closepath fill
1 setlinewidth
solid
0 1 1 edgecolor
newpath 1458.78 284.21 moveto
1467.4 278.05 lineto
1456.82 277.48 lineto
closepath stroke
grestore
% 42->50
gsave
1 setlinewidth
0 1 1 edgecolor
newpath 1313.42 348.7 moveto
1354.7 370.43 1422 415.33 1422 477 curveto
1422 1938 1422 1938 1422 1938 curveto
1422 1979.32 1429.17 1997.03 1403 2029 curveto
1388.36 2046.89 1366.69 2058.98 1345.44 2067.09 curveto
stroke
0 1 1 edgecolor
newpath 1343.97 2063.89 moveto
1335.73 2070.54 lineto
1346.32 2070.49 lineto
closepath fill
1 setlinewidth
solid
0 1 1 edgecolor
newpath 1343.97 2063.89 moveto
1335.73 2070.54 lineto
1346.32 2070.49 lineto
closepath stroke
grestore
endpage
showpage
grestore
%%PageTrailer
%%EndPage: 1
%%Trailer
end
restore
%%EOF
